{"page":1,"per_page":15,"photos":[{"id":30648997,"width":3840,"height":5760,"url":"https:\/\/www.pexels.com\/photo\/fresh-raw-squid-with-lemon-on-ice-display-30648997\/","photographer":"Electra Studio","photographer_url":"https:\/\/www.pexels.com\/@electra-studio-32883186","photographer_id":32883186,"avg_color":"#8F8E94","src":{"original":"https:\/\/images.pexels.com\/photos\/30648997\/pexels-photo-30648997.jpeg","large2x":"https:\/\/images.pexels.com\/photos\/30648997\/pexels-photo-30648997.jpeg?auto=compress&cs=tinysrgb&dpr=2&h=650&w=940","large":"https:\/\/images.pexels.com\/photos\/30648997\/pexels-photo-30648997.jpeg?auto=compress&cs=tinysrgb&h=650&w=940","medium":"https:\/\/images.pexels.com\/photos\/30648997\/pexels-photo-30648997.jpeg?auto=compress&cs=tinysrgb&h=350","small":"https:\/\/images.pexels.com\/photos\/30648997\/pexels-photo-30648997.jpeg?auto=compress&cs=tinysrgb&h=130","portrait":"https:\/\/images.pexels.com\/photos\/30648997\/pexels-photo-30648997.jpeg?auto=compress&cs=tinysrgb&fit=crop&h=1200&w=800","landscape":"https:\/\/images.pexels.com\/photos\/30648997\/pexels-photo-30648997.jpeg?auto=compress&cs=tinysrgb&fit=crop&h=627&w=1200","tiny":"https:\/\/images.pexels.com\/photos\/30648997\/pexels-photo-30648997.jpeg?auto=compress&cs=tinysrgb&dpr=1&fit=crop&h=200&w=280"},"liked":false,"alt":"Closeup of fresh raw squid and lemon wedge on ice, perfect for gourmet seafood dishes."},{"id":14225899,"width":8000,"height":5223,"url":"https:\/\/www.pexels.com\/photo\/octopus-on-sand-in-close-up-photography-14225899\/","photographer":"Mr Alex Photography","photographer_url":"https:\/\/www.pexels.com\/@mralexphotography","photographer_id":1735078,"avg_color":"#AEA6A4","src":{"original":"https:\/\/images.pexels.com\/photos\/14225899\/pexels-photo-14225899.jpeg","large2x":"https:\/\/images.pexels.com\/photos\/14225899\/pexels-photo-14225899.jpeg?auto=compress&cs=tinysrgb&dpr=2&h=650&w=940","large":"https:\/\/images.pexels.com\/photos\/14225899\/pexels-photo-14225899.jpeg?auto=compress&cs=tinysrgb&h=650&w=940","medium":"https:\/\/images.pexels.com\/photos\/14225899\/pexels-photo-14225899.jpeg?auto=compress&cs=tinysrgb&h=350","small":"https:\/\/images.pexels.com\/photos\/14225899\/pexels-photo-14225899.jpeg?auto=compress&cs=tinysrgb&h=130","portrait":"https:\/\/images.pexels.com\/photos\/14225899\/pexels-photo-14225899.jpeg?auto=compress&cs=tinysrgb&fit=crop&h=1200&w=800","landscape":"https:\/\/images.pexels.com\/photos\/14225899\/pexels-photo-14225899.jpeg?auto=compress&cs=tinysrgb&fit=crop&h=627&w=1200","tiny":"https:\/\/images.pexels.com\/photos\/14225899\/pexels-photo-14225899.jpeg?auto=compress&cs=tinysrgb&dpr=1&fit=crop&h=200&w=280"},"liked":false,"alt":"A close-up of a common octopus (Octopus vulgaris) on the sandy shoreline in Barcelona."},{"id":18446920,"width":1773,"height":2614,"url":"https:\/\/www.pexels.com\/photo\/close-up-of-an-octopus-18446920\/","photographer":"isabel  ph","photographer_url":"https:\/\/www.pexels.com\/@isabeu","photographer_id":3587408,"avg_color":"#38889F","src":{"original":"https:\/\/images.pexels.com\/photos\/18446920\/pexels-photo-18446920.jpeg","large2x":"https:\/\/images.pexels.com\/photos\/18446920\/pexels-photo-18446920.jpeg?auto=compress&cs=tinysrgb&dpr=2&h=650&w=940","large":"https:\/\/images.pexels.com\/photos\/18446920\/pexels-photo-18446920.jpeg?auto=compress&cs=tinysrgb&h=650&w=940","medium":"https:\/\/images.pexels.com\/photos\/18446920\/pexels-photo-18446920.jpeg?auto=compress&cs=tinysrgb&h=350","small":"https:\/\/images.pexels.com\/photos\/18446920\/pexels-photo-18446920.jpeg?auto=compress&cs=tinysrgb&h=130","portrait":"https:\/\/images.pexels.com\/photos\/18446920\/pexels-photo-18446920.jpeg?auto=compress&cs=tinysrgb&fit=crop&h=1200&w=800","landscape":"https:\/\/images.pexels.com\/photos\/18446920\/pexels-photo-18446920.jpeg?auto=compress&cs=tinysrgb&fit=crop&h=627&w=1200","tiny":"https:\/\/images.pexels.com\/photos\/18446920\/pexels-photo-18446920.jpeg?auto=compress&cs=tinysrgb&dpr=1&fit=crop&h=200&w=280"},"liked":false,"alt":"A close-up of a vibrant octopus resting on a bright blue surface, showcasing its unique patterns."},{"id":20985390,"width":5036,"height":3357,"url":"https:\/\/www.pexels.com\/photo\/arm-of-octopus-20985390\/","photographer":"\u041a\u0430\u0442\u0435\u0440\u0438\u043d\u0430  \u0416\u043e\u0441\u0443\u043b","photographer_url":"https:\/\/www.pexels.com\/@1051250151","photographer_id":1051250151,"avg_color":"#554E9E","src":{"original":"https:\/\/images.pexels.com\/photos\/20985390\/pexels-photo-20985390.jpeg","large2x":"https:\/\/images.pexels.com\/photos\/20985390\/pexels-photo-20985390.jpeg?auto=compress&cs=tinysrgb&dpr=2&h=650&w=940","large":"https:\/\/images.pexels.com\/photos\/20985390\/pexels-photo-20985390.jpeg?auto=compress&cs=tinysrgb&h=650&w=940","medium":"https:\/\/images.pexels.com\/photos\/20985390\/pexels-photo-20985390.jpeg?auto=compress&cs=tinysrgb&h=350","small":"https:\/\/images.pexels.com\/photos\/20985390\/pexels-photo-20985390.jpeg?auto=compress&cs=tinysrgb&h=130","portrait":"https:\/\/images.pexels.com\/photos\/20985390\/pexels-photo-20985390.jpeg?auto=compress&cs=tinysrgb&fit=crop&h=1200&w=800","landscape":"https:\/\/images.pexels.com\/photos\/20985390\/pexels-photo-20985390.jpeg?auto=compress&cs=tinysrgb&fit=crop&h=627&w=1200","tiny":"https:\/\/images.pexels.com\/photos\/20985390\/pexels-photo-20985390.jpeg?auto=compress&cs=tinysrgb&dpr=1&fit=crop&h=200&w=280"},"liked":false,"alt":"Detailed close-up of an octopus tentacle with vivid colors and textures."},{"id":29999876,"width":3715,"height":5572,"url":"https:\/\/www.pexels.com\/photo\/vibrant-octopus-in-aquarium-setting-29999876\/","photographer":"sofiya walrus","photographer_url":"https:\/\/www.pexels.com\/@sofiya-walrus-945910433","photographer_id":945910433,"avg_color":"#2C2632","src":{"original":"https:\/\/images.pexels.com\/photos\/29999876\/pexels-photo-29999876.jpeg","large2x":"https:\/\/images.pexels.com\/photos\/29999876\/pexels-photo-29999876.jpeg?auto=compress&cs=tinysrgb&dpr=2&h=650&w=940","large":"https:\/\/images.pexels.com\/photos\/29999876\/pexels-photo-29999876.jpeg?auto=compress&cs=tinysrgb&h=650&w=940","medium":"https:\/\/images.pexels.com\/photos\/29999876\/pexels-photo-29999876.jpeg?auto=compress&cs=tinysrgb&h=350","small":"https:\/\/images.pexels.com\/photos\/29999876\/pexels-photo-29999876.jpeg?auto=compress&cs=tinysrgb&h=130","portrait":"https:\/\/images.pexels.com\/photos\/29999876\/pexels-photo-29999876.jpeg?auto=compress&cs=tinysrgb&fit=crop&h=1200&w=800","landscape":"https:\/\/images.pexels.com\/photos\/29999876\/pexels-photo-29999876.jpeg?auto=compress&cs=tinysrgb&fit=crop&h=627&w=1200","tiny":"https:\/\/images.pexels.com\/photos\/29999876\/pexels-photo-29999876.jpeg?auto=compress&cs=tinysrgb&dpr=1&fit=crop&h=200&w=280"},"liked":false,"alt":"Close-up of a colorful octopus showcasing its tentacles under water."},{"id":2902860,"width":3818,"height":5719,"url":"https:\/\/www.pexels.com\/photo\/orange-octopus-on-green-stone-2902860\/","photographer":"Vlad Vasnetsov","photographer_url":"https:\/\/www.pexels.com\/@vladvictoria","photographer_id":465925,"avg_color":"#391F25","src":{"original":"https:\/\/images.pexels.com\/photos\/2902860\/pexels-photo-2902860.jpeg","large2x":"https:\/\/images.pexels.com\/photos\/2902860\/pexels-photo-2902860.jpeg?auto=compress&cs=tinysrgb&dpr=2&h=650&w=940","large":"https:\/\/images.pexels.com\/photos\/2902860\/pexels-photo-2902860.jpeg?auto=compress&cs=tinysrgb&h=650&w=940","medium":"https:\/\/images.pexels.com\/photos\/2902860\/pexels-photo-2902860.jpeg?auto=compress&cs=tinysrgb&h=350","small":"https:\/\/images.pexels.com\/photos\/2902860\/pexels-photo-2902860.jpeg?auto=compress&cs=tinysrgb&h=130","portrait":"https:\/\/images.pexels.com\/photos\/2902860\/pexels-photo-2902860.jpeg?auto=compress&cs=tinysrgb&fit=crop&h=1200&w=800","landscape":"https:\/\/images.pexels.com\/photos\/2902860\/pexels-photo-2902860.jpeg?auto=compress&cs=tinysrgb&fit=crop&h=627&w=1200","tiny":"https:\/\/images.pexels.com\/photos\/2902860\/pexels-photo-2902860.jpeg?auto=compress&cs=tinysrgb&dpr=1&fit=crop&h=200&w=280"},"liked":false,"alt":"Discover a vibrant octopus in its natural underwater habitat in Sidney, BC, Canada."},{"id":36748821,"width":5000,"height":3333,"url":"https:\/\/www.pexels.com\/photo\/close-up-of-an-octopus-in-underwater-habitat-36748821\/","photographer":"Jeffry Surianto","photographer_url":"https:\/\/www.pexels.com\/@andromeda99","photographer_id":3009141,"avg_color":"#47493B","src":{"original":"https:\/\/images.pexels.com\/photos\/36748821\/pexels-photo-36748821.jpeg","large2x":"https:\/\/images.pexels.com\/photos\/36748821\/pexels-photo-36748821.jpeg?auto=compress&cs=tinysrgb&dpr=2&h=650&w=940","large":"https:\/\/images.pexels.com\/photos\/36748821\/pexels-photo-36748821.jpeg?auto=compress&cs=tinysrgb&h=650&w=940","medium":"https:\/\/images.pexels.com\/photos\/36748821\/pexels-photo-36748821.jpeg?auto=compress&cs=tinysrgb&h=350","small":"https:\/\/images.pexels.com\/photos\/36748821\/pexels-photo-36748821.jpeg?auto=compress&cs=tinysrgb&h=130","portrait":"https:\/\/images.pexels.com\/photos\/36748821\/pexels-photo-36748821.jpeg?auto=compress&cs=tinysrgb&fit=crop&h=1200&w=800","landscape":"https:\/\/images.pexels.com\/photos\/36748821\/pexels-photo-36748821.jpeg?auto=compress&cs=tinysrgb&fit=crop&h=627&w=1200","tiny":"https:\/\/images.pexels.com\/photos\/36748821\/pexels-photo-36748821.jpeg?auto=compress&cs=tinysrgb&dpr=1&fit=crop&h=200&w=280"},"liked":false,"alt":"Close-up photo of an octopus in its aquatic environment showing detailed textures."},{"id":16944383,"width":1842,"height":2758,"url":"https:\/\/www.pexels.com\/photo\/close-up-of-octopus-16944383\/","photographer":"Evgeniy Petkevich","photographer_url":"https:\/\/www.pexels.com\/@petkevich-evgeniy","photographer_id":216199181,"avg_color":"#5F3930","src":{"original":"https:\/\/images.pexels.com\/photos\/16944383\/pexels-photo-16944383.jpeg","large2x":"https:\/\/images.pexels.com\/photos\/16944383\/pexels-photo-16944383.jpeg?auto=compress&cs=tinysrgb&dpr=2&h=650&w=940","large":"https:\/\/images.pexels.com\/photos\/16944383\/pexels-photo-16944383.jpeg?auto=compress&cs=tinysrgb&h=650&w=940","medium":"https:\/\/images.pexels.com\/photos\/16944383\/pexels-photo-16944383.jpeg?auto=compress&cs=tinysrgb&h=350","small":"https:\/\/images.pexels.com\/photos\/16944383\/pexels-photo-16944383.jpeg?auto=compress&cs=tinysrgb&h=130","portrait":"https:\/\/images.pexels.com\/photos\/16944383\/pexels-photo-16944383.jpeg?auto=compress&cs=tinysrgb&fit=crop&h=1200&w=800","landscape":"https:\/\/images.pexels.com\/photos\/16944383\/pexels-photo-16944383.jpeg?auto=compress&cs=tinysrgb&fit=crop&h=627&w=1200","tiny":"https:\/\/images.pexels.com\/photos\/16944383\/pexels-photo-16944383.jpeg?auto=compress&cs=tinysrgb&dpr=1&fit=crop&h=200&w=280"},"liked":false,"alt":"Detailed close-up of succulent cooked octopus tentacles, perfect for seafood cuisine lovers."},{"id":9652994,"width":6240,"height":4160,"url":"https:\/\/www.pexels.com\/photo\/close-up-of-octopus-9652994\/","photographer":"yu zhang","photographer_url":"https:\/\/www.pexels.com\/@yu-zhang-50964874","photographer_id":50964874,"avg_color":"#423A63","src":{"original":"https:\/\/images.pexels.com\/photos\/9652994\/pexels-photo-9652994.jpeg","large2x":"https:\/\/images.pexels.com\/photos\/9652994\/pexels-photo-9652994.jpeg?auto=compress&cs=tinysrgb&dpr=2&h=650&w=940","large":"https:\/\/images.pexels.com\/photos\/9652994\/pexels-photo-9652994.jpeg?auto=compress&cs=tinysrgb&h=650&w=940","medium":"https:\/\/images.pexels.com\/photos\/9652994\/pexels-photo-9652994.jpeg?auto=compress&cs=tinysrgb&h=350","small":"https:\/\/images.pexels.com\/photos\/9652994\/pexels-photo-9652994.jpeg?auto=compress&cs=tinysrgb&h=130","portrait":"https:\/\/images.pexels.com\/photos\/9652994\/pexels-photo-9652994.jpeg?auto=compress&cs=tinysrgb&fit=crop&h=1200&w=800","landscape":"https:\/\/images.pexels.com\/photos\/9652994\/pexels-photo-9652994.jpeg?auto=compress&cs=tinysrgb&fit=crop&h=627&w=1200","tiny":"https:\/\/images.pexels.com\/photos\/9652994\/pexels-photo-9652994.jpeg?auto=compress&cs=tinysrgb&dpr=1&fit=crop&h=200&w=280"},"liked":false,"alt":"Detailed image of an octopus clinging to a rocky surface underwater, showcasing tentacle and texture."},{"id":9004403,"width":5184,"height":3456,"url":"https:\/\/www.pexels.com\/photo\/octopus-in-an-aquarium-9004403\/","photographer":"Jeffry Surianto","photographer_url":"https:\/\/www.pexels.com\/@andromeda99","photographer_id":3009141,"avg_color":"#3C3B41","src":{"original":"https:\/\/images.pexels.com\/photos\/9004403\/pexels-photo-9004403.jpeg","large2x":"https:\/\/images.pexels.com\/photos\/9004403\/pexels-photo-9004403.jpeg?auto=compress&cs=tinysrgb&dpr=2&h=650&w=940","large":"https:\/\/images.pexels.com\/photos\/9004403\/pexels-photo-9004403.jpeg?auto=compress&cs=tinysrgb&h=650&w=940","medium":"https:\/\/images.pexels.com\/photos\/9004403\/pexels-photo-9004403.jpeg?auto=compress&cs=tinysrgb&h=350","small":"https:\/\/images.pexels.com\/photos\/9004403\/pexels-photo-9004403.jpeg?auto=compress&cs=tinysrgb&h=130","portrait":"https:\/\/images.pexels.com\/photos\/9004403\/pexels-photo-9004403.jpeg?auto=compress&cs=tinysrgb&fit=crop&h=1200&w=800","landscape":"https:\/\/images.pexels.com\/photos\/9004403\/pexels-photo-9004403.jpeg?auto=compress&cs=tinysrgb&fit=crop&h=627&w=1200","tiny":"https:\/\/images.pexels.com\/photos\/9004403\/pexels-photo-9004403.jpeg?auto=compress&cs=tinysrgb&dpr=1&fit=crop&h=200&w=280"},"liked":false,"alt":"Beautiful octopus showcasing intricate patterns and vibrant coral in an aquarium setting."},{"id":8352798,"width":5184,"height":3888,"url":"https:\/\/www.pexels.com\/photo\/fried-octopus-8352798\/","photographer":"Kindel Media","photographer_url":"https:\/\/www.pexels.com\/@kindelmedia","photographer_id":10715715,"avg_color":"#9D6F60","src":{"original":"https:\/\/images.pexels.com\/photos\/8352798\/pexels-photo-8352798.jpeg","large2x":"https:\/\/images.pexels.com\/photos\/8352798\/pexels-photo-8352798.jpeg?auto=compress&cs=tinysrgb&dpr=2&h=650&w=940","large":"https:\/\/images.pexels.com\/photos\/8352798\/pexels-photo-8352798.jpeg?auto=compress&cs=tinysrgb&h=650&w=940","medium":"https:\/\/images.pexels.com\/photos\/8352798\/pexels-photo-8352798.jpeg?auto=compress&cs=tinysrgb&h=350","small":"https:\/\/images.pexels.com\/photos\/8352798\/pexels-photo-8352798.jpeg?auto=compress&cs=tinysrgb&h=130","portrait":"https:\/\/images.pexels.com\/photos\/8352798\/pexels-photo-8352798.jpeg?auto=compress&cs=tinysrgb&fit=crop&h=1200&w=800","landscape":"https:\/\/images.pexels.com\/photos\/8352798\/pexels-photo-8352798.jpeg?auto=compress&cs=tinysrgb&fit=crop&h=627&w=1200","tiny":"https:\/\/images.pexels.com\/photos\/8352798\/pexels-photo-8352798.jpeg?auto=compress&cs=tinysrgb&dpr=1&fit=crop&h=200&w=280"},"liked":false,"alt":"Close-up of delicious crispy fried octopus served as street food, highlighting its tentacle detail."},{"id":31382418,"width":5000,"height":3080,"url":"https:\/\/www.pexels.com\/photo\/fresh-octopus-tentacles-on-ice-at-seafood-market-31382418\/","photographer":"pierre matile","photographer_url":"https:\/\/www.pexels.com\/@open-borders","photographer_id":241846305,"avg_color":"#936567","src":{"original":"https:\/\/images.pexels.com\/photos\/31382418\/pexels-photo-31382418.jpeg","large2x":"https:\/\/images.pexels.com\/photos\/31382418\/pexels-photo-31382418.jpeg?auto=compress&cs=tinysrgb&dpr=2&h=650&w=940","large":"https:\/\/images.pexels.com\/photos\/31382418\/pexels-photo-31382418.jpeg?auto=compress&cs=tinysrgb&h=650&w=940","medium":"https:\/\/images.pexels.com\/photos\/31382418\/pexels-photo-31382418.jpeg?auto=compress&cs=tinysrgb&h=350","small":"https:\/\/images.pexels.com\/photos\/31382418\/pexels-photo-31382418.jpeg?auto=compress&cs=tinysrgb&h=130","portrait":"https:\/\/images.pexels.com\/photos\/31382418\/pexels-photo-31382418.jpeg?auto=compress&cs=tinysrgb&fit=crop&h=1200&w=800","landscape":"https:\/\/images.pexels.com\/photos\/31382418\/pexels-photo-31382418.jpeg?auto=compress&cs=tinysrgb&fit=crop&h=627&w=1200","tiny":"https:\/\/images.pexels.com\/photos\/31382418\/pexels-photo-31382418.jpeg?auto=compress&cs=tinysrgb&dpr=1&fit=crop&h=200&w=280"},"liked":false,"alt":"Close-up of fresh octopus tentacles displayed on ice at a market, being selected by a hand."},{"id":30649005,"width":3840,"height":5760,"url":"https:\/\/www.pexels.com\/photo\/fresh-octopus-on-ice-in-seafood-market-display-30649005\/","photographer":"Electra Studio","photographer_url":"https:\/\/www.pexels.com\/@electra-studio-32883186","photographer_id":32883186,"avg_color":"#97949D","src":{"original":"https:\/\/images.pexels.com\/photos\/30649005\/pexels-photo-30649005.jpeg","large2x":"https:\/\/images.pexels.com\/photos\/30649005\/pexels-photo-30649005.jpeg?auto=compress&cs=tinysrgb&dpr=2&h=650&w=940","large":"https:\/\/images.pexels.com\/photos\/30649005\/pexels-photo-30649005.jpeg?auto=compress&cs=tinysrgb&h=650&w=940","medium":"https:\/\/images.pexels.com\/photos\/30649005\/pexels-photo-30649005.jpeg?auto=compress&cs=tinysrgb&h=350","small":"https:\/\/images.pexels.com\/photos\/30649005\/pexels-photo-30649005.jpeg?auto=compress&cs=tinysrgb&h=130","portrait":"https:\/\/images.pexels.com\/photos\/30649005\/pexels-photo-30649005.jpeg?auto=compress&cs=tinysrgb&fit=crop&h=1200&w=800","landscape":"https:\/\/images.pexels.com\/photos\/30649005\/pexels-photo-30649005.jpeg?auto=compress&cs=tinysrgb&fit=crop&h=627&w=1200","tiny":"https:\/\/images.pexels.com\/photos\/30649005\/pexels-photo-30649005.jpeg?auto=compress&cs=tinysrgb&dpr=1&fit=crop&h=200&w=280"},"liked":false,"alt":"Closeup of raw octopus on ice at a seafood market, highlighting freshness and gourmet appeal."},{"id":9718224,"width":3888,"height":2592,"url":"https:\/\/www.pexels.com\/photo\/octopus-on-rocks-9718224\/","photographer":"Joachim Schn\u00fcrle","photographer_url":"https:\/\/www.pexels.com\/@joa70","photographer_id":3764958,"avg_color":"#23241F","src":{"original":"https:\/\/images.pexels.com\/photos\/9718224\/pexels-photo-9718224.jpeg","large2x":"https:\/\/images.pexels.com\/photos\/9718224\/pexels-photo-9718224.jpeg?auto=compress&cs=tinysrgb&dpr=2&h=650&w=940","large":"https:\/\/images.pexels.com\/photos\/9718224\/pexels-photo-9718224.jpeg?auto=compress&cs=tinysrgb&h=650&w=940","medium":"https:\/\/images.pexels.com\/photos\/9718224\/pexels-photo-9718224.jpeg?auto=compress&cs=tinysrgb&h=350","small":"https:\/\/images.pexels.com\/photos\/9718224\/pexels-photo-9718224.jpeg?auto=compress&cs=tinysrgb&h=130","portrait":"https:\/\/images.pexels.com\/photos\/9718224\/pexels-photo-9718224.jpeg?auto=compress&cs=tinysrgb&fit=crop&h=1200&w=800","landscape":"https:\/\/images.pexels.com\/photos\/9718224\/pexels-photo-9718224.jpeg?auto=compress&cs=tinysrgb&fit=crop&h=627&w=1200","tiny":"https:\/\/images.pexels.com\/photos\/9718224\/pexels-photo-9718224.jpeg?auto=compress&cs=tinysrgb&dpr=1&fit=crop&h=200&w=280"},"liked":false,"alt":"Captivating image of an octopus exploring its rocky underwater environment."},{"id":15559902,"width":6048,"height":4024,"url":"https:\/\/www.pexels.com\/photo\/a-myopsida-in-water-15559902\/","photographer":"Marissa Farrow","photographer_url":"https:\/\/www.pexels.com\/@marissa-farrow-277041963","photographer_id":277041963,"avg_color":"#0B0A0F","src":{"original":"https:\/\/images.pexels.com\/photos\/15559902\/pexels-photo-15559902.jpeg","large2x":"https:\/\/images.pexels.com\/photos\/15559902\/pexels-photo-15559902.jpeg?auto=compress&cs=tinysrgb&dpr=2&h=650&w=940","large":"https:\/\/images.pexels.com\/photos\/15559902\/pexels-photo-15559902.jpeg?auto=compress&cs=tinysrgb&h=650&w=940","medium":"https:\/\/images.pexels.com\/photos\/15559902\/pexels-photo-15559902.jpeg?auto=compress&cs=tinysrgb&h=350","small":"https:\/\/images.pexels.com\/photos\/15559902\/pexels-photo-15559902.jpeg?auto=compress&cs=tinysrgb&h=130","portrait":"https:\/\/images.pexels.com\/photos\/15559902\/pexels-photo-15559902.jpeg?auto=compress&cs=tinysrgb&fit=crop&h=1200&w=800","landscape":"https:\/\/images.pexels.com\/photos\/15559902\/pexels-photo-15559902.jpeg?auto=compress&cs=tinysrgb&fit=crop&h=627&w=1200","tiny":"https:\/\/images.pexels.com\/photos\/15559902\/pexels-photo-15559902.jpeg?auto=compress&cs=tinysrgb&dpr=1&fit=crop&h=200&w=280"},"liked":false,"alt":"Stunning close-up of a vibrant squid glowing in dark ocean waters."}],"total_results":8000,"next_page":"https:\/\/api.pexels.com\/v1\/v1\/search?page=2&per_page=15&query=octopus+squid+mollusk+ocean"}