{"page":1,"per_page":15,"photos":[{"id":8910272,"width":3456,"height":4608,"url":"https:\/\/www.pexels.com\/photo\/underwater-photography-of-sharks-8910272\/","photographer":"Rockwell branding agency","photographer_url":"https:\/\/www.pexels.com\/@rockwell-branding-agency-85164430","photographer_id":85164430,"avg_color":"#07556B","src":{"original":"https:\/\/images.pexels.com\/photos\/8910272\/pexels-photo-8910272.jpeg","large2x":"https:\/\/images.pexels.com\/photos\/8910272\/pexels-photo-8910272.jpeg?auto=compress&cs=tinysrgb&dpr=2&h=650&w=940","large":"https:\/\/images.pexels.com\/photos\/8910272\/pexels-photo-8910272.jpeg?auto=compress&cs=tinysrgb&h=650&w=940","medium":"https:\/\/images.pexels.com\/photos\/8910272\/pexels-photo-8910272.jpeg?auto=compress&cs=tinysrgb&h=350","small":"https:\/\/images.pexels.com\/photos\/8910272\/pexels-photo-8910272.jpeg?auto=compress&cs=tinysrgb&h=130","portrait":"https:\/\/images.pexels.com\/photos\/8910272\/pexels-photo-8910272.jpeg?auto=compress&cs=tinysrgb&fit=crop&h=1200&w=800","landscape":"https:\/\/images.pexels.com\/photos\/8910272\/pexels-photo-8910272.jpeg?auto=compress&cs=tinysrgb&fit=crop&h=627&w=1200","tiny":"https:\/\/images.pexels.com\/photos\/8910272\/pexels-photo-8910272.jpeg?auto=compress&cs=tinysrgb&dpr=1&fit=crop&h=200&w=280"},"liked":false,"alt":"Captivating shark silhouette swimming gracefully with sunlight filtering through blue water."},{"id":2747248,"width":4646,"height":3478,"url":"https:\/\/www.pexels.com\/photo\/big-shark-underwater-2747248\/","photographer":"Vova Kras","photographer_url":"https:\/\/www.pexels.com\/@vovaflame","photographer_id":1345109,"avg_color":"#1A2527","src":{"original":"https:\/\/images.pexels.com\/photos\/2747248\/pexels-photo-2747248.jpeg","large2x":"https:\/\/images.pexels.com\/photos\/2747248\/pexels-photo-2747248.jpeg?auto=compress&cs=tinysrgb&dpr=2&h=650&w=940","large":"https:\/\/images.pexels.com\/photos\/2747248\/pexels-photo-2747248.jpeg?auto=compress&cs=tinysrgb&h=650&w=940","medium":"https:\/\/images.pexels.com\/photos\/2747248\/pexels-photo-2747248.jpeg?auto=compress&cs=tinysrgb&h=350","small":"https:\/\/images.pexels.com\/photos\/2747248\/pexels-photo-2747248.jpeg?auto=compress&cs=tinysrgb&h=130","portrait":"https:\/\/images.pexels.com\/photos\/2747248\/pexels-photo-2747248.jpeg?auto=compress&cs=tinysrgb&fit=crop&h=1200&w=800","landscape":"https:\/\/images.pexels.com\/photos\/2747248\/pexels-photo-2747248.jpeg?auto=compress&cs=tinysrgb&fit=crop&h=627&w=1200","tiny":"https:\/\/images.pexels.com\/photos\/2747248\/pexels-photo-2747248.jpeg?auto=compress&cs=tinysrgb&dpr=1&fit=crop&h=200&w=280"},"liked":false,"alt":"Captivating image of a shark gracefully swimming in an aquarium's deep waters."},{"id":11733694,"width":5472,"height":3648,"url":"https:\/\/www.pexels.com\/photo\/underwater-photography-of-a-shark-11733694\/","photographer":"Magda Ehlers","photographer_url":"https:\/\/www.pexels.com\/@magda-ehlers-pexels","photographer_id":102775,"avg_color":"#397456","src":{"original":"https:\/\/images.pexels.com\/photos\/11733694\/pexels-photo-11733694.jpeg","large2x":"https:\/\/images.pexels.com\/photos\/11733694\/pexels-photo-11733694.jpeg?auto=compress&cs=tinysrgb&dpr=2&h=650&w=940","large":"https:\/\/images.pexels.com\/photos\/11733694\/pexels-photo-11733694.jpeg?auto=compress&cs=tinysrgb&h=650&w=940","medium":"https:\/\/images.pexels.com\/photos\/11733694\/pexels-photo-11733694.jpeg?auto=compress&cs=tinysrgb&h=350","small":"https:\/\/images.pexels.com\/photos\/11733694\/pexels-photo-11733694.jpeg?auto=compress&cs=tinysrgb&h=130","portrait":"https:\/\/images.pexels.com\/photos\/11733694\/pexels-photo-11733694.jpeg?auto=compress&cs=tinysrgb&fit=crop&h=1200&w=800","landscape":"https:\/\/images.pexels.com\/photos\/11733694\/pexels-photo-11733694.jpeg?auto=compress&cs=tinysrgb&fit=crop&h=627&w=1200","tiny":"https:\/\/images.pexels.com\/photos\/11733694\/pexels-photo-11733694.jpeg?auto=compress&cs=tinysrgb&dpr=1&fit=crop&h=200&w=280"},"liked":false,"alt":"Close-up of a tiger shark swimming in an aquarium with a sunken airplane in the background."},{"id":31745220,"width":5685,"height":4549,"url":"https:\/\/www.pexels.com\/photo\/dramatic-underwater-scene-with-tiger-sharks-31745220\/","photographer":"adiprayogo liemena","photographer_url":"https:\/\/www.pexels.com\/@adiprayogo-liemena-55233277","photographer_id":55233277,"avg_color":"#5D7987","src":{"original":"https:\/\/images.pexels.com\/photos\/31745220\/pexels-photo-31745220.jpeg","large2x":"https:\/\/images.pexels.com\/photos\/31745220\/pexels-photo-31745220.jpeg?auto=compress&cs=tinysrgb&dpr=2&h=650&w=940","large":"https:\/\/images.pexels.com\/photos\/31745220\/pexels-photo-31745220.jpeg?auto=compress&cs=tinysrgb&h=650&w=940","medium":"https:\/\/images.pexels.com\/photos\/31745220\/pexels-photo-31745220.jpeg?auto=compress&cs=tinysrgb&h=350","small":"https:\/\/images.pexels.com\/photos\/31745220\/pexels-photo-31745220.jpeg?auto=compress&cs=tinysrgb&h=130","portrait":"https:\/\/images.pexels.com\/photos\/31745220\/pexels-photo-31745220.jpeg?auto=compress&cs=tinysrgb&fit=crop&h=1200&w=800","landscape":"https:\/\/images.pexels.com\/photos\/31745220\/pexels-photo-31745220.jpeg?auto=compress&cs=tinysrgb&fit=crop&h=627&w=1200","tiny":"https:\/\/images.pexels.com\/photos\/31745220\/pexels-photo-31745220.jpeg?auto=compress&cs=tinysrgb&dpr=1&fit=crop&h=200&w=280"},"liked":false,"alt":"Stunning underwater shot of tiger sharks swimming among fish in the ocean depths."},{"id":18558754,"width":5400,"height":3600,"url":"https:\/\/www.pexels.com\/photo\/close-up-of-a-shark-swimming-in-the-ocean-18558754\/","photographer":"Daniel Torobekov","photographer_url":"https:\/\/www.pexels.com\/@alohaphotostudio","photographer_id":3028574,"avg_color":"#29485C","src":{"original":"https:\/\/images.pexels.com\/photos\/18558754\/pexels-photo-18558754.jpeg","large2x":"https:\/\/images.pexels.com\/photos\/18558754\/pexels-photo-18558754.jpeg?auto=compress&cs=tinysrgb&dpr=2&h=650&w=940","large":"https:\/\/images.pexels.com\/photos\/18558754\/pexels-photo-18558754.jpeg?auto=compress&cs=tinysrgb&h=650&w=940","medium":"https:\/\/images.pexels.com\/photos\/18558754\/pexels-photo-18558754.jpeg?auto=compress&cs=tinysrgb&h=350","small":"https:\/\/images.pexels.com\/photos\/18558754\/pexels-photo-18558754.jpeg?auto=compress&cs=tinysrgb&h=130","portrait":"https:\/\/images.pexels.com\/photos\/18558754\/pexels-photo-18558754.jpeg?auto=compress&cs=tinysrgb&fit=crop&h=1200&w=800","landscape":"https:\/\/images.pexels.com\/photos\/18558754\/pexels-photo-18558754.jpeg?auto=compress&cs=tinysrgb&fit=crop&h=627&w=1200","tiny":"https:\/\/images.pexels.com\/photos\/18558754\/pexels-photo-18558754.jpeg?auto=compress&cs=tinysrgb&dpr=1&fit=crop&h=200&w=280"},"liked":false,"alt":"Stunning close-up of a majestic whale shark swimming underwater in Haleiwa, Hawaii."},{"id":19870223,"width":5155,"height":4124,"url":"https:\/\/www.pexels.com\/photo\/shark-in-sea-19870223\/","photographer":"Juan Colomba","photographer_url":"https:\/\/www.pexels.com\/@juan-colomba-438617346","photographer_id":438617346,"avg_color":"#1D3446","src":{"original":"https:\/\/images.pexels.com\/photos\/19870223\/pexels-photo-19870223.jpeg","large2x":"https:\/\/images.pexels.com\/photos\/19870223\/pexels-photo-19870223.jpeg?auto=compress&cs=tinysrgb&dpr=2&h=650&w=940","large":"https:\/\/images.pexels.com\/photos\/19870223\/pexels-photo-19870223.jpeg?auto=compress&cs=tinysrgb&h=650&w=940","medium":"https:\/\/images.pexels.com\/photos\/19870223\/pexels-photo-19870223.jpeg?auto=compress&cs=tinysrgb&h=350","small":"https:\/\/images.pexels.com\/photos\/19870223\/pexels-photo-19870223.jpeg?auto=compress&cs=tinysrgb&h=130","portrait":"https:\/\/images.pexels.com\/photos\/19870223\/pexels-photo-19870223.jpeg?auto=compress&cs=tinysrgb&fit=crop&h=1200&w=800","landscape":"https:\/\/images.pexels.com\/photos\/19870223\/pexels-photo-19870223.jpeg?auto=compress&cs=tinysrgb&fit=crop&h=627&w=1200","tiny":"https:\/\/images.pexels.com\/photos\/19870223\/pexels-photo-19870223.jpeg?auto=compress&cs=tinysrgb&dpr=1&fit=crop&h=200&w=280"},"liked":false,"alt":"A solitary shark gracefully glides in deep ocean waters with sun rays filtering through."},{"id":11348763,"width":6772,"height":4517,"url":"https:\/\/www.pexels.com\/photo\/view-of-shark-in-pelagic-waters-11348763\/","photographer":"Daniel Torobekov","photographer_url":"https:\/\/www.pexels.com\/@alohaphotostudio","photographer_id":3028574,"avg_color":"#1A1F32","src":{"original":"https:\/\/images.pexels.com\/photos\/11348763\/pexels-photo-11348763.jpeg","large2x":"https:\/\/images.pexels.com\/photos\/11348763\/pexels-photo-11348763.jpeg?auto=compress&cs=tinysrgb&dpr=2&h=650&w=940","large":"https:\/\/images.pexels.com\/photos\/11348763\/pexels-photo-11348763.jpeg?auto=compress&cs=tinysrgb&h=650&w=940","medium":"https:\/\/images.pexels.com\/photos\/11348763\/pexels-photo-11348763.jpeg?auto=compress&cs=tinysrgb&h=350","small":"https:\/\/images.pexels.com\/photos\/11348763\/pexels-photo-11348763.jpeg?auto=compress&cs=tinysrgb&h=130","portrait":"https:\/\/images.pexels.com\/photos\/11348763\/pexels-photo-11348763.jpeg?auto=compress&cs=tinysrgb&fit=crop&h=1200&w=800","landscape":"https:\/\/images.pexels.com\/photos\/11348763\/pexels-photo-11348763.jpeg?auto=compress&cs=tinysrgb&fit=crop&h=627&w=1200","tiny":"https:\/\/images.pexels.com\/photos\/11348763\/pexels-photo-11348763.jpeg?auto=compress&cs=tinysrgb&dpr=1&fit=crop&h=200&w=280"},"liked":false,"alt":"Stunning aerial shot of a shark gliding through deep ocean waters."},{"id":5135160,"width":6240,"height":4160,"url":"https:\/\/www.pexels.com\/photo\/grayscale-photo-of-shark-in-water-5135160\/","photographer":"Valeriia Miller","photographer_url":"https:\/\/www.pexels.com\/@valeriiamiller","photographer_id":1307894,"avg_color":"#4B4B4B","src":{"original":"https:\/\/images.pexels.com\/photos\/5135160\/pexels-photo-5135160.jpeg","large2x":"https:\/\/images.pexels.com\/photos\/5135160\/pexels-photo-5135160.jpeg?auto=compress&cs=tinysrgb&dpr=2&h=650&w=940","large":"https:\/\/images.pexels.com\/photos\/5135160\/pexels-photo-5135160.jpeg?auto=compress&cs=tinysrgb&h=650&w=940","medium":"https:\/\/images.pexels.com\/photos\/5135160\/pexels-photo-5135160.jpeg?auto=compress&cs=tinysrgb&h=350","small":"https:\/\/images.pexels.com\/photos\/5135160\/pexels-photo-5135160.jpeg?auto=compress&cs=tinysrgb&h=130","portrait":"https:\/\/images.pexels.com\/photos\/5135160\/pexels-photo-5135160.jpeg?auto=compress&cs=tinysrgb&fit=crop&h=1200&w=800","landscape":"https:\/\/images.pexels.com\/photos\/5135160\/pexels-photo-5135160.jpeg?auto=compress&cs=tinysrgb&fit=crop&h=627&w=1200","tiny":"https:\/\/images.pexels.com\/photos\/5135160\/pexels-photo-5135160.jpeg?auto=compress&cs=tinysrgb&dpr=1&fit=crop&h=200&w=280"},"liked":false,"alt":"A detailed grayscale capture of a blacktip reef shark swimming gracefully underwater."},{"id":18558753,"width":5400,"height":3796,"url":"https:\/\/www.pexels.com\/photo\/shark-in-nature-18558753\/","photographer":"Daniel Torobekov","photographer_url":"https:\/\/www.pexels.com\/@alohaphotostudio","photographer_id":3028574,"avg_color":"#26465B","src":{"original":"https:\/\/images.pexels.com\/photos\/18558753\/pexels-photo-18558753.jpeg","large2x":"https:\/\/images.pexels.com\/photos\/18558753\/pexels-photo-18558753.jpeg?auto=compress&cs=tinysrgb&dpr=2&h=650&w=940","large":"https:\/\/images.pexels.com\/photos\/18558753\/pexels-photo-18558753.jpeg?auto=compress&cs=tinysrgb&h=650&w=940","medium":"https:\/\/images.pexels.com\/photos\/18558753\/pexels-photo-18558753.jpeg?auto=compress&cs=tinysrgb&h=350","small":"https:\/\/images.pexels.com\/photos\/18558753\/pexels-photo-18558753.jpeg?auto=compress&cs=tinysrgb&h=130","portrait":"https:\/\/images.pexels.com\/photos\/18558753\/pexels-photo-18558753.jpeg?auto=compress&cs=tinysrgb&fit=crop&h=1200&w=800","landscape":"https:\/\/images.pexels.com\/photos\/18558753\/pexels-photo-18558753.jpeg?auto=compress&cs=tinysrgb&fit=crop&h=627&w=1200","tiny":"https:\/\/images.pexels.com\/photos\/18558753\/pexels-photo-18558753.jpeg?auto=compress&cs=tinysrgb&dpr=1&fit=crop&h=200&w=280"},"liked":false,"alt":"Stunning underwater photograph of a shark swimming in Haleiwa, Hawaii."},{"id":18659799,"width":5189,"height":8057,"url":"https:\/\/www.pexels.com\/photo\/underwater-photo-of-a-shark-18659799\/","photographer":"Daniel Torobekov","photographer_url":"https:\/\/www.pexels.com\/@alohaphotostudio","photographer_id":3028574,"avg_color":"#223C55","src":{"original":"https:\/\/images.pexels.com\/photos\/18659799\/pexels-photo-18659799.jpeg","large2x":"https:\/\/images.pexels.com\/photos\/18659799\/pexels-photo-18659799.jpeg?auto=compress&cs=tinysrgb&dpr=2&h=650&w=940","large":"https:\/\/images.pexels.com\/photos\/18659799\/pexels-photo-18659799.jpeg?auto=compress&cs=tinysrgb&h=650&w=940","medium":"https:\/\/images.pexels.com\/photos\/18659799\/pexels-photo-18659799.jpeg?auto=compress&cs=tinysrgb&h=350","small":"https:\/\/images.pexels.com\/photos\/18659799\/pexels-photo-18659799.jpeg?auto=compress&cs=tinysrgb&h=130","portrait":"https:\/\/images.pexels.com\/photos\/18659799\/pexels-photo-18659799.jpeg?auto=compress&cs=tinysrgb&fit=crop&h=1200&w=800","landscape":"https:\/\/images.pexels.com\/photos\/18659799\/pexels-photo-18659799.jpeg?auto=compress&cs=tinysrgb&fit=crop&h=627&w=1200","tiny":"https:\/\/images.pexels.com\/photos\/18659799\/pexels-photo-18659799.jpeg?auto=compress&cs=tinysrgb&dpr=1&fit=crop&h=200&w=280"},"liked":false,"alt":"Majestic tiger shark swimming in deep ocean waters, showcasing marine life in its natural habitat."},{"id":18659794,"width":5400,"height":6750,"url":"https:\/\/www.pexels.com\/photo\/shark-swimming-in-a-sea-18659794\/","photographer":"Daniel Torobekov","photographer_url":"https:\/\/www.pexels.com\/@alohaphotostudio","photographer_id":3028574,"avg_color":"#153D47","src":{"original":"https:\/\/images.pexels.com\/photos\/18659794\/pexels-photo-18659794.jpeg","large2x":"https:\/\/images.pexels.com\/photos\/18659794\/pexels-photo-18659794.jpeg?auto=compress&cs=tinysrgb&dpr=2&h=650&w=940","large":"https:\/\/images.pexels.com\/photos\/18659794\/pexels-photo-18659794.jpeg?auto=compress&cs=tinysrgb&h=650&w=940","medium":"https:\/\/images.pexels.com\/photos\/18659794\/pexels-photo-18659794.jpeg?auto=compress&cs=tinysrgb&h=350","small":"https:\/\/images.pexels.com\/photos\/18659794\/pexels-photo-18659794.jpeg?auto=compress&cs=tinysrgb&h=130","portrait":"https:\/\/images.pexels.com\/photos\/18659794\/pexels-photo-18659794.jpeg?auto=compress&cs=tinysrgb&fit=crop&h=1200&w=800","landscape":"https:\/\/images.pexels.com\/photos\/18659794\/pexels-photo-18659794.jpeg?auto=compress&cs=tinysrgb&fit=crop&h=627&w=1200","tiny":"https:\/\/images.pexels.com\/photos\/18659794\/pexels-photo-18659794.jpeg?auto=compress&cs=tinysrgb&dpr=1&fit=crop&h=200&w=280"},"liked":false,"alt":"A majestic great white shark swimming underwater in a vivid, natural setting."},{"id":18558757,"width":5400,"height":3806,"url":"https:\/\/www.pexels.com\/photo\/tiger-shark-swimming-in-the-sea-18558757\/","photographer":"Daniel Torobekov","photographer_url":"https:\/\/www.pexels.com\/@alohaphotostudio","photographer_id":3028574,"avg_color":"#1F3E5A","src":{"original":"https:\/\/images.pexels.com\/photos\/18558757\/pexels-photo-18558757.jpeg","large2x":"https:\/\/images.pexels.com\/photos\/18558757\/pexels-photo-18558757.jpeg?auto=compress&cs=tinysrgb&dpr=2&h=650&w=940","large":"https:\/\/images.pexels.com\/photos\/18558757\/pexels-photo-18558757.jpeg?auto=compress&cs=tinysrgb&h=650&w=940","medium":"https:\/\/images.pexels.com\/photos\/18558757\/pexels-photo-18558757.jpeg?auto=compress&cs=tinysrgb&h=350","small":"https:\/\/images.pexels.com\/photos\/18558757\/pexels-photo-18558757.jpeg?auto=compress&cs=tinysrgb&h=130","portrait":"https:\/\/images.pexels.com\/photos\/18558757\/pexels-photo-18558757.jpeg?auto=compress&cs=tinysrgb&fit=crop&h=1200&w=800","landscape":"https:\/\/images.pexels.com\/photos\/18558757\/pexels-photo-18558757.jpeg?auto=compress&cs=tinysrgb&fit=crop&h=627&w=1200","tiny":"https:\/\/images.pexels.com\/photos\/18558757\/pexels-photo-18558757.jpeg?auto=compress&cs=tinysrgb&dpr=1&fit=crop&h=200&w=280"},"liked":false,"alt":"Close-up of a tiger shark swimming underwater in the deep blue ocean near Haleiwa, Hawaii."},{"id":22668086,"width":2048,"height":3072,"url":"https:\/\/www.pexels.com\/photo\/shark-swimming-in-the-sea-22668086\/","photographer":"Airam Dato-on","photographer_url":"https:\/\/www.pexels.com\/@airamdphoto","photographer_id":373869,"avg_color":"#246875","src":{"original":"https:\/\/images.pexels.com\/photos\/22668086\/pexels-photo-22668086.jpeg","large2x":"https:\/\/images.pexels.com\/photos\/22668086\/pexels-photo-22668086.jpeg?auto=compress&cs=tinysrgb&dpr=2&h=650&w=940","large":"https:\/\/images.pexels.com\/photos\/22668086\/pexels-photo-22668086.jpeg?auto=compress&cs=tinysrgb&h=650&w=940","medium":"https:\/\/images.pexels.com\/photos\/22668086\/pexels-photo-22668086.jpeg?auto=compress&cs=tinysrgb&h=350","small":"https:\/\/images.pexels.com\/photos\/22668086\/pexels-photo-22668086.jpeg?auto=compress&cs=tinysrgb&h=130","portrait":"https:\/\/images.pexels.com\/photos\/22668086\/pexels-photo-22668086.jpeg?auto=compress&cs=tinysrgb&fit=crop&h=1200&w=800","landscape":"https:\/\/images.pexels.com\/photos\/22668086\/pexels-photo-22668086.jpeg?auto=compress&cs=tinysrgb&fit=crop&h=627&w=1200","tiny":"https:\/\/images.pexels.com\/photos\/22668086\/pexels-photo-22668086.jpeg?auto=compress&cs=tinysrgb&dpr=1&fit=crop&h=200&w=280"},"liked":false,"alt":"A shark gracefully swims underwater, illuminated by rays of sunlight piercing the ocean surface."},{"id":8910283,"width":3456,"height":4608,"url":"https:\/\/www.pexels.com\/photo\/an-underwater-shot-of-a-shark-8910283\/","photographer":"Rockwell branding agency","photographer_url":"https:\/\/www.pexels.com\/@rockwell-branding-agency-85164430","photographer_id":85164430,"avg_color":"#0C677C","src":{"original":"https:\/\/images.pexels.com\/photos\/8910283\/pexels-photo-8910283.jpeg","large2x":"https:\/\/images.pexels.com\/photos\/8910283\/pexels-photo-8910283.jpeg?auto=compress&cs=tinysrgb&dpr=2&h=650&w=940","large":"https:\/\/images.pexels.com\/photos\/8910283\/pexels-photo-8910283.jpeg?auto=compress&cs=tinysrgb&h=650&w=940","medium":"https:\/\/images.pexels.com\/photos\/8910283\/pexels-photo-8910283.jpeg?auto=compress&cs=tinysrgb&h=350","small":"https:\/\/images.pexels.com\/photos\/8910283\/pexels-photo-8910283.jpeg?auto=compress&cs=tinysrgb&h=130","portrait":"https:\/\/images.pexels.com\/photos\/8910283\/pexels-photo-8910283.jpeg?auto=compress&cs=tinysrgb&fit=crop&h=1200&w=800","landscape":"https:\/\/images.pexels.com\/photos\/8910283\/pexels-photo-8910283.jpeg?auto=compress&cs=tinysrgb&fit=crop&h=627&w=1200","tiny":"https:\/\/images.pexels.com\/photos\/8910283\/pexels-photo-8910283.jpeg?auto=compress&cs=tinysrgb&dpr=1&fit=crop&h=200&w=280"},"liked":false,"alt":"A stunning view of a shark swimming gracefully in a sunlit underwater scene, creating an awe-inspiring marine atmosphere."},{"id":7825841,"width":4591,"height":3061,"url":"https:\/\/www.pexels.com\/photo\/grayscale-photo-of-a-shark-7825841\/","photographer":"Gilberto Olimpio","photographer_url":"https:\/\/www.pexels.com\/@golimpio","photographer_id":1812477,"avg_color":"#2A2A2A","src":{"original":"https:\/\/images.pexels.com\/photos\/7825841\/pexels-photo-7825841.jpeg","large2x":"https:\/\/images.pexels.com\/photos\/7825841\/pexels-photo-7825841.jpeg?auto=compress&cs=tinysrgb&dpr=2&h=650&w=940","large":"https:\/\/images.pexels.com\/photos\/7825841\/pexels-photo-7825841.jpeg?auto=compress&cs=tinysrgb&h=650&w=940","medium":"https:\/\/images.pexels.com\/photos\/7825841\/pexels-photo-7825841.jpeg?auto=compress&cs=tinysrgb&h=350","small":"https:\/\/images.pexels.com\/photos\/7825841\/pexels-photo-7825841.jpeg?auto=compress&cs=tinysrgb&h=130","portrait":"https:\/\/images.pexels.com\/photos\/7825841\/pexels-photo-7825841.jpeg?auto=compress&cs=tinysrgb&fit=crop&h=1200&w=800","landscape":"https:\/\/images.pexels.com\/photos\/7825841\/pexels-photo-7825841.jpeg?auto=compress&cs=tinysrgb&fit=crop&h=627&w=1200","tiny":"https:\/\/images.pexels.com\/photos\/7825841\/pexels-photo-7825841.jpeg?auto=compress&cs=tinysrgb&dpr=1&fit=crop&h=200&w=280"},"liked":false,"alt":"A dramatic black and white image of a shark swimming underwater, showcasing its powerful jaws."}],"total_results":5338,"next_page":"https:\/\/api.pexels.com\/v1\/v1\/search?page=2&per_page=15&query=shark+underwater"}