{"page":1,"per_page":15,"photos":[{"id":10511749,"width":5580,"height":3139,"url":"https:\/\/www.pexels.com\/photo\/close-up-shot-of-a-crab-crawlingon-the-stone-10511749\/","photographer":"Daniel Franco","photographer_url":"https:\/\/www.pexels.com\/@daniel-franco-25130847","photographer_id":25130847,"avg_color":"#544943","src":{"original":"https:\/\/images.pexels.com\/photos\/10511749\/pexels-photo-10511749.jpeg","large2x":"https:\/\/images.pexels.com\/photos\/10511749\/pexels-photo-10511749.jpeg?auto=compress&cs=tinysrgb&dpr=2&h=650&w=940","large":"https:\/\/images.pexels.com\/photos\/10511749\/pexels-photo-10511749.jpeg?auto=compress&cs=tinysrgb&h=650&w=940","medium":"https:\/\/images.pexels.com\/photos\/10511749\/pexels-photo-10511749.jpeg?auto=compress&cs=tinysrgb&h=350","small":"https:\/\/images.pexels.com\/photos\/10511749\/pexels-photo-10511749.jpeg?auto=compress&cs=tinysrgb&h=130","portrait":"https:\/\/images.pexels.com\/photos\/10511749\/pexels-photo-10511749.jpeg?auto=compress&cs=tinysrgb&fit=crop&h=1200&w=800","landscape":"https:\/\/images.pexels.com\/photos\/10511749\/pexels-photo-10511749.jpeg?auto=compress&cs=tinysrgb&fit=crop&h=627&w=1200","tiny":"https:\/\/images.pexels.com\/photos\/10511749\/pexels-photo-10511749.jpeg?auto=compress&cs=tinysrgb&dpr=1&fit=crop&h=200&w=280"},"liked":false,"alt":"Stunning close-up of a vibrant rock crab crawling on coastal stones in Arica, Chile."},{"id":18896098,"width":4000,"height":6016,"url":"https:\/\/www.pexels.com\/photo\/close-up-of-crab-on-rock-18896098\/","photographer":"Vika Glitter","photographer_url":"https:\/\/www.pexels.com\/@vika-glitter-392079","photographer_id":392079,"avg_color":"#6A6054","src":{"original":"https:\/\/images.pexels.com\/photos\/18896098\/pexels-photo-18896098.jpeg","large2x":"https:\/\/images.pexels.com\/photos\/18896098\/pexels-photo-18896098.jpeg?auto=compress&cs=tinysrgb&dpr=2&h=650&w=940","large":"https:\/\/images.pexels.com\/photos\/18896098\/pexels-photo-18896098.jpeg?auto=compress&cs=tinysrgb&h=650&w=940","medium":"https:\/\/images.pexels.com\/photos\/18896098\/pexels-photo-18896098.jpeg?auto=compress&cs=tinysrgb&h=350","small":"https:\/\/images.pexels.com\/photos\/18896098\/pexels-photo-18896098.jpeg?auto=compress&cs=tinysrgb&h=130","portrait":"https:\/\/images.pexels.com\/photos\/18896098\/pexels-photo-18896098.jpeg?auto=compress&cs=tinysrgb&fit=crop&h=1200&w=800","landscape":"https:\/\/images.pexels.com\/photos\/18896098\/pexels-photo-18896098.jpeg?auto=compress&cs=tinysrgb&fit=crop&h=627&w=1200","tiny":"https:\/\/images.pexels.com\/photos\/18896098\/pexels-photo-18896098.jpeg?auto=compress&cs=tinysrgb&dpr=1&fit=crop&h=200&w=280"},"liked":false,"alt":"Detailed view of a crab clinging to eroded rock near the sea, showcasing nature's resilience."},{"id":29161983,"width":3024,"height":4032,"url":"https:\/\/www.pexels.com\/photo\/colorful-crab-on-sandy-beach-shore-29161983\/","photographer":"Momita Paul","photographer_url":"https:\/\/www.pexels.com\/@momita-paul-2044218742","photographer_id":2044218742,"avg_color":"#A8A7A3","src":{"original":"https:\/\/images.pexels.com\/photos\/29161983\/pexels-photo-29161983.jpeg","large2x":"https:\/\/images.pexels.com\/photos\/29161983\/pexels-photo-29161983.jpeg?auto=compress&cs=tinysrgb&dpr=2&h=650&w=940","large":"https:\/\/images.pexels.com\/photos\/29161983\/pexels-photo-29161983.jpeg?auto=compress&cs=tinysrgb&h=650&w=940","medium":"https:\/\/images.pexels.com\/photos\/29161983\/pexels-photo-29161983.jpeg?auto=compress&cs=tinysrgb&h=350","small":"https:\/\/images.pexels.com\/photos\/29161983\/pexels-photo-29161983.jpeg?auto=compress&cs=tinysrgb&h=130","portrait":"https:\/\/images.pexels.com\/photos\/29161983\/pexels-photo-29161983.jpeg?auto=compress&cs=tinysrgb&fit=crop&h=1200&w=800","landscape":"https:\/\/images.pexels.com\/photos\/29161983\/pexels-photo-29161983.jpeg?auto=compress&cs=tinysrgb&fit=crop&h=627&w=1200","tiny":"https:\/\/images.pexels.com\/photos\/29161983\/pexels-photo-29161983.jpeg?auto=compress&cs=tinysrgb&dpr=1&fit=crop&h=200&w=280"},"liked":false,"alt":"Vibrant crab resting on sandy beach surrounded by rocks."},{"id":8352391,"width":3888,"height":5184,"url":"https:\/\/www.pexels.com\/photo\/plenty-of-orange-lobsters-8352391\/","photographer":"Kindel Media","photographer_url":"https:\/\/www.pexels.com\/@kindelmedia","photographer_id":10715715,"avg_color":"#82392A","src":{"original":"https:\/\/images.pexels.com\/photos\/8352391\/pexels-photo-8352391.jpeg","large2x":"https:\/\/images.pexels.com\/photos\/8352391\/pexels-photo-8352391.jpeg?auto=compress&cs=tinysrgb&dpr=2&h=650&w=940","large":"https:\/\/images.pexels.com\/photos\/8352391\/pexels-photo-8352391.jpeg?auto=compress&cs=tinysrgb&h=650&w=940","medium":"https:\/\/images.pexels.com\/photos\/8352391\/pexels-photo-8352391.jpeg?auto=compress&cs=tinysrgb&h=350","small":"https:\/\/images.pexels.com\/photos\/8352391\/pexels-photo-8352391.jpeg?auto=compress&cs=tinysrgb&h=130","portrait":"https:\/\/images.pexels.com\/photos\/8352391\/pexels-photo-8352391.jpeg?auto=compress&cs=tinysrgb&fit=crop&h=1200&w=800","landscape":"https:\/\/images.pexels.com\/photos\/8352391\/pexels-photo-8352391.jpeg?auto=compress&cs=tinysrgb&fit=crop&h=627&w=1200","tiny":"https:\/\/images.pexels.com\/photos\/8352391\/pexels-photo-8352391.jpeg?auto=compress&cs=tinysrgb&dpr=1&fit=crop&h=200&w=280"},"liked":false,"alt":"Bright and vivid seafood assortment featuring fresh lobsters and crabs."},{"id":3098606,"width":5184,"height":3456,"url":"https:\/\/www.pexels.com\/photo\/hand-holding-brown-crab-3098606\/","photographer":"Ma\u00ebl  BALLAND","photographer_url":"https:\/\/www.pexels.com\/@toulouse","photographer_id":873203,"avg_color":"#5C5550","src":{"original":"https:\/\/images.pexels.com\/photos\/3098606\/pexels-photo-3098606.jpeg","large2x":"https:\/\/images.pexels.com\/photos\/3098606\/pexels-photo-3098606.jpeg?auto=compress&cs=tinysrgb&dpr=2&h=650&w=940","large":"https:\/\/images.pexels.com\/photos\/3098606\/pexels-photo-3098606.jpeg?auto=compress&cs=tinysrgb&h=650&w=940","medium":"https:\/\/images.pexels.com\/photos\/3098606\/pexels-photo-3098606.jpeg?auto=compress&cs=tinysrgb&h=350","small":"https:\/\/images.pexels.com\/photos\/3098606\/pexels-photo-3098606.jpeg?auto=compress&cs=tinysrgb&h=130","portrait":"https:\/\/images.pexels.com\/photos\/3098606\/pexels-photo-3098606.jpeg?auto=compress&cs=tinysrgb&fit=crop&h=1200&w=800","landscape":"https:\/\/images.pexels.com\/photos\/3098606\/pexels-photo-3098606.jpeg?auto=compress&cs=tinysrgb&fit=crop&h=627&w=1200","tiny":"https:\/\/images.pexels.com\/photos\/3098606\/pexels-photo-3098606.jpeg?auto=compress&cs=tinysrgb&dpr=1&fit=crop&h=200&w=280"},"liked":false,"alt":"A hand holding a spiny crab above ocean waters with seagulls in the background."},{"id":30032159,"width":7008,"height":4672,"url":"https:\/\/www.pexels.com\/photo\/close-up-of-hand-holding-a-red-crab-outdoors-30032159\/","photographer":"Rasca Don","photographer_url":"https:\/\/www.pexels.com\/@rasca-don-1638657","photographer_id":1638657,"avg_color":"#75848B","src":{"original":"https:\/\/images.pexels.com\/photos\/30032159\/pexels-photo-30032159.jpeg","large2x":"https:\/\/images.pexels.com\/photos\/30032159\/pexels-photo-30032159.jpeg?auto=compress&cs=tinysrgb&dpr=2&h=650&w=940","large":"https:\/\/images.pexels.com\/photos\/30032159\/pexels-photo-30032159.jpeg?auto=compress&cs=tinysrgb&h=650&w=940","medium":"https:\/\/images.pexels.com\/photos\/30032159\/pexels-photo-30032159.jpeg?auto=compress&cs=tinysrgb&h=350","small":"https:\/\/images.pexels.com\/photos\/30032159\/pexels-photo-30032159.jpeg?auto=compress&cs=tinysrgb&h=130","portrait":"https:\/\/images.pexels.com\/photos\/30032159\/pexels-photo-30032159.jpeg?auto=compress&cs=tinysrgb&fit=crop&h=1200&w=800","landscape":"https:\/\/images.pexels.com\/photos\/30032159\/pexels-photo-30032159.jpeg?auto=compress&cs=tinysrgb&fit=crop&h=627&w=1200","tiny":"https:\/\/images.pexels.com\/photos\/30032159\/pexels-photo-30032159.jpeg?auto=compress&cs=tinysrgb&dpr=1&fit=crop&h=200&w=280"},"liked":false,"alt":"A hand holding a red crab against a clear blue sky and ocean background."},{"id":8352803,"width":5184,"height":3888,"url":"https:\/\/www.pexels.com\/photo\/food-healthy-vegetables-fishing-8352803\/","photographer":"Kindel Media","photographer_url":"https:\/\/www.pexels.com\/@kindelmedia","photographer_id":10715715,"avg_color":"#9CAEB8","src":{"original":"https:\/\/images.pexels.com\/photos\/8352803\/pexels-photo-8352803.jpeg","large2x":"https:\/\/images.pexels.com\/photos\/8352803\/pexels-photo-8352803.jpeg?auto=compress&cs=tinysrgb&dpr=2&h=650&w=940","large":"https:\/\/images.pexels.com\/photos\/8352803\/pexels-photo-8352803.jpeg?auto=compress&cs=tinysrgb&h=650&w=940","medium":"https:\/\/images.pexels.com\/photos\/8352803\/pexels-photo-8352803.jpeg?auto=compress&cs=tinysrgb&h=350","small":"https:\/\/images.pexels.com\/photos\/8352803\/pexels-photo-8352803.jpeg?auto=compress&cs=tinysrgb&h=130","portrait":"https:\/\/images.pexels.com\/photos\/8352803\/pexels-photo-8352803.jpeg?auto=compress&cs=tinysrgb&fit=crop&h=1200&w=800","landscape":"https:\/\/images.pexels.com\/photos\/8352803\/pexels-photo-8352803.jpeg?auto=compress&cs=tinysrgb&fit=crop&h=627&w=1200","tiny":"https:\/\/images.pexels.com\/photos\/8352803\/pexels-photo-8352803.jpeg?auto=compress&cs=tinysrgb&dpr=1&fit=crop&h=200&w=280"},"liked":false,"alt":"Sign advertising live crab and lobster with colorful illustrations at a seafood market."},{"id":4990589,"width":4160,"height":4962,"url":"https:\/\/www.pexels.com\/photo\/underwater-shot-of-a-lobster-on-a-rock-4990589\/","photographer":"Ellie Burgin","photographer_url":"https:\/\/www.pexels.com\/@ellie-burgin-1661546","photographer_id":1661546,"avg_color":"#16130C","src":{"original":"https:\/\/images.pexels.com\/photos\/4990589\/pexels-photo-4990589.jpeg","large2x":"https:\/\/images.pexels.com\/photos\/4990589\/pexels-photo-4990589.jpeg?auto=compress&cs=tinysrgb&dpr=2&h=650&w=940","large":"https:\/\/images.pexels.com\/photos\/4990589\/pexels-photo-4990589.jpeg?auto=compress&cs=tinysrgb&h=650&w=940","medium":"https:\/\/images.pexels.com\/photos\/4990589\/pexels-photo-4990589.jpeg?auto=compress&cs=tinysrgb&h=350","small":"https:\/\/images.pexels.com\/photos\/4990589\/pexels-photo-4990589.jpeg?auto=compress&cs=tinysrgb&h=130","portrait":"https:\/\/images.pexels.com\/photos\/4990589\/pexels-photo-4990589.jpeg?auto=compress&cs=tinysrgb&fit=crop&h=1200&w=800","landscape":"https:\/\/images.pexels.com\/photos\/4990589\/pexels-photo-4990589.jpeg?auto=compress&cs=tinysrgb&fit=crop&h=627&w=1200","tiny":"https:\/\/images.pexels.com\/photos\/4990589\/pexels-photo-4990589.jpeg?auto=compress&cs=tinysrgb&dpr=1&fit=crop&h=200&w=280"},"liked":false,"alt":"A detailed view of a lobster in its natural underwater habitat, highlighting its antennae and claws."},{"id":18113137,"width":3372,"height":3372,"url":"https:\/\/www.pexels.com\/photo\/tufted-ghost-crab-on-sand-18113137\/","photographer":"Juan Alvarado","photographer_url":"https:\/\/www.pexels.com\/@juan-alvarado-9757695","photographer_id":9757695,"avg_color":"#655E54","src":{"original":"https:\/\/images.pexels.com\/photos\/18113137\/pexels-photo-18113137.jpeg","large2x":"https:\/\/images.pexels.com\/photos\/18113137\/pexels-photo-18113137.jpeg?auto=compress&cs=tinysrgb&dpr=2&h=650&w=940","large":"https:\/\/images.pexels.com\/photos\/18113137\/pexels-photo-18113137.jpeg?auto=compress&cs=tinysrgb&h=650&w=940","medium":"https:\/\/images.pexels.com\/photos\/18113137\/pexels-photo-18113137.jpeg?auto=compress&cs=tinysrgb&h=350","small":"https:\/\/images.pexels.com\/photos\/18113137\/pexels-photo-18113137.jpeg?auto=compress&cs=tinysrgb&h=130","portrait":"https:\/\/images.pexels.com\/photos\/18113137\/pexels-photo-18113137.jpeg?auto=compress&cs=tinysrgb&fit=crop&h=1200&w=800","landscape":"https:\/\/images.pexels.com\/photos\/18113137\/pexels-photo-18113137.jpeg?auto=compress&cs=tinysrgb&fit=crop&h=627&w=1200","tiny":"https:\/\/images.pexels.com\/photos\/18113137\/pexels-photo-18113137.jpeg?auto=compress&cs=tinysrgb&dpr=1&fit=crop&h=200&w=280"},"liked":false,"alt":"Close-up of a tufted ghost crab on a sandy beach, capturing its natural habitat."},{"id":32468404,"width":3559,"height":4982,"url":"https:\/\/www.pexels.com\/photo\/close-up-of-cooked-lobster-on-plate-32468404\/","photographer":"Jonathan Cooper","photographer_url":"https:\/\/www.pexels.com\/@theshuttervision","photographer_id":82255355,"avg_color":"#793824","src":{"original":"https:\/\/images.pexels.com\/photos\/32468404\/pexels-photo-32468404.jpeg","large2x":"https:\/\/images.pexels.com\/photos\/32468404\/pexels-photo-32468404.jpeg?auto=compress&cs=tinysrgb&dpr=2&h=650&w=940","large":"https:\/\/images.pexels.com\/photos\/32468404\/pexels-photo-32468404.jpeg?auto=compress&cs=tinysrgb&h=650&w=940","medium":"https:\/\/images.pexels.com\/photos\/32468404\/pexels-photo-32468404.jpeg?auto=compress&cs=tinysrgb&h=350","small":"https:\/\/images.pexels.com\/photos\/32468404\/pexels-photo-32468404.jpeg?auto=compress&cs=tinysrgb&h=130","portrait":"https:\/\/images.pexels.com\/photos\/32468404\/pexels-photo-32468404.jpeg?auto=compress&cs=tinysrgb&fit=crop&h=1200&w=800","landscape":"https:\/\/images.pexels.com\/photos\/32468404\/pexels-photo-32468404.jpeg?auto=compress&cs=tinysrgb&fit=crop&h=627&w=1200","tiny":"https:\/\/images.pexels.com\/photos\/32468404\/pexels-photo-32468404.jpeg?auto=compress&cs=tinysrgb&dpr=1&fit=crop&h=200&w=280"},"liked":false,"alt":"Deliciously cooked lobster on plate with focus on texture and color."},{"id":18896020,"width":3016,"height":2005,"url":"https:\/\/www.pexels.com\/photo\/crab-on-a-rocky-beach-18896020\/","photographer":"Vika Glitter","photographer_url":"https:\/\/www.pexels.com\/@vika-glitter-392079","photographer_id":392079,"avg_color":"#5A4436","src":{"original":"https:\/\/images.pexels.com\/photos\/18896020\/pexels-photo-18896020.jpeg","large2x":"https:\/\/images.pexels.com\/photos\/18896020\/pexels-photo-18896020.jpeg?auto=compress&cs=tinysrgb&dpr=2&h=650&w=940","large":"https:\/\/images.pexels.com\/photos\/18896020\/pexels-photo-18896020.jpeg?auto=compress&cs=tinysrgb&h=650&w=940","medium":"https:\/\/images.pexels.com\/photos\/18896020\/pexels-photo-18896020.jpeg?auto=compress&cs=tinysrgb&h=350","small":"https:\/\/images.pexels.com\/photos\/18896020\/pexels-photo-18896020.jpeg?auto=compress&cs=tinysrgb&h=130","portrait":"https:\/\/images.pexels.com\/photos\/18896020\/pexels-photo-18896020.jpeg?auto=compress&cs=tinysrgb&fit=crop&h=1200&w=800","landscape":"https:\/\/images.pexels.com\/photos\/18896020\/pexels-photo-18896020.jpeg?auto=compress&cs=tinysrgb&fit=crop&h=627&w=1200","tiny":"https:\/\/images.pexels.com\/photos\/18896020\/pexels-photo-18896020.jpeg?auto=compress&cs=tinysrgb&dpr=1&fit=crop&h=200&w=280"},"liked":false,"alt":"Detailed view of a crab nestled among stones and rocks on a beach."},{"id":36922184,"width":5000,"height":3333,"url":"https:\/\/www.pexels.com\/photo\/vibrant-underwater-macro-of-a-purple-lobster-36922184\/","photographer":"Jeffry Surianto","photographer_url":"https:\/\/www.pexels.com\/@andromeda99","photographer_id":3009141,"avg_color":"#45403C","src":{"original":"https:\/\/images.pexels.com\/photos\/36922184\/pexels-photo-36922184.jpeg","large2x":"https:\/\/images.pexels.com\/photos\/36922184\/pexels-photo-36922184.jpeg?auto=compress&cs=tinysrgb&dpr=2&h=650&w=940","large":"https:\/\/images.pexels.com\/photos\/36922184\/pexels-photo-36922184.jpeg?auto=compress&cs=tinysrgb&h=650&w=940","medium":"https:\/\/images.pexels.com\/photos\/36922184\/pexels-photo-36922184.jpeg?auto=compress&cs=tinysrgb&h=350","small":"https:\/\/images.pexels.com\/photos\/36922184\/pexels-photo-36922184.jpeg?auto=compress&cs=tinysrgb&h=130","portrait":"https:\/\/images.pexels.com\/photos\/36922184\/pexels-photo-36922184.jpeg?auto=compress&cs=tinysrgb&fit=crop&h=1200&w=800","landscape":"https:\/\/images.pexels.com\/photos\/36922184\/pexels-photo-36922184.jpeg?auto=compress&cs=tinysrgb&fit=crop&h=627&w=1200","tiny":"https:\/\/images.pexels.com\/photos\/36922184\/pexels-photo-36922184.jpeg?auto=compress&cs=tinysrgb&dpr=1&fit=crop&h=200&w=280"},"liked":false,"alt":"Close-up photo of a colorful purple lobster with orange spots on a rocky ocean floor."},{"id":8907206,"width":3072,"height":4608,"url":"https:\/\/www.pexels.com\/photo\/close-up-photo-of-a-crab-on-a-rock-8907206\/","photographer":"Nuria Navarro","photographer_url":"https:\/\/www.pexels.com\/@nuria-navarro-3009823","photographer_id":3009823,"avg_color":"#6A6B5D","src":{"original":"https:\/\/images.pexels.com\/photos\/8907206\/pexels-photo-8907206.jpeg","large2x":"https:\/\/images.pexels.com\/photos\/8907206\/pexels-photo-8907206.jpeg?auto=compress&cs=tinysrgb&dpr=2&h=650&w=940","large":"https:\/\/images.pexels.com\/photos\/8907206\/pexels-photo-8907206.jpeg?auto=compress&cs=tinysrgb&h=650&w=940","medium":"https:\/\/images.pexels.com\/photos\/8907206\/pexels-photo-8907206.jpeg?auto=compress&cs=tinysrgb&h=350","small":"https:\/\/images.pexels.com\/photos\/8907206\/pexels-photo-8907206.jpeg?auto=compress&cs=tinysrgb&h=130","portrait":"https:\/\/images.pexels.com\/photos\/8907206\/pexels-photo-8907206.jpeg?auto=compress&cs=tinysrgb&fit=crop&h=1200&w=800","landscape":"https:\/\/images.pexels.com\/photos\/8907206\/pexels-photo-8907206.jpeg?auto=compress&cs=tinysrgb&fit=crop&h=627&w=1200","tiny":"https:\/\/images.pexels.com\/photos\/8907206\/pexels-photo-8907206.jpeg?auto=compress&cs=tinysrgb&dpr=1&fit=crop&h=200&w=280"},"liked":false,"alt":"Detailed close-up of a crab nestled on a rugged rock by the water, showcasing marine wildlife."},{"id":3756590,"width":5094,"height":3396,"url":"https:\/\/www.pexels.com\/photo\/close-up-photo-of-crab-on-a-rock-3756590\/","photographer":"Erik Karits","photographer_url":"https:\/\/www.pexels.com\/@erik-karits-2093459","photographer_id":2093459,"avg_color":"#9B8F80","src":{"original":"https:\/\/images.pexels.com\/photos\/3756590\/pexels-photo-3756590.jpeg","large2x":"https:\/\/images.pexels.com\/photos\/3756590\/pexels-photo-3756590.jpeg?auto=compress&cs=tinysrgb&dpr=2&h=650&w=940","large":"https:\/\/images.pexels.com\/photos\/3756590\/pexels-photo-3756590.jpeg?auto=compress&cs=tinysrgb&h=650&w=940","medium":"https:\/\/images.pexels.com\/photos\/3756590\/pexels-photo-3756590.jpeg?auto=compress&cs=tinysrgb&h=350","small":"https:\/\/images.pexels.com\/photos\/3756590\/pexels-photo-3756590.jpeg?auto=compress&cs=tinysrgb&h=130","portrait":"https:\/\/images.pexels.com\/photos\/3756590\/pexels-photo-3756590.jpeg?auto=compress&cs=tinysrgb&fit=crop&h=1200&w=800","landscape":"https:\/\/images.pexels.com\/photos\/3756590\/pexels-photo-3756590.jpeg?auto=compress&cs=tinysrgb&fit=crop&h=627&w=1200","tiny":"https:\/\/images.pexels.com\/photos\/3756590\/pexels-photo-3756590.jpeg?auto=compress&cs=tinysrgb&dpr=1&fit=crop&h=200&w=280"},"liked":false,"alt":"Detailed close-up photo of a crab on a rocky shoreline, highlighting its vibrant colors."},{"id":7796409,"width":5800,"height":3262,"url":"https:\/\/www.pexels.com\/photo\/a-crab-on-gray-sand-7796409\/","photographer":"Susanne Jutzeler, suju-foto","photographer_url":"https:\/\/www.pexels.com\/@suju","photographer_id":427138,"avg_color":"#776A59","src":{"original":"https:\/\/images.pexels.com\/photos\/7796409\/pexels-photo-7796409.jpeg","large2x":"https:\/\/images.pexels.com\/photos\/7796409\/pexels-photo-7796409.jpeg?auto=compress&cs=tinysrgb&dpr=2&h=650&w=940","large":"https:\/\/images.pexels.com\/photos\/7796409\/pexels-photo-7796409.jpeg?auto=compress&cs=tinysrgb&h=650&w=940","medium":"https:\/\/images.pexels.com\/photos\/7796409\/pexels-photo-7796409.jpeg?auto=compress&cs=tinysrgb&h=350","small":"https:\/\/images.pexels.com\/photos\/7796409\/pexels-photo-7796409.jpeg?auto=compress&cs=tinysrgb&h=130","portrait":"https:\/\/images.pexels.com\/photos\/7796409\/pexels-photo-7796409.jpeg?auto=compress&cs=tinysrgb&fit=crop&h=1200&w=800","landscape":"https:\/\/images.pexels.com\/photos\/7796409\/pexels-photo-7796409.jpeg?auto=compress&cs=tinysrgb&fit=crop&h=627&w=1200","tiny":"https:\/\/images.pexels.com\/photos\/7796409\/pexels-photo-7796409.jpeg?auto=compress&cs=tinysrgb&dpr=1&fit=crop&h=200&w=280"},"liked":false,"alt":"A detailed shot of a crab on wet sandy shores, showcasing its natural habitat."}],"total_results":8000,"next_page":"https:\/\/api.pexels.com\/v1\/v1\/search?page=2&per_page=15&query=crab+lobster+crustacean+ocean"}