{"page":1,"per_page":15,"photos":[{"id":30036913,"width":3712,"height":5568,"url":"https:\/\/www.pexels.com\/photo\/sunny-street-cafe-in-barcelona-catalonia-30036913\/","photographer":"Bingqian Li","photographer_url":"https:\/\/www.pexels.com\/@bingqian-li-230971044","photographer_id":230971044,"avg_color":"#4D423C","src":{"original":"https:\/\/images.pexels.com\/photos\/30036913\/pexels-photo-30036913.jpeg","large2x":"https:\/\/images.pexels.com\/photos\/30036913\/pexels-photo-30036913.jpeg?auto=compress&cs=tinysrgb&dpr=2&h=650&w=940","large":"https:\/\/images.pexels.com\/photos\/30036913\/pexels-photo-30036913.jpeg?auto=compress&cs=tinysrgb&h=650&w=940","medium":"https:\/\/images.pexels.com\/photos\/30036913\/pexels-photo-30036913.jpeg?auto=compress&cs=tinysrgb&h=350","small":"https:\/\/images.pexels.com\/photos\/30036913\/pexels-photo-30036913.jpeg?auto=compress&cs=tinysrgb&h=130","portrait":"https:\/\/images.pexels.com\/photos\/30036913\/pexels-photo-30036913.jpeg?auto=compress&cs=tinysrgb&fit=crop&h=1200&w=800","landscape":"https:\/\/images.pexels.com\/photos\/30036913\/pexels-photo-30036913.jpeg?auto=compress&cs=tinysrgb&fit=crop&h=627&w=1200","tiny":"https:\/\/images.pexels.com\/photos\/30036913\/pexels-photo-30036913.jpeg?auto=compress&cs=tinysrgb&dpr=1&fit=crop&h=200&w=280"},"liked":false,"alt":"Charming outdoor caf\u00e9 scene in Barcelona, showcasing elegant architecture and sunlit patio dining."},{"id":37168761,"width":4000,"height":6000,"url":"https:\/\/www.pexels.com\/photo\/mar-del-plata-beachfront-with-cityscape-skyline-37168761\/","photographer":"Julian Leonel","photographer_url":"https:\/\/www.pexels.com\/@julian-leonel-23517043","photographer_id":23517043,"avg_color":"#8899A3","src":{"original":"https:\/\/images.pexels.com\/photos\/37168761\/pexels-photo-37168761.jpeg","large2x":"https:\/\/images.pexels.com\/photos\/37168761\/pexels-photo-37168761.jpeg?auto=compress&cs=tinysrgb&dpr=2&h=650&w=940","large":"https:\/\/images.pexels.com\/photos\/37168761\/pexels-photo-37168761.jpeg?auto=compress&cs=tinysrgb&h=650&w=940","medium":"https:\/\/images.pexels.com\/photos\/37168761\/pexels-photo-37168761.jpeg?auto=compress&cs=tinysrgb&h=350","small":"https:\/\/images.pexels.com\/photos\/37168761\/pexels-photo-37168761.jpeg?auto=compress&cs=tinysrgb&h=130","portrait":"https:\/\/images.pexels.com\/photos\/37168761\/pexels-photo-37168761.jpeg?auto=compress&cs=tinysrgb&fit=crop&h=1200&w=800","landscape":"https:\/\/images.pexels.com\/photos\/37168761\/pexels-photo-37168761.jpeg?auto=compress&cs=tinysrgb&fit=crop&h=627&w=1200","tiny":"https:\/\/images.pexels.com\/photos\/37168761\/pexels-photo-37168761.jpeg?auto=compress&cs=tinysrgb&dpr=1&fit=crop&h=200&w=280"},"liked":false,"alt":"Beachfront view of Mar del Plata with city skyline and ocean waves, Argentina."},{"id":31800513,"width":3024,"height":4032,"url":"https:\/\/www.pexels.com\/photo\/charming-outdoor-cafe-in-sunny-urban-setting-31800513\/","photographer":"Maksym  Parovenko","photographer_url":"https:\/\/www.pexels.com\/@maksym-parovenko-2151629581","photographer_id":2151629581,"avg_color":"#817C69","src":{"original":"https:\/\/images.pexels.com\/photos\/31800513\/pexels-photo-31800513.jpeg","large2x":"https:\/\/images.pexels.com\/photos\/31800513\/pexels-photo-31800513.jpeg?auto=compress&cs=tinysrgb&dpr=2&h=650&w=940","large":"https:\/\/images.pexels.com\/photos\/31800513\/pexels-photo-31800513.jpeg?auto=compress&cs=tinysrgb&h=650&w=940","medium":"https:\/\/images.pexels.com\/photos\/31800513\/pexels-photo-31800513.jpeg?auto=compress&cs=tinysrgb&h=350","small":"https:\/\/images.pexels.com\/photos\/31800513\/pexels-photo-31800513.jpeg?auto=compress&cs=tinysrgb&h=130","portrait":"https:\/\/images.pexels.com\/photos\/31800513\/pexels-photo-31800513.jpeg?auto=compress&cs=tinysrgb&fit=crop&h=1200&w=800","landscape":"https:\/\/images.pexels.com\/photos\/31800513\/pexels-photo-31800513.jpeg?auto=compress&cs=tinysrgb&fit=crop&h=627&w=1200","tiny":"https:\/\/images.pexels.com\/photos\/31800513\/pexels-photo-31800513.jpeg?auto=compress&cs=tinysrgb&dpr=1&fit=crop&h=200&w=280"},"liked":false,"alt":"Outdoor view of a charming cafe with striped awnings and empty tables."},{"id":26631255,"width":2792,"height":4566,"url":"https:\/\/www.pexels.com\/photo\/sea-during-sunset-26631255\/","photographer":"Andi Jo","photographer_url":"https:\/\/www.pexels.com\/@andi-jo-10714782","photographer_id":10714782,"avg_color":"#535458","src":{"original":"https:\/\/images.pexels.com\/photos\/26631255\/pexels-photo-26631255.jpeg","large2x":"https:\/\/images.pexels.com\/photos\/26631255\/pexels-photo-26631255.jpeg?auto=compress&cs=tinysrgb&dpr=2&h=650&w=940","large":"https:\/\/images.pexels.com\/photos\/26631255\/pexels-photo-26631255.jpeg?auto=compress&cs=tinysrgb&h=650&w=940","medium":"https:\/\/images.pexels.com\/photos\/26631255\/pexels-photo-26631255.jpeg?auto=compress&cs=tinysrgb&h=350","small":"https:\/\/images.pexels.com\/photos\/26631255\/pexels-photo-26631255.jpeg?auto=compress&cs=tinysrgb&h=130","portrait":"https:\/\/images.pexels.com\/photos\/26631255\/pexels-photo-26631255.jpeg?auto=compress&cs=tinysrgb&fit=crop&h=1200&w=800","landscape":"https:\/\/images.pexels.com\/photos\/26631255\/pexels-photo-26631255.jpeg?auto=compress&cs=tinysrgb&fit=crop&h=627&w=1200","tiny":"https:\/\/images.pexels.com\/photos\/26631255\/pexels-photo-26631255.jpeg?auto=compress&cs=tinysrgb&dpr=1&fit=crop&h=200&w=280"},"liked":false,"alt":"Beautiful sunset over Mar de Cobo Beach, Argentina, with golden reflections on the tidal shore."},{"id":23452612,"width":1986,"height":3520,"url":"https:\/\/www.pexels.com\/photo\/selective-focus-of-starfish-23452612\/","photographer":"Kevin Dedicatoria","photographer_url":"https:\/\/www.pexels.com\/@kevin-dedicatoria-329099931","photographer_id":329099931,"avg_color":"#8A9489","src":{"original":"https:\/\/images.pexels.com\/photos\/23452612\/pexels-photo-23452612.jpeg","large2x":"https:\/\/images.pexels.com\/photos\/23452612\/pexels-photo-23452612.jpeg?auto=compress&cs=tinysrgb&dpr=2&h=650&w=940","large":"https:\/\/images.pexels.com\/photos\/23452612\/pexels-photo-23452612.jpeg?auto=compress&cs=tinysrgb&h=650&w=940","medium":"https:\/\/images.pexels.com\/photos\/23452612\/pexels-photo-23452612.jpeg?auto=compress&cs=tinysrgb&h=350","small":"https:\/\/images.pexels.com\/photos\/23452612\/pexels-photo-23452612.jpeg?auto=compress&cs=tinysrgb&h=130","portrait":"https:\/\/images.pexels.com\/photos\/23452612\/pexels-photo-23452612.jpeg?auto=compress&cs=tinysrgb&fit=crop&h=1200&w=800","landscape":"https:\/\/images.pexels.com\/photos\/23452612\/pexels-photo-23452612.jpeg?auto=compress&cs=tinysrgb&fit=crop&h=627&w=1200","tiny":"https:\/\/images.pexels.com\/photos\/23452612\/pexels-photo-23452612.jpeg?auto=compress&cs=tinysrgb&dpr=1&fit=crop&h=200&w=280"},"liked":false,"alt":"Close-up of a spiny starfish resting on a stone ledge by the seawater."},{"id":27878411,"width":4928,"height":3264,"url":"https:\/\/www.pexels.com\/photo\/the-desert-landscape-is-shown-in-this-photo-27878411\/","photographer":"Eleanore Stohner","photographer_url":"https:\/\/www.pexels.com\/@eleanore-stohner-59233298","photographer_id":59233298,"avg_color":"#71594D","src":{"original":"https:\/\/images.pexels.com\/photos\/27878411\/pexels-photo-27878411.jpeg","large2x":"https:\/\/images.pexels.com\/photos\/27878411\/pexels-photo-27878411.jpeg?auto=compress&cs=tinysrgb&dpr=2&h=650&w=940","large":"https:\/\/images.pexels.com\/photos\/27878411\/pexels-photo-27878411.jpeg?auto=compress&cs=tinysrgb&h=650&w=940","medium":"https:\/\/images.pexels.com\/photos\/27878411\/pexels-photo-27878411.jpeg?auto=compress&cs=tinysrgb&h=350","small":"https:\/\/images.pexels.com\/photos\/27878411\/pexels-photo-27878411.jpeg?auto=compress&cs=tinysrgb&h=130","portrait":"https:\/\/images.pexels.com\/photos\/27878411\/pexels-photo-27878411.jpeg?auto=compress&cs=tinysrgb&fit=crop&h=1200&w=800","landscape":"https:\/\/images.pexels.com\/photos\/27878411\/pexels-photo-27878411.jpeg?auto=compress&cs=tinysrgb&fit=crop&h=627&w=1200","tiny":"https:\/\/images.pexels.com\/photos\/27878411\/pexels-photo-27878411.jpeg?auto=compress&cs=tinysrgb&dpr=1&fit=crop&h=200&w=280"},"liked":false,"alt":"Stunning view of Valle de la Luna in the Atacama Desert with rugged terrain under a dramatic sky."},{"id":28910833,"width":4608,"height":2592,"url":"https:\/\/www.pexels.com\/photo\/tossa-de-mar-scenic-beachfront-and-castle-views-28910833\/","photographer":"Serhii Kuznietsov","photographer_url":"https:\/\/www.pexels.com\/@serhii-kuznietsov-1963448957","photographer_id":1963448957,"avg_color":"#9EA8B2","src":{"original":"https:\/\/images.pexels.com\/photos\/28910833\/pexels-photo-28910833.jpeg","large2x":"https:\/\/images.pexels.com\/photos\/28910833\/pexels-photo-28910833.jpeg?auto=compress&cs=tinysrgb&dpr=2&h=650&w=940","large":"https:\/\/images.pexels.com\/photos\/28910833\/pexels-photo-28910833.jpeg?auto=compress&cs=tinysrgb&h=650&w=940","medium":"https:\/\/images.pexels.com\/photos\/28910833\/pexels-photo-28910833.jpeg?auto=compress&cs=tinysrgb&h=350","small":"https:\/\/images.pexels.com\/photos\/28910833\/pexels-photo-28910833.jpeg?auto=compress&cs=tinysrgb&h=130","portrait":"https:\/\/images.pexels.com\/photos\/28910833\/pexels-photo-28910833.jpeg?auto=compress&cs=tinysrgb&fit=crop&h=1200&w=800","landscape":"https:\/\/images.pexels.com\/photos\/28910833\/pexels-photo-28910833.jpeg?auto=compress&cs=tinysrgb&fit=crop&h=627&w=1200","tiny":"https:\/\/images.pexels.com\/photos\/28910833\/pexels-photo-28910833.jpeg?auto=compress&cs=tinysrgb&dpr=1&fit=crop&h=200&w=280"},"liked":false,"alt":"Picturesque view of Tossa de Mar beach with medieval castle and tourists by the sea."},{"id":15962123,"width":3488,"height":6200,"url":"https:\/\/www.pexels.com\/photo\/starfish-lying-among-corals-15962123\/","photographer":"Matteo Milan","photographer_url":"https:\/\/www.pexels.com\/@matteo-milan-136935423","photographer_id":136935423,"avg_color":"#2D2C2A","src":{"original":"https:\/\/images.pexels.com\/photos\/15962123\/pexels-photo-15962123.jpeg","large2x":"https:\/\/images.pexels.com\/photos\/15962123\/pexels-photo-15962123.jpeg?auto=compress&cs=tinysrgb&dpr=2&h=650&w=940","large":"https:\/\/images.pexels.com\/photos\/15962123\/pexels-photo-15962123.jpeg?auto=compress&cs=tinysrgb&h=650&w=940","medium":"https:\/\/images.pexels.com\/photos\/15962123\/pexels-photo-15962123.jpeg?auto=compress&cs=tinysrgb&h=350","small":"https:\/\/images.pexels.com\/photos\/15962123\/pexels-photo-15962123.jpeg?auto=compress&cs=tinysrgb&h=130","portrait":"https:\/\/images.pexels.com\/photos\/15962123\/pexels-photo-15962123.jpeg?auto=compress&cs=tinysrgb&fit=crop&h=1200&w=800","landscape":"https:\/\/images.pexels.com\/photos\/15962123\/pexels-photo-15962123.jpeg?auto=compress&cs=tinysrgb&fit=crop&h=627&w=1200","tiny":"https:\/\/images.pexels.com\/photos\/15962123\/pexels-photo-15962123.jpeg?auto=compress&cs=tinysrgb&dpr=1&fit=crop&h=200&w=280"},"liked":false,"alt":"Vivid red starfish crawling on a coral reef wall underwater."},{"id":7367849,"width":2322,"height":4128,"url":"https:\/\/www.pexels.com\/photo\/red-star-fish-over-white-textile-7367849\/","photographer":"Sitare-i Rahsan","photographer_url":"https:\/\/www.pexels.com\/@sitareirahsan","photographer_id":42707816,"avg_color":"#BEA798","src":{"original":"https:\/\/images.pexels.com\/photos\/7367849\/pexels-photo-7367849.jpeg","large2x":"https:\/\/images.pexels.com\/photos\/7367849\/pexels-photo-7367849.jpeg?auto=compress&cs=tinysrgb&dpr=2&h=650&w=940","large":"https:\/\/images.pexels.com\/photos\/7367849\/pexels-photo-7367849.jpeg?auto=compress&cs=tinysrgb&h=650&w=940","medium":"https:\/\/images.pexels.com\/photos\/7367849\/pexels-photo-7367849.jpeg?auto=compress&cs=tinysrgb&h=350","small":"https:\/\/images.pexels.com\/photos\/7367849\/pexels-photo-7367849.jpeg?auto=compress&cs=tinysrgb&h=130","portrait":"https:\/\/images.pexels.com\/photos\/7367849\/pexels-photo-7367849.jpeg?auto=compress&cs=tinysrgb&fit=crop&h=1200&w=800","landscape":"https:\/\/images.pexels.com\/photos\/7367849\/pexels-photo-7367849.jpeg?auto=compress&cs=tinysrgb&fit=crop&h=627&w=1200","tiny":"https:\/\/images.pexels.com\/photos\/7367849\/pexels-photo-7367849.jpeg?auto=compress&cs=tinysrgb&dpr=1&fit=crop&h=200&w=280"},"liked":false,"alt":"Orange starfish on white fabric creating a coastal decor vibe."},{"id":14267333,"width":2268,"height":4032,"url":"https:\/\/www.pexels.com\/photo\/close-up-shot-of-a-starfish-on-a-rock-14267333\/","photographer":"Francisco Davids","photographer_url":"https:\/\/www.pexels.com\/@francisco-davids-150089269","photographer_id":150089269,"avg_color":"#6D7B7B","src":{"original":"https:\/\/images.pexels.com\/photos\/14267333\/pexels-photo-14267333.jpeg","large2x":"https:\/\/images.pexels.com\/photos\/14267333\/pexels-photo-14267333.jpeg?auto=compress&cs=tinysrgb&dpr=2&h=650&w=940","large":"https:\/\/images.pexels.com\/photos\/14267333\/pexels-photo-14267333.jpeg?auto=compress&cs=tinysrgb&h=650&w=940","medium":"https:\/\/images.pexels.com\/photos\/14267333\/pexels-photo-14267333.jpeg?auto=compress&cs=tinysrgb&h=350","small":"https:\/\/images.pexels.com\/photos\/14267333\/pexels-photo-14267333.jpeg?auto=compress&cs=tinysrgb&h=130","portrait":"https:\/\/images.pexels.com\/photos\/14267333\/pexels-photo-14267333.jpeg?auto=compress&cs=tinysrgb&fit=crop&h=1200&w=800","landscape":"https:\/\/images.pexels.com\/photos\/14267333\/pexels-photo-14267333.jpeg?auto=compress&cs=tinysrgb&fit=crop&h=627&w=1200","tiny":"https:\/\/images.pexels.com\/photos\/14267333\/pexels-photo-14267333.jpeg?auto=compress&cs=tinysrgb&dpr=1&fit=crop&h=200&w=280"},"liked":false,"alt":"Vivid starfish clinging to a rock, showcasing its unique patterns and textures underwater."},{"id":3049339,"width":5472,"height":3648,"url":"https:\/\/www.pexels.com\/photo\/a-village-fortress-in-a-rocky-island-3049339\/","photographer":"JACK REDGATE","photographer_url":"https:\/\/www.pexels.com\/@jack-redgate-333633","photographer_id":333633,"avg_color":"#A19E9A","src":{"original":"https:\/\/images.pexels.com\/photos\/3049339\/pexels-photo-3049339.jpeg","large2x":"https:\/\/images.pexels.com\/photos\/3049339\/pexels-photo-3049339.jpeg?auto=compress&cs=tinysrgb&dpr=2&h=650&w=940","large":"https:\/\/images.pexels.com\/photos\/3049339\/pexels-photo-3049339.jpeg?auto=compress&cs=tinysrgb&h=650&w=940","medium":"https:\/\/images.pexels.com\/photos\/3049339\/pexels-photo-3049339.jpeg?auto=compress&cs=tinysrgb&h=350","small":"https:\/\/images.pexels.com\/photos\/3049339\/pexels-photo-3049339.jpeg?auto=compress&cs=tinysrgb&h=130","portrait":"https:\/\/images.pexels.com\/photos\/3049339\/pexels-photo-3049339.jpeg?auto=compress&cs=tinysrgb&fit=crop&h=1200&w=800","landscape":"https:\/\/images.pexels.com\/photos\/3049339\/pexels-photo-3049339.jpeg?auto=compress&cs=tinysrgb&fit=crop&h=627&w=1200","tiny":"https:\/\/images.pexels.com\/photos\/3049339\/pexels-photo-3049339.jpeg?auto=compress&cs=tinysrgb&dpr=1&fit=crop&h=200&w=280"},"liked":false,"alt":"Beautiful view of a medieval castle on the Costa Brava coast with calm sea and sandy beach."},{"id":20155996,"width":2304,"height":4096,"url":"https:\/\/www.pexels.com\/photo\/starfish-on-the-beach-sand-20155996\/","photographer":"Dev","photographer_url":"https:\/\/www.pexels.com\/@dev-1876147","photographer_id":1876147,"avg_color":"#574E3F","src":{"original":"https:\/\/images.pexels.com\/photos\/20155996\/pexels-photo-20155996.jpeg","large2x":"https:\/\/images.pexels.com\/photos\/20155996\/pexels-photo-20155996.jpeg?auto=compress&cs=tinysrgb&dpr=2&h=650&w=940","large":"https:\/\/images.pexels.com\/photos\/20155996\/pexels-photo-20155996.jpeg?auto=compress&cs=tinysrgb&h=650&w=940","medium":"https:\/\/images.pexels.com\/photos\/20155996\/pexels-photo-20155996.jpeg?auto=compress&cs=tinysrgb&h=350","small":"https:\/\/images.pexels.com\/photos\/20155996\/pexels-photo-20155996.jpeg?auto=compress&cs=tinysrgb&h=130","portrait":"https:\/\/images.pexels.com\/photos\/20155996\/pexels-photo-20155996.jpeg?auto=compress&cs=tinysrgb&fit=crop&h=1200&w=800","landscape":"https:\/\/images.pexels.com\/photos\/20155996\/pexels-photo-20155996.jpeg?auto=compress&cs=tinysrgb&fit=crop&h=627&w=1200","tiny":"https:\/\/images.pexels.com\/photos\/20155996\/pexels-photo-20155996.jpeg?auto=compress&cs=tinysrgb&dpr=1&fit=crop&h=200&w=280"},"liked":false,"alt":"A solitary starfish resting on sandy shores of Vadanappally, India, showcasing nature's marine beauty."},{"id":32771818,"width":6000,"height":4000,"url":"https:\/\/www.pexels.com\/photo\/tarot-card-reading-with-la-estrella-32771818\/","photographer":"D\u039bV\u039e G\u039bRCI\u039b","photographer_url":"https:\/\/www.pexels.com\/@davegarcia","photographer_id":1550809894,"avg_color":"#5A5F63","src":{"original":"https:\/\/images.pexels.com\/photos\/32771818\/pexels-photo-32771818.jpeg","large2x":"https:\/\/images.pexels.com\/photos\/32771818\/pexels-photo-32771818.jpeg?auto=compress&cs=tinysrgb&dpr=2&h=650&w=940","large":"https:\/\/images.pexels.com\/photos\/32771818\/pexels-photo-32771818.jpeg?auto=compress&cs=tinysrgb&h=650&w=940","medium":"https:\/\/images.pexels.com\/photos\/32771818\/pexels-photo-32771818.jpeg?auto=compress&cs=tinysrgb&h=350","small":"https:\/\/images.pexels.com\/photos\/32771818\/pexels-photo-32771818.jpeg?auto=compress&cs=tinysrgb&h=130","portrait":"https:\/\/images.pexels.com\/photos\/32771818\/pexels-photo-32771818.jpeg?auto=compress&cs=tinysrgb&fit=crop&h=1200&w=800","landscape":"https:\/\/images.pexels.com\/photos\/32771818\/pexels-photo-32771818.jpeg?auto=compress&cs=tinysrgb&fit=crop&h=627&w=1200","tiny":"https:\/\/images.pexels.com\/photos\/32771818\/pexels-photo-32771818.jpeg?auto=compress&cs=tinysrgb&dpr=1&fit=crop&h=200&w=280"},"liked":false,"alt":"Hands holding a La Estrella tarot card, surrounded by stones and other cards."},{"id":37168766,"width":3939,"height":5908,"url":"https:\/\/www.pexels.com\/photo\/beachfront-view-of-mar-del-plata-argentina-coastline-37168766\/","photographer":"Julian Leonel","photographer_url":"https:\/\/www.pexels.com\/@julian-leonel-23517043","photographer_id":23517043,"avg_color":"#7E8C97","src":{"original":"https:\/\/images.pexels.com\/photos\/37168766\/pexels-photo-37168766.jpeg","large2x":"https:\/\/images.pexels.com\/photos\/37168766\/pexels-photo-37168766.jpeg?auto=compress&cs=tinysrgb&dpr=2&h=650&w=940","large":"https:\/\/images.pexels.com\/photos\/37168766\/pexels-photo-37168766.jpeg?auto=compress&cs=tinysrgb&h=650&w=940","medium":"https:\/\/images.pexels.com\/photos\/37168766\/pexels-photo-37168766.jpeg?auto=compress&cs=tinysrgb&h=350","small":"https:\/\/images.pexels.com\/photos\/37168766\/pexels-photo-37168766.jpeg?auto=compress&cs=tinysrgb&h=130","portrait":"https:\/\/images.pexels.com\/photos\/37168766\/pexels-photo-37168766.jpeg?auto=compress&cs=tinysrgb&fit=crop&h=1200&w=800","landscape":"https:\/\/images.pexels.com\/photos\/37168766\/pexels-photo-37168766.jpeg?auto=compress&cs=tinysrgb&fit=crop&h=627&w=1200","tiny":"https:\/\/images.pexels.com\/photos\/37168766\/pexels-photo-37168766.jpeg?auto=compress&cs=tinysrgb&dpr=1&fit=crop&h=200&w=280"},"liked":false,"alt":"Scenic beach scene in Mar del Plata, Argentina with ocean, palm trees, and city skyline."},{"id":3049340,"width":3586,"height":4482,"url":"https:\/\/www.pexels.com\/photo\/castle-and-trees-on-hill-3049340\/","photographer":"JACK REDGATE","photographer_url":"https:\/\/www.pexels.com\/@jack-redgate-333633","photographer_id":333633,"avg_color":"#A09487","src":{"original":"https:\/\/images.pexels.com\/photos\/3049340\/pexels-photo-3049340.jpeg","large2x":"https:\/\/images.pexels.com\/photos\/3049340\/pexels-photo-3049340.jpeg?auto=compress&cs=tinysrgb&dpr=2&h=650&w=940","large":"https:\/\/images.pexels.com\/photos\/3049340\/pexels-photo-3049340.jpeg?auto=compress&cs=tinysrgb&h=650&w=940","medium":"https:\/\/images.pexels.com\/photos\/3049340\/pexels-photo-3049340.jpeg?auto=compress&cs=tinysrgb&h=350","small":"https:\/\/images.pexels.com\/photos\/3049340\/pexels-photo-3049340.jpeg?auto=compress&cs=tinysrgb&h=130","portrait":"https:\/\/images.pexels.com\/photos\/3049340\/pexels-photo-3049340.jpeg?auto=compress&cs=tinysrgb&fit=crop&h=1200&w=800","landscape":"https:\/\/images.pexels.com\/photos\/3049340\/pexels-photo-3049340.jpeg?auto=compress&cs=tinysrgb&fit=crop&h=627&w=1200","tiny":"https:\/\/images.pexels.com\/photos\/3049340\/pexels-photo-3049340.jpeg?auto=compress&cs=tinysrgb&dpr=1&fit=crop&h=200&w=280"},"liked":false,"alt":"Beautiful view of a medieval fortress by the sea surrounded by rugged landscape."}],"total_results":8000,"next_page":"https:\/\/api.pexels.com\/v1\/v1\/search?page=2&per_page=15&query=estrella+de+mar"}