{"page":1,"per_page":15,"photos":[{"id":28267586,"width":2252,"height":4000,"url":"https:\/\/www.pexels.com\/photo\/anemonefish-in-the-ocean-with-blue-water-28267586\/","photographer":"White Noiise","photographer_url":"https:\/\/www.pexels.com\/@white-noiise-77351716","photographer_id":77351716,"avg_color":"#324968","src":{"original":"https:\/\/images.pexels.com\/photos\/28267586\/pexels-photo-28267586.jpeg","large2x":"https:\/\/images.pexels.com\/photos\/28267586\/pexels-photo-28267586.jpeg?auto=compress&cs=tinysrgb&dpr=2&h=650&w=940","large":"https:\/\/images.pexels.com\/photos\/28267586\/pexels-photo-28267586.jpeg?auto=compress&cs=tinysrgb&h=650&w=940","medium":"https:\/\/images.pexels.com\/photos\/28267586\/pexels-photo-28267586.jpeg?auto=compress&cs=tinysrgb&h=350","small":"https:\/\/images.pexels.com\/photos\/28267586\/pexels-photo-28267586.jpeg?auto=compress&cs=tinysrgb&h=130","portrait":"https:\/\/images.pexels.com\/photos\/28267586\/pexels-photo-28267586.jpeg?auto=compress&cs=tinysrgb&fit=crop&h=1200&w=800","landscape":"https:\/\/images.pexels.com\/photos\/28267586\/pexels-photo-28267586.jpeg?auto=compress&cs=tinysrgb&fit=crop&h=627&w=1200","tiny":"https:\/\/images.pexels.com\/photos\/28267586\/pexels-photo-28267586.jpeg?auto=compress&cs=tinysrgb&dpr=1&fit=crop&h=200&w=280"},"liked":false,"alt":"Colorful underwater scene featuring anemone and marine life in a tropical reef."},{"id":33640425,"width":3024,"height":4032,"url":"https:\/\/www.pexels.com\/photo\/vibrant-marine-life-in-sao-francisco-aquarium-33640425\/","photographer":"Ana Beatriz Verboonen","photographer_url":"https:\/\/www.pexels.com\/@abav","photographer_id":626369627,"avg_color":"#13147C","src":{"original":"https:\/\/images.pexels.com\/photos\/33640425\/pexels-photo-33640425.png","large2x":"https:\/\/images.pexels.com\/photos\/33640425\/pexels-photo-33640425.png?auto=compress&cs=tinysrgb&dpr=2&h=650&w=940","large":"https:\/\/images.pexels.com\/photos\/33640425\/pexels-photo-33640425.png?auto=compress&cs=tinysrgb&h=650&w=940","medium":"https:\/\/images.pexels.com\/photos\/33640425\/pexels-photo-33640425.png?auto=compress&cs=tinysrgb&h=350","small":"https:\/\/images.pexels.com\/photos\/33640425\/pexels-photo-33640425.png?auto=compress&cs=tinysrgb&h=130","portrait":"https:\/\/images.pexels.com\/photos\/33640425\/pexels-photo-33640425.png?auto=compress&cs=tinysrgb&fit=crop&h=1200&w=800","landscape":"https:\/\/images.pexels.com\/photos\/33640425\/pexels-photo-33640425.png?auto=compress&cs=tinysrgb&fit=crop&h=627&w=1200","tiny":"https:\/\/images.pexels.com\/photos\/33640425\/pexels-photo-33640425.png?auto=compress&cs=tinysrgb&dpr=1&fit=crop&h=200&w=280"},"liked":false,"alt":"Stunning display of marine diversity with vibrant corals and shrimp in an aquarium setting."},{"id":4620453,"width":3000,"height":4000,"url":"https:\/\/www.pexels.com\/photo\/school-of-fish-in-body-of-water-4620453\/","photographer":"Francesco Ungaro","photographer_url":"https:\/\/www.pexels.com\/@francesco-ungaro","photographer_id":21273,"avg_color":"#135D79","src":{"original":"https:\/\/images.pexels.com\/photos\/4620453\/pexels-photo-4620453.jpeg","large2x":"https:\/\/images.pexels.com\/photos\/4620453\/pexels-photo-4620453.jpeg?auto=compress&cs=tinysrgb&dpr=2&h=650&w=940","large":"https:\/\/images.pexels.com\/photos\/4620453\/pexels-photo-4620453.jpeg?auto=compress&cs=tinysrgb&h=650&w=940","medium":"https:\/\/images.pexels.com\/photos\/4620453\/pexels-photo-4620453.jpeg?auto=compress&cs=tinysrgb&h=350","small":"https:\/\/images.pexels.com\/photos\/4620453\/pexels-photo-4620453.jpeg?auto=compress&cs=tinysrgb&h=130","portrait":"https:\/\/images.pexels.com\/photos\/4620453\/pexels-photo-4620453.jpeg?auto=compress&cs=tinysrgb&fit=crop&h=1200&w=800","landscape":"https:\/\/images.pexels.com\/photos\/4620453\/pexels-photo-4620453.jpeg?auto=compress&cs=tinysrgb&fit=crop&h=627&w=1200","tiny":"https:\/\/images.pexels.com\/photos\/4620453\/pexels-photo-4620453.jpeg?auto=compress&cs=tinysrgb&dpr=1&fit=crop&h=200&w=280"},"liked":false,"alt":"Colorful fish swim around a thriving coral reef underwater in a vibrant marine ecosystem."},{"id":16466439,"width":3615,"height":4052,"url":"https:\/\/www.pexels.com\/photo\/blue-fish-in-a-coral-reef-16466439\/","photographer":"Jonathan Hidalgo","photographer_url":"https:\/\/www.pexels.com\/@unkdevil","photographer_id":531381563,"avg_color":"#224984","src":{"original":"https:\/\/images.pexels.com\/photos\/16466439\/pexels-photo-16466439.jpeg","large2x":"https:\/\/images.pexels.com\/photos\/16466439\/pexels-photo-16466439.jpeg?auto=compress&cs=tinysrgb&dpr=2&h=650&w=940","large":"https:\/\/images.pexels.com\/photos\/16466439\/pexels-photo-16466439.jpeg?auto=compress&cs=tinysrgb&h=650&w=940","medium":"https:\/\/images.pexels.com\/photos\/16466439\/pexels-photo-16466439.jpeg?auto=compress&cs=tinysrgb&h=350","small":"https:\/\/images.pexels.com\/photos\/16466439\/pexels-photo-16466439.jpeg?auto=compress&cs=tinysrgb&h=130","portrait":"https:\/\/images.pexels.com\/photos\/16466439\/pexels-photo-16466439.jpeg?auto=compress&cs=tinysrgb&fit=crop&h=1200&w=800","landscape":"https:\/\/images.pexels.com\/photos\/16466439\/pexels-photo-16466439.jpeg?auto=compress&cs=tinysrgb&fit=crop&h=627&w=1200","tiny":"https:\/\/images.pexels.com\/photos\/16466439\/pexels-photo-16466439.jpeg?auto=compress&cs=tinysrgb&dpr=1&fit=crop&h=200&w=280"},"liked":false,"alt":"Captivating scene of vibrant tropical fish and colorful corals underwater in Veracruz, Mexico."},{"id":11653410,"width":2915,"height":4372,"url":"https:\/\/www.pexels.com\/photo\/coral-reefs-underwater-in-close-up-photography-11653410\/","photographer":"ohaps","photographer_url":"https:\/\/www.pexels.com\/@ohaps-194763155","photographer_id":194763155,"avg_color":"#1C2838","src":{"original":"https:\/\/images.pexels.com\/photos\/11653410\/pexels-photo-11653410.jpeg","large2x":"https:\/\/images.pexels.com\/photos\/11653410\/pexels-photo-11653410.jpeg?auto=compress&cs=tinysrgb&dpr=2&h=650&w=940","large":"https:\/\/images.pexels.com\/photos\/11653410\/pexels-photo-11653410.jpeg?auto=compress&cs=tinysrgb&h=650&w=940","medium":"https:\/\/images.pexels.com\/photos\/11653410\/pexels-photo-11653410.jpeg?auto=compress&cs=tinysrgb&h=350","small":"https:\/\/images.pexels.com\/photos\/11653410\/pexels-photo-11653410.jpeg?auto=compress&cs=tinysrgb&h=130","portrait":"https:\/\/images.pexels.com\/photos\/11653410\/pexels-photo-11653410.jpeg?auto=compress&cs=tinysrgb&fit=crop&h=1200&w=800","landscape":"https:\/\/images.pexels.com\/photos\/11653410\/pexels-photo-11653410.jpeg?auto=compress&cs=tinysrgb&fit=crop&h=627&w=1200","tiny":"https:\/\/images.pexels.com\/photos\/11653410\/pexels-photo-11653410.jpeg?auto=compress&cs=tinysrgb&dpr=1&fit=crop&h=200&w=280"},"liked":false,"alt":"Explore a colorful underwater coral reef teeming with diverse marine life and fish in this captivating photo."},{"id":37260394,"width":4032,"height":3024,"url":"https:\/\/www.pexels.com\/photo\/underwater-starfish-among-coral-reef-37260394\/","photographer":"Paola Aguayo","photographer_url":"https:\/\/www.pexels.com\/@paola-aguayo-2161146274","photographer_id":2161146274,"avg_color":"#736A97","src":{"original":"https:\/\/images.pexels.com\/photos\/37260394\/pexels-photo-37260394.jpeg","large2x":"https:\/\/images.pexels.com\/photos\/37260394\/pexels-photo-37260394.jpeg?auto=compress&cs=tinysrgb&dpr=2&h=650&w=940","large":"https:\/\/images.pexels.com\/photos\/37260394\/pexels-photo-37260394.jpeg?auto=compress&cs=tinysrgb&h=650&w=940","medium":"https:\/\/images.pexels.com\/photos\/37260394\/pexels-photo-37260394.jpeg?auto=compress&cs=tinysrgb&h=350","small":"https:\/\/images.pexels.com\/photos\/37260394\/pexels-photo-37260394.jpeg?auto=compress&cs=tinysrgb&h=130","portrait":"https:\/\/images.pexels.com\/photos\/37260394\/pexels-photo-37260394.jpeg?auto=compress&cs=tinysrgb&fit=crop&h=1200&w=800","landscape":"https:\/\/images.pexels.com\/photos\/37260394\/pexels-photo-37260394.jpeg?auto=compress&cs=tinysrgb&fit=crop&h=627&w=1200","tiny":"https:\/\/images.pexels.com\/photos\/37260394\/pexels-photo-37260394.jpeg?auto=compress&cs=tinysrgb&dpr=1&fit=crop&h=200&w=280"},"liked":false,"alt":"A close-up view of a starfish on a coral reef under reflective water, showcasing marine life."},{"id":5008377,"width":5062,"height":9000,"url":"https:\/\/www.pexels.com\/photo\/top-view-of-dolphins-swimming-in-water-5008377\/","photographer":"Jess Loiterton","photographer_url":"https:\/\/www.pexels.com\/@jess-vide","photographer_id":2653860,"avg_color":"#549EA9","src":{"original":"https:\/\/images.pexels.com\/photos\/5008377\/pexels-photo-5008377.jpeg","large2x":"https:\/\/images.pexels.com\/photos\/5008377\/pexels-photo-5008377.jpeg?auto=compress&cs=tinysrgb&dpr=2&h=650&w=940","large":"https:\/\/images.pexels.com\/photos\/5008377\/pexels-photo-5008377.jpeg?auto=compress&cs=tinysrgb&h=650&w=940","medium":"https:\/\/images.pexels.com\/photos\/5008377\/pexels-photo-5008377.jpeg?auto=compress&cs=tinysrgb&h=350","small":"https:\/\/images.pexels.com\/photos\/5008377\/pexels-photo-5008377.jpeg?auto=compress&cs=tinysrgb&h=130","portrait":"https:\/\/images.pexels.com\/photos\/5008377\/pexels-photo-5008377.jpeg?auto=compress&cs=tinysrgb&fit=crop&h=1200&w=800","landscape":"https:\/\/images.pexels.com\/photos\/5008377\/pexels-photo-5008377.jpeg?auto=compress&cs=tinysrgb&fit=crop&h=627&w=1200","tiny":"https:\/\/images.pexels.com\/photos\/5008377\/pexels-photo-5008377.jpeg?auto=compress&cs=tinysrgb&dpr=1&fit=crop&h=200&w=280"},"liked":false,"alt":"Aerial shot of dolphins swimming together in clear turquoise water, showcasing aquatic wildlife."},{"id":33445031,"width":12240,"height":16320,"url":"https:\/\/www.pexels.com\/photo\/colorful-coral-reef-close-up-in-vibrant-ocean-scene-33445031\/","photographer":"Iryna Ellesionarios","photographer_url":"https:\/\/www.pexels.com\/@ellesionarios","photographer_id":2100137,"avg_color":"#80707B","src":{"original":"https:\/\/images.pexels.com\/photos\/33445031\/pexels-photo-33445031.jpeg","large2x":"https:\/\/images.pexels.com\/photos\/33445031\/pexels-photo-33445031.jpeg?auto=compress&cs=tinysrgb&dpr=2&h=650&w=940","large":"https:\/\/images.pexels.com\/photos\/33445031\/pexels-photo-33445031.jpeg?auto=compress&cs=tinysrgb&h=650&w=940","medium":"https:\/\/images.pexels.com\/photos\/33445031\/pexels-photo-33445031.jpeg?auto=compress&cs=tinysrgb&h=350","small":"https:\/\/images.pexels.com\/photos\/33445031\/pexels-photo-33445031.jpeg?auto=compress&cs=tinysrgb&h=130","portrait":"https:\/\/images.pexels.com\/photos\/33445031\/pexels-photo-33445031.jpeg?auto=compress&cs=tinysrgb&fit=crop&h=1200&w=800","landscape":"https:\/\/images.pexels.com\/photos\/33445031\/pexels-photo-33445031.jpeg?auto=compress&cs=tinysrgb&fit=crop&h=627&w=1200","tiny":"https:\/\/images.pexels.com\/photos\/33445031\/pexels-photo-33445031.jpeg?auto=compress&cs=tinysrgb&dpr=1&fit=crop&h=200&w=280"},"liked":false,"alt":"Detailed close-up of colorful coral reef with vibrant marine hues underwater."},{"id":3361052,"width":4000,"height":3000,"url":"https:\/\/www.pexels.com\/photo\/underwater-photography-of-fish-3361052\/","photographer":"Francesco Ungaro","photographer_url":"https:\/\/www.pexels.com\/@francesco-ungaro","photographer_id":21273,"avg_color":"#25749B","src":{"original":"https:\/\/images.pexels.com\/photos\/3361052\/pexels-photo-3361052.jpeg","large2x":"https:\/\/images.pexels.com\/photos\/3361052\/pexels-photo-3361052.jpeg?auto=compress&cs=tinysrgb&dpr=2&h=650&w=940","large":"https:\/\/images.pexels.com\/photos\/3361052\/pexels-photo-3361052.jpeg?auto=compress&cs=tinysrgb&h=650&w=940","medium":"https:\/\/images.pexels.com\/photos\/3361052\/pexels-photo-3361052.jpeg?auto=compress&cs=tinysrgb&h=350","small":"https:\/\/images.pexels.com\/photos\/3361052\/pexels-photo-3361052.jpeg?auto=compress&cs=tinysrgb&h=130","portrait":"https:\/\/images.pexels.com\/photos\/3361052\/pexels-photo-3361052.jpeg?auto=compress&cs=tinysrgb&fit=crop&h=1200&w=800","landscape":"https:\/\/images.pexels.com\/photos\/3361052\/pexels-photo-3361052.jpeg?auto=compress&cs=tinysrgb&fit=crop&h=627&w=1200","tiny":"https:\/\/images.pexels.com\/photos\/3361052\/pexels-photo-3361052.jpeg?auto=compress&cs=tinysrgb&dpr=1&fit=crop&h=200&w=280"},"liked":false,"alt":"Colorful coral reef teeming with tropical fish underwater, showcasing marine biodiversity."},{"id":6123079,"width":4160,"height":6240,"url":"https:\/\/www.pexels.com\/photo\/sea-anemone-in-dark-underwater-6123079\/","photographer":"Rachel Claire","photographer_url":"https:\/\/www.pexels.com\/@rachel-claire","photographer_id":2272619,"avg_color":"#04123C","src":{"original":"https:\/\/images.pexels.com\/photos\/6123079\/pexels-photo-6123079.jpeg","large2x":"https:\/\/images.pexels.com\/photos\/6123079\/pexels-photo-6123079.jpeg?auto=compress&cs=tinysrgb&dpr=2&h=650&w=940","large":"https:\/\/images.pexels.com\/photos\/6123079\/pexels-photo-6123079.jpeg?auto=compress&cs=tinysrgb&h=650&w=940","medium":"https:\/\/images.pexels.com\/photos\/6123079\/pexels-photo-6123079.jpeg?auto=compress&cs=tinysrgb&h=350","small":"https:\/\/images.pexels.com\/photos\/6123079\/pexels-photo-6123079.jpeg?auto=compress&cs=tinysrgb&h=130","portrait":"https:\/\/images.pexels.com\/photos\/6123079\/pexels-photo-6123079.jpeg?auto=compress&cs=tinysrgb&fit=crop&h=1200&w=800","landscape":"https:\/\/images.pexels.com\/photos\/6123079\/pexels-photo-6123079.jpeg?auto=compress&cs=tinysrgb&fit=crop&h=627&w=1200","tiny":"https:\/\/images.pexels.com\/photos\/6123079\/pexels-photo-6123079.jpeg?auto=compress&cs=tinysrgb&dpr=1&fit=crop&h=200&w=280"},"liked":false,"alt":"Stunning close-up of a glowing blue sea anemone in the dark waters of the ocean."},{"id":4620471,"width":3000,"height":4000,"url":"https:\/\/www.pexels.com\/photo\/school-of-fish-in-body-of-water-4620471\/","photographer":"Francesco Ungaro","photographer_url":"https:\/\/www.pexels.com\/@francesco-ungaro","photographer_id":21273,"avg_color":"#144B5A","src":{"original":"https:\/\/images.pexels.com\/photos\/4620471\/pexels-photo-4620471.jpeg","large2x":"https:\/\/images.pexels.com\/photos\/4620471\/pexels-photo-4620471.jpeg?auto=compress&cs=tinysrgb&dpr=2&h=650&w=940","large":"https:\/\/images.pexels.com\/photos\/4620471\/pexels-photo-4620471.jpeg?auto=compress&cs=tinysrgb&h=650&w=940","medium":"https:\/\/images.pexels.com\/photos\/4620471\/pexels-photo-4620471.jpeg?auto=compress&cs=tinysrgb&h=350","small":"https:\/\/images.pexels.com\/photos\/4620471\/pexels-photo-4620471.jpeg?auto=compress&cs=tinysrgb&h=130","portrait":"https:\/\/images.pexels.com\/photos\/4620471\/pexels-photo-4620471.jpeg?auto=compress&cs=tinysrgb&fit=crop&h=1200&w=800","landscape":"https:\/\/images.pexels.com\/photos\/4620471\/pexels-photo-4620471.jpeg?auto=compress&cs=tinysrgb&fit=crop&h=627&w=1200","tiny":"https:\/\/images.pexels.com\/photos\/4620471\/pexels-photo-4620471.jpeg?auto=compress&cs=tinysrgb&dpr=1&fit=crop&h=200&w=280"},"liked":false,"alt":"Colorful coral reef teeming with a lively school of fish underwater, showcasing marine biodiversity."},{"id":28267585,"width":2153,"height":3825,"url":"https:\/\/www.pexels.com\/photo\/anemone-on-the-ocean-floor-with-a-red-coral-28267585\/","photographer":"White Noiise","photographer_url":"https:\/\/www.pexels.com\/@white-noiise-77351716","photographer_id":77351716,"avg_color":"#334A69","src":{"original":"https:\/\/images.pexels.com\/photos\/28267585\/pexels-photo-28267585.jpeg","large2x":"https:\/\/images.pexels.com\/photos\/28267585\/pexels-photo-28267585.jpeg?auto=compress&cs=tinysrgb&dpr=2&h=650&w=940","large":"https:\/\/images.pexels.com\/photos\/28267585\/pexels-photo-28267585.jpeg?auto=compress&cs=tinysrgb&h=650&w=940","medium":"https:\/\/images.pexels.com\/photos\/28267585\/pexels-photo-28267585.jpeg?auto=compress&cs=tinysrgb&h=350","small":"https:\/\/images.pexels.com\/photos\/28267585\/pexels-photo-28267585.jpeg?auto=compress&cs=tinysrgb&h=130","portrait":"https:\/\/images.pexels.com\/photos\/28267585\/pexels-photo-28267585.jpeg?auto=compress&cs=tinysrgb&fit=crop&h=1200&w=800","landscape":"https:\/\/images.pexels.com\/photos\/28267585\/pexels-photo-28267585.jpeg?auto=compress&cs=tinysrgb&fit=crop&h=627&w=1200","tiny":"https:\/\/images.pexels.com\/photos\/28267585\/pexels-photo-28267585.jpeg?auto=compress&cs=tinysrgb&dpr=1&fit=crop&h=200&w=280"},"liked":false,"alt":"Vibrant underwater photo of an anemone and fish in a coral reef, showcasing marine diversity."},{"id":31262756,"width":4032,"height":3024,"url":"https:\/\/www.pexels.com\/photo\/vibrant-lionfish-in-a-coral-reef-aquarium-31262756\/","photographer":"ida Perez","photographer_url":"https:\/\/www.pexels.com\/@fragarence3","photographer_id":243768835,"avg_color":"#5E3CAA","src":{"original":"https:\/\/images.pexels.com\/photos\/31262756\/pexels-photo-31262756.jpeg","large2x":"https:\/\/images.pexels.com\/photos\/31262756\/pexels-photo-31262756.jpeg?auto=compress&cs=tinysrgb&dpr=2&h=650&w=940","large":"https:\/\/images.pexels.com\/photos\/31262756\/pexels-photo-31262756.jpeg?auto=compress&cs=tinysrgb&h=650&w=940","medium":"https:\/\/images.pexels.com\/photos\/31262756\/pexels-photo-31262756.jpeg?auto=compress&cs=tinysrgb&h=350","small":"https:\/\/images.pexels.com\/photos\/31262756\/pexels-photo-31262756.jpeg?auto=compress&cs=tinysrgb&h=130","portrait":"https:\/\/images.pexels.com\/photos\/31262756\/pexels-photo-31262756.jpeg?auto=compress&cs=tinysrgb&fit=crop&h=1200&w=800","landscape":"https:\/\/images.pexels.com\/photos\/31262756\/pexels-photo-31262756.jpeg?auto=compress&cs=tinysrgb&fit=crop&h=627&w=1200","tiny":"https:\/\/images.pexels.com\/photos\/31262756\/pexels-photo-31262756.jpeg?auto=compress&cs=tinysrgb&dpr=1&fit=crop&h=200&w=280"},"liked":false,"alt":"Colorful lionfish displaying striking fins in a coral reef aquarium."},{"id":31627794,"width":7040,"height":4688,"url":"https:\/\/www.pexels.com\/photo\/vibrant-tube-worms-in-underwater-aquarium-31627794\/","photographer":"Frank Lee","photographer_url":"https:\/\/www.pexels.com\/@frank-lee-2903359","photographer_id":2903359,"avg_color":"#303F80","src":{"original":"https:\/\/images.pexels.com\/photos\/31627794\/pexels-photo-31627794.jpeg","large2x":"https:\/\/images.pexels.com\/photos\/31627794\/pexels-photo-31627794.jpeg?auto=compress&cs=tinysrgb&dpr=2&h=650&w=940","large":"https:\/\/images.pexels.com\/photos\/31627794\/pexels-photo-31627794.jpeg?auto=compress&cs=tinysrgb&h=650&w=940","medium":"https:\/\/images.pexels.com\/photos\/31627794\/pexels-photo-31627794.jpeg?auto=compress&cs=tinysrgb&h=350","small":"https:\/\/images.pexels.com\/photos\/31627794\/pexels-photo-31627794.jpeg?auto=compress&cs=tinysrgb&h=130","portrait":"https:\/\/images.pexels.com\/photos\/31627794\/pexels-photo-31627794.jpeg?auto=compress&cs=tinysrgb&fit=crop&h=1200&w=800","landscape":"https:\/\/images.pexels.com\/photos\/31627794\/pexels-photo-31627794.jpeg?auto=compress&cs=tinysrgb&fit=crop&h=627&w=1200","tiny":"https:\/\/images.pexels.com\/photos\/31627794\/pexels-photo-31627794.jpeg?auto=compress&cs=tinysrgb&dpr=1&fit=crop&h=200&w=280"},"liked":false,"alt":"Colorful display of tube worms in a vivid underwater aquarium setting, showcasing delicate tentacles."},{"id":9406888,"width":3316,"height":4146,"url":"https:\/\/www.pexels.com\/photo\/dolphins-on-body-of-water-9406888\/","photographer":"Noah Munivez","photographer_url":"https:\/\/www.pexels.com\/@noah-munivez-101601064","photographer_id":101601064,"avg_color":"#72A0B7","src":{"original":"https:\/\/images.pexels.com\/photos\/9406888\/pexels-photo-9406888.jpeg","large2x":"https:\/\/images.pexels.com\/photos\/9406888\/pexels-photo-9406888.jpeg?auto=compress&cs=tinysrgb&dpr=2&h=650&w=940","large":"https:\/\/images.pexels.com\/photos\/9406888\/pexels-photo-9406888.jpeg?auto=compress&cs=tinysrgb&h=650&w=940","medium":"https:\/\/images.pexels.com\/photos\/9406888\/pexels-photo-9406888.jpeg?auto=compress&cs=tinysrgb&h=350","small":"https:\/\/images.pexels.com\/photos\/9406888\/pexels-photo-9406888.jpeg?auto=compress&cs=tinysrgb&h=130","portrait":"https:\/\/images.pexels.com\/photos\/9406888\/pexels-photo-9406888.jpeg?auto=compress&cs=tinysrgb&fit=crop&h=1200&w=800","landscape":"https:\/\/images.pexels.com\/photos\/9406888\/pexels-photo-9406888.jpeg?auto=compress&cs=tinysrgb&fit=crop&h=627&w=1200","tiny":"https:\/\/images.pexels.com\/photos\/9406888\/pexels-photo-9406888.jpeg?auto=compress&cs=tinysrgb&dpr=1&fit=crop&h=200&w=280"},"liked":false,"alt":"Group of dolphins swimming gracefully underwater in a clear blue ocean."}],"total_results":8000,"next_page":"https:\/\/api.pexels.com\/v1\/v1\/search?page=2&per_page=15&query=ocean+life+marine"}