{"page":1,"per_page":15,"photos":[{"id":1821724,"width":4000,"height":3000,"url":"https:\/\/www.pexels.com\/photo\/underwater-photo-of-fishes-1821724\/","photographer":"Orest Sv","photographer_url":"https:\/\/www.pexels.com\/@orestsv","photographer_id":253036,"avg_color":"#147675","src":{"original":"https:\/\/images.pexels.com\/photos\/1821724\/pexels-photo-1821724.jpeg","large2x":"https:\/\/images.pexels.com\/photos\/1821724\/pexels-photo-1821724.jpeg?auto=compress&cs=tinysrgb&dpr=2&h=650&w=940","large":"https:\/\/images.pexels.com\/photos\/1821724\/pexels-photo-1821724.jpeg?auto=compress&cs=tinysrgb&h=650&w=940","medium":"https:\/\/images.pexels.com\/photos\/1821724\/pexels-photo-1821724.jpeg?auto=compress&cs=tinysrgb&h=350","small":"https:\/\/images.pexels.com\/photos\/1821724\/pexels-photo-1821724.jpeg?auto=compress&cs=tinysrgb&h=130","portrait":"https:\/\/images.pexels.com\/photos\/1821724\/pexels-photo-1821724.jpeg?auto=compress&cs=tinysrgb&fit=crop&h=1200&w=800","landscape":"https:\/\/images.pexels.com\/photos\/1821724\/pexels-photo-1821724.jpeg?auto=compress&cs=tinysrgb&fit=crop&h=627&w=1200","tiny":"https:\/\/images.pexels.com\/photos\/1821724\/pexels-photo-1821724.jpeg?auto=compress&cs=tinysrgb&dpr=1&fit=crop&h=200&w=280"},"liked":false,"alt":"School of fish swimming in a vibrant ocean scene under sunlight."},{"id":3172278,"width":4000,"height":3000,"url":"https:\/\/www.pexels.com\/photo\/school-of-fish-in-ocean-3172278\/","photographer":"Francesco Ungaro","photographer_url":"https:\/\/www.pexels.com\/@francesco-ungaro","photographer_id":21273,"avg_color":"#054D6A","src":{"original":"https:\/\/images.pexels.com\/photos\/3172278\/pexels-photo-3172278.jpeg","large2x":"https:\/\/images.pexels.com\/photos\/3172278\/pexels-photo-3172278.jpeg?auto=compress&cs=tinysrgb&dpr=2&h=650&w=940","large":"https:\/\/images.pexels.com\/photos\/3172278\/pexels-photo-3172278.jpeg?auto=compress&cs=tinysrgb&h=650&w=940","medium":"https:\/\/images.pexels.com\/photos\/3172278\/pexels-photo-3172278.jpeg?auto=compress&cs=tinysrgb&h=350","small":"https:\/\/images.pexels.com\/photos\/3172278\/pexels-photo-3172278.jpeg?auto=compress&cs=tinysrgb&h=130","portrait":"https:\/\/images.pexels.com\/photos\/3172278\/pexels-photo-3172278.jpeg?auto=compress&cs=tinysrgb&fit=crop&h=1200&w=800","landscape":"https:\/\/images.pexels.com\/photos\/3172278\/pexels-photo-3172278.jpeg?auto=compress&cs=tinysrgb&fit=crop&h=627&w=1200","tiny":"https:\/\/images.pexels.com\/photos\/3172278\/pexels-photo-3172278.jpeg?auto=compress&cs=tinysrgb&dpr=1&fit=crop&h=200&w=280"},"liked":false,"alt":"Explore the vibrant underwater world with colorful tropical fish thriving among coral reefs."},{"id":3721312,"width":5637,"height":4000,"url":"https:\/\/www.pexels.com\/photo\/blue-fish-in-tilt-shift-lens-3721312\/","photographer":"Guillaume Meurice","photographer_url":"https:\/\/www.pexels.com\/@sliceisop","photographer_id":188188,"avg_color":"#747D8E","src":{"original":"https:\/\/images.pexels.com\/photos\/3721312\/pexels-photo-3721312.jpeg","large2x":"https:\/\/images.pexels.com\/photos\/3721312\/pexels-photo-3721312.jpeg?auto=compress&cs=tinysrgb&dpr=2&h=650&w=940","large":"https:\/\/images.pexels.com\/photos\/3721312\/pexels-photo-3721312.jpeg?auto=compress&cs=tinysrgb&h=650&w=940","medium":"https:\/\/images.pexels.com\/photos\/3721312\/pexels-photo-3721312.jpeg?auto=compress&cs=tinysrgb&h=350","small":"https:\/\/images.pexels.com\/photos\/3721312\/pexels-photo-3721312.jpeg?auto=compress&cs=tinysrgb&h=130","portrait":"https:\/\/images.pexels.com\/photos\/3721312\/pexels-photo-3721312.jpeg?auto=compress&cs=tinysrgb&fit=crop&h=1200&w=800","landscape":"https:\/\/images.pexels.com\/photos\/3721312\/pexels-photo-3721312.jpeg?auto=compress&cs=tinysrgb&fit=crop&h=627&w=1200","tiny":"https:\/\/images.pexels.com\/photos\/3721312\/pexels-photo-3721312.jpeg?auto=compress&cs=tinysrgb&dpr=1&fit=crop&h=200&w=280"},"liked":false,"alt":"Close-up of vibrant fish swimming in an aquarium, showcasing marine life in stunning detail."},{"id":20354192,"width":5400,"height":3600,"url":"https:\/\/www.pexels.com\/photo\/fish-school-in-sea-20354192\/","photographer":"Daniel Torobekov","photographer_url":"https:\/\/www.pexels.com\/@alohaphotostudio","photographer_id":3028574,"avg_color":"#074E6E","src":{"original":"https:\/\/images.pexels.com\/photos\/20354192\/pexels-photo-20354192.jpeg","large2x":"https:\/\/images.pexels.com\/photos\/20354192\/pexels-photo-20354192.jpeg?auto=compress&cs=tinysrgb&dpr=2&h=650&w=940","large":"https:\/\/images.pexels.com\/photos\/20354192\/pexels-photo-20354192.jpeg?auto=compress&cs=tinysrgb&h=650&w=940","medium":"https:\/\/images.pexels.com\/photos\/20354192\/pexels-photo-20354192.jpeg?auto=compress&cs=tinysrgb&h=350","small":"https:\/\/images.pexels.com\/photos\/20354192\/pexels-photo-20354192.jpeg?auto=compress&cs=tinysrgb&h=130","portrait":"https:\/\/images.pexels.com\/photos\/20354192\/pexels-photo-20354192.jpeg?auto=compress&cs=tinysrgb&fit=crop&h=1200&w=800","landscape":"https:\/\/images.pexels.com\/photos\/20354192\/pexels-photo-20354192.jpeg?auto=compress&cs=tinysrgb&fit=crop&h=627&w=1200","tiny":"https:\/\/images.pexels.com\/photos\/20354192\/pexels-photo-20354192.jpeg?auto=compress&cs=tinysrgb&dpr=1&fit=crop&h=200&w=280"},"liked":false,"alt":"A captivating view of a school of fish swimming gracefully underwater in the deep blue sea."},{"id":8123172,"width":4000,"height":6000,"url":"https:\/\/www.pexels.com\/photo\/close-up-photo-of-a-school-of-fish-8123172\/","photographer":"senoka \ud83c\udf1e","photographer_url":"https:\/\/www.pexels.com\/@senoka-59232766","photographer_id":59232766,"avg_color":"#252122","src":{"original":"https:\/\/images.pexels.com\/photos\/8123172\/pexels-photo-8123172.jpeg","large2x":"https:\/\/images.pexels.com\/photos\/8123172\/pexels-photo-8123172.jpeg?auto=compress&cs=tinysrgb&dpr=2&h=650&w=940","large":"https:\/\/images.pexels.com\/photos\/8123172\/pexels-photo-8123172.jpeg?auto=compress&cs=tinysrgb&h=650&w=940","medium":"https:\/\/images.pexels.com\/photos\/8123172\/pexels-photo-8123172.jpeg?auto=compress&cs=tinysrgb&h=350","small":"https:\/\/images.pexels.com\/photos\/8123172\/pexels-photo-8123172.jpeg?auto=compress&cs=tinysrgb&h=130","portrait":"https:\/\/images.pexels.com\/photos\/8123172\/pexels-photo-8123172.jpeg?auto=compress&cs=tinysrgb&fit=crop&h=1200&w=800","landscape":"https:\/\/images.pexels.com\/photos\/8123172\/pexels-photo-8123172.jpeg?auto=compress&cs=tinysrgb&fit=crop&h=627&w=1200","tiny":"https:\/\/images.pexels.com\/photos\/8123172\/pexels-photo-8123172.jpeg?auto=compress&cs=tinysrgb&dpr=1&fit=crop&h=200&w=280"},"liked":false,"alt":"Group of vibrant fish swimming in an aquarium showcasing marine diversity."},{"id":7001659,"width":4421,"height":2928,"url":"https:\/\/www.pexels.com\/photo\/a-school-of-fish-behind-a-black-trevally-7001659\/","photographer":"Leonardo Lamas","photographer_url":"https:\/\/www.pexels.com\/@leonardo-lamas-32247393","photographer_id":32247393,"avg_color":"#1375AA","src":{"original":"https:\/\/images.pexels.com\/photos\/7001659\/pexels-photo-7001659.jpeg","large2x":"https:\/\/images.pexels.com\/photos\/7001659\/pexels-photo-7001659.jpeg?auto=compress&cs=tinysrgb&dpr=2&h=650&w=940","large":"https:\/\/images.pexels.com\/photos\/7001659\/pexels-photo-7001659.jpeg?auto=compress&cs=tinysrgb&h=650&w=940","medium":"https:\/\/images.pexels.com\/photos\/7001659\/pexels-photo-7001659.jpeg?auto=compress&cs=tinysrgb&h=350","small":"https:\/\/images.pexels.com\/photos\/7001659\/pexels-photo-7001659.jpeg?auto=compress&cs=tinysrgb&h=130","portrait":"https:\/\/images.pexels.com\/photos\/7001659\/pexels-photo-7001659.jpeg?auto=compress&cs=tinysrgb&fit=crop&h=1200&w=800","landscape":"https:\/\/images.pexels.com\/photos\/7001659\/pexels-photo-7001659.jpeg?auto=compress&cs=tinysrgb&fit=crop&h=627&w=1200","tiny":"https:\/\/images.pexels.com\/photos\/7001659\/pexels-photo-7001659.jpeg?auto=compress&cs=tinysrgb&dpr=1&fit=crop&h=200&w=280"},"liked":false,"alt":"A captivating underwater scene showing a school of black trevally fish swimming in the ocean's blue depths."},{"id":3282874,"width":2189,"height":3000,"url":"https:\/\/www.pexels.com\/photo\/school-of-fish-3282874\/","photographer":"Francesco Ungaro","photographer_url":"https:\/\/www.pexels.com\/@francesco-ungaro","photographer_id":21273,"avg_color":"#074B6E","src":{"original":"https:\/\/images.pexels.com\/photos\/3282874\/pexels-photo-3282874.jpeg","large2x":"https:\/\/images.pexels.com\/photos\/3282874\/pexels-photo-3282874.jpeg?auto=compress&cs=tinysrgb&dpr=2&h=650&w=940","large":"https:\/\/images.pexels.com\/photos\/3282874\/pexels-photo-3282874.jpeg?auto=compress&cs=tinysrgb&h=650&w=940","medium":"https:\/\/images.pexels.com\/photos\/3282874\/pexels-photo-3282874.jpeg?auto=compress&cs=tinysrgb&h=350","small":"https:\/\/images.pexels.com\/photos\/3282874\/pexels-photo-3282874.jpeg?auto=compress&cs=tinysrgb&h=130","portrait":"https:\/\/images.pexels.com\/photos\/3282874\/pexels-photo-3282874.jpeg?auto=compress&cs=tinysrgb&fit=crop&h=1200&w=800","landscape":"https:\/\/images.pexels.com\/photos\/3282874\/pexels-photo-3282874.jpeg?auto=compress&cs=tinysrgb&fit=crop&h=627&w=1200","tiny":"https:\/\/images.pexels.com\/photos\/3282874\/pexels-photo-3282874.jpeg?auto=compress&cs=tinysrgb&dpr=1&fit=crop&h=200&w=280"},"liked":false,"alt":"Underwater view of a school of fish swimming near a coral reef in clear ocean waters."},{"id":4738257,"width":7934,"height":5281,"url":"https:\/\/www.pexels.com\/photo\/white-and-black-striped-fish-under-water-surface-4738257\/","photographer":"ArtHouse Studio","photographer_url":"https:\/\/www.pexels.com\/@arthousestudio","photographer_id":2766954,"avg_color":"#022348","src":{"original":"https:\/\/images.pexels.com\/photos\/4738257\/pexels-photo-4738257.jpeg","large2x":"https:\/\/images.pexels.com\/photos\/4738257\/pexels-photo-4738257.jpeg?auto=compress&cs=tinysrgb&dpr=2&h=650&w=940","large":"https:\/\/images.pexels.com\/photos\/4738257\/pexels-photo-4738257.jpeg?auto=compress&cs=tinysrgb&h=650&w=940","medium":"https:\/\/images.pexels.com\/photos\/4738257\/pexels-photo-4738257.jpeg?auto=compress&cs=tinysrgb&h=350","small":"https:\/\/images.pexels.com\/photos\/4738257\/pexels-photo-4738257.jpeg?auto=compress&cs=tinysrgb&h=130","portrait":"https:\/\/images.pexels.com\/photos\/4738257\/pexels-photo-4738257.jpeg?auto=compress&cs=tinysrgb&fit=crop&h=1200&w=800","landscape":"https:\/\/images.pexels.com\/photos\/4738257\/pexels-photo-4738257.jpeg?auto=compress&cs=tinysrgb&fit=crop&h=627&w=1200","tiny":"https:\/\/images.pexels.com\/photos\/4738257\/pexels-photo-4738257.jpeg?auto=compress&cs=tinysrgb&dpr=1&fit=crop&h=200&w=280"},"liked":false,"alt":"Captivating view of striped fish swimming below the ocean surface in a tranquil underwater setting."},{"id":31047032,"width":6240,"height":4160,"url":"https:\/\/www.pexels.com\/photo\/colorful-reef-fish-in-vibrant-coral-habitat-31047032\/","photographer":"Christian  Alemu","photographer_url":"https:\/\/www.pexels.com\/@christian-alemu-127251395","photographer_id":127251395,"avg_color":"#1A5A35","src":{"original":"https:\/\/images.pexels.com\/photos\/31047032\/pexels-photo-31047032.jpeg","large2x":"https:\/\/images.pexels.com\/photos\/31047032\/pexels-photo-31047032.jpeg?auto=compress&cs=tinysrgb&dpr=2&h=650&w=940","large":"https:\/\/images.pexels.com\/photos\/31047032\/pexels-photo-31047032.jpeg?auto=compress&cs=tinysrgb&h=650&w=940","medium":"https:\/\/images.pexels.com\/photos\/31047032\/pexels-photo-31047032.jpeg?auto=compress&cs=tinysrgb&h=350","small":"https:\/\/images.pexels.com\/photos\/31047032\/pexels-photo-31047032.jpeg?auto=compress&cs=tinysrgb&h=130","portrait":"https:\/\/images.pexels.com\/photos\/31047032\/pexels-photo-31047032.jpeg?auto=compress&cs=tinysrgb&fit=crop&h=1200&w=800","landscape":"https:\/\/images.pexels.com\/photos\/31047032\/pexels-photo-31047032.jpeg?auto=compress&cs=tinysrgb&fit=crop&h=627&w=1200","tiny":"https:\/\/images.pexels.com\/photos\/31047032\/pexels-photo-31047032.jpeg?auto=compress&cs=tinysrgb&dpr=1&fit=crop&h=200&w=280"},"liked":false,"alt":"Vibrant fish swimming among colorful corals in a lively underwater reef ecosystem."},{"id":18528206,"width":4000,"height":6000,"url":"https:\/\/www.pexels.com\/photo\/a-large-aquarium-with-many-fish-swimming-around-18528206\/","photographer":"Adrien Olichon","photographer_url":"https:\/\/www.pexels.com\/@adrien-olichon-1257089","photographer_id":1257089,"avg_color":"#222D27","src":{"original":"https:\/\/images.pexels.com\/photos\/18528206\/pexels-photo-18528206.jpeg","large2x":"https:\/\/images.pexels.com\/photos\/18528206\/pexels-photo-18528206.jpeg?auto=compress&cs=tinysrgb&dpr=2&h=650&w=940","large":"https:\/\/images.pexels.com\/photos\/18528206\/pexels-photo-18528206.jpeg?auto=compress&cs=tinysrgb&h=650&w=940","medium":"https:\/\/images.pexels.com\/photos\/18528206\/pexels-photo-18528206.jpeg?auto=compress&cs=tinysrgb&h=350","small":"https:\/\/images.pexels.com\/photos\/18528206\/pexels-photo-18528206.jpeg?auto=compress&cs=tinysrgb&h=130","portrait":"https:\/\/images.pexels.com\/photos\/18528206\/pexels-photo-18528206.jpeg?auto=compress&cs=tinysrgb&fit=crop&h=1200&w=800","landscape":"https:\/\/images.pexels.com\/photos\/18528206\/pexels-photo-18528206.jpeg?auto=compress&cs=tinysrgb&fit=crop&h=627&w=1200","tiny":"https:\/\/images.pexels.com\/photos\/18528206\/pexels-photo-18528206.jpeg?auto=compress&cs=tinysrgb&dpr=1&fit=crop&h=200&w=280"},"liked":false,"alt":"Vibrant school of tropical fish swimming in a lush, colorful aquarium environment."},{"id":3699434,"width":5051,"height":3648,"url":"https:\/\/www.pexels.com\/photo\/school-of-fish-in-water-3699434\/","photographer":"Hung Tran","photographer_url":"https:\/\/www.pexels.com\/@hungtran","photographer_id":2073377,"avg_color":"#0F344F","src":{"original":"https:\/\/images.pexels.com\/photos\/3699434\/pexels-photo-3699434.jpeg","large2x":"https:\/\/images.pexels.com\/photos\/3699434\/pexels-photo-3699434.jpeg?auto=compress&cs=tinysrgb&dpr=2&h=650&w=940","large":"https:\/\/images.pexels.com\/photos\/3699434\/pexels-photo-3699434.jpeg?auto=compress&cs=tinysrgb&h=650&w=940","medium":"https:\/\/images.pexels.com\/photos\/3699434\/pexels-photo-3699434.jpeg?auto=compress&cs=tinysrgb&h=350","small":"https:\/\/images.pexels.com\/photos\/3699434\/pexels-photo-3699434.jpeg?auto=compress&cs=tinysrgb&h=130","portrait":"https:\/\/images.pexels.com\/photos\/3699434\/pexels-photo-3699434.jpeg?auto=compress&cs=tinysrgb&fit=crop&h=1200&w=800","landscape":"https:\/\/images.pexels.com\/photos\/3699434\/pexels-photo-3699434.jpeg?auto=compress&cs=tinysrgb&fit=crop&h=627&w=1200","tiny":"https:\/\/images.pexels.com\/photos\/3699434\/pexels-photo-3699434.jpeg?auto=compress&cs=tinysrgb&dpr=1&fit=crop&h=200&w=280"},"liked":false,"alt":"Capture the vibrant marine life of a tropical aquarium with diverse fish species swimming amidst colorful corals."},{"id":18150613,"width":6000,"height":8000,"url":"https:\/\/www.pexels.com\/photo\/tropical-fishes-over-coral-reef-18150613\/","photographer":"\u00dcmm\u00fc G\u00fcls\u00fcm Ergin","photographer_url":"https:\/\/www.pexels.com\/@ummu-gulsum-ergin-670659197","photographer_id":670659197,"avg_color":"#1C2238","src":{"original":"https:\/\/images.pexels.com\/photos\/18150613\/pexels-photo-18150613.jpeg","large2x":"https:\/\/images.pexels.com\/photos\/18150613\/pexels-photo-18150613.jpeg?auto=compress&cs=tinysrgb&dpr=2&h=650&w=940","large":"https:\/\/images.pexels.com\/photos\/18150613\/pexels-photo-18150613.jpeg?auto=compress&cs=tinysrgb&h=650&w=940","medium":"https:\/\/images.pexels.com\/photos\/18150613\/pexels-photo-18150613.jpeg?auto=compress&cs=tinysrgb&h=350","small":"https:\/\/images.pexels.com\/photos\/18150613\/pexels-photo-18150613.jpeg?auto=compress&cs=tinysrgb&h=130","portrait":"https:\/\/images.pexels.com\/photos\/18150613\/pexels-photo-18150613.jpeg?auto=compress&cs=tinysrgb&fit=crop&h=1200&w=800","landscape":"https:\/\/images.pexels.com\/photos\/18150613\/pexels-photo-18150613.jpeg?auto=compress&cs=tinysrgb&fit=crop&h=627&w=1200","tiny":"https:\/\/images.pexels.com\/photos\/18150613\/pexels-photo-18150613.jpeg?auto=compress&cs=tinysrgb&dpr=1&fit=crop&h=200&w=280"},"liked":false,"alt":"Explore a mesmerizing tropical underwater scene featuring colorful fishes and coral reefs."},{"id":28338112,"width":4000,"height":6000,"url":"https:\/\/www.pexels.com\/photo\/fish-28338112\/","photographer":"PEEP THIS PHOTO","photographer_url":"https:\/\/www.pexels.com\/@peep-this-photo-1766934996","photographer_id":1766934996,"avg_color":"#0A394B","src":{"original":"https:\/\/images.pexels.com\/photos\/28338112\/pexels-photo-28338112.jpeg","large2x":"https:\/\/images.pexels.com\/photos\/28338112\/pexels-photo-28338112.jpeg?auto=compress&cs=tinysrgb&dpr=2&h=650&w=940","large":"https:\/\/images.pexels.com\/photos\/28338112\/pexels-photo-28338112.jpeg?auto=compress&cs=tinysrgb&h=650&w=940","medium":"https:\/\/images.pexels.com\/photos\/28338112\/pexels-photo-28338112.jpeg?auto=compress&cs=tinysrgb&h=350","small":"https:\/\/images.pexels.com\/photos\/28338112\/pexels-photo-28338112.jpeg?auto=compress&cs=tinysrgb&h=130","portrait":"https:\/\/images.pexels.com\/photos\/28338112\/pexels-photo-28338112.jpeg?auto=compress&cs=tinysrgb&fit=crop&h=1200&w=800","landscape":"https:\/\/images.pexels.com\/photos\/28338112\/pexels-photo-28338112.jpeg?auto=compress&cs=tinysrgb&fit=crop&h=627&w=1200","tiny":"https:\/\/images.pexels.com\/photos\/28338112\/pexels-photo-28338112.jpeg?auto=compress&cs=tinysrgb&dpr=1&fit=crop&h=200&w=280"},"liked":false,"alt":"Blue marine fish swimming in an aquarium showing beautiful aquatic life."},{"id":30525529,"width":3625,"height":4833,"url":"https:\/\/www.pexels.com\/photo\/elegant-blue-fish-swimming-in-clear-water-30525529\/","photographer":"Smit Prajapati","photographer_url":"https:\/\/www.pexels.com\/@smit-prajapati-130663561","photographer_id":130663561,"avg_color":"#073C5C","src":{"original":"https:\/\/images.pexels.com\/photos\/30525529\/pexels-photo-30525529.jpeg","large2x":"https:\/\/images.pexels.com\/photos\/30525529\/pexels-photo-30525529.jpeg?auto=compress&cs=tinysrgb&dpr=2&h=650&w=940","large":"https:\/\/images.pexels.com\/photos\/30525529\/pexels-photo-30525529.jpeg?auto=compress&cs=tinysrgb&h=650&w=940","medium":"https:\/\/images.pexels.com\/photos\/30525529\/pexels-photo-30525529.jpeg?auto=compress&cs=tinysrgb&h=350","small":"https:\/\/images.pexels.com\/photos\/30525529\/pexels-photo-30525529.jpeg?auto=compress&cs=tinysrgb&h=130","portrait":"https:\/\/images.pexels.com\/photos\/30525529\/pexels-photo-30525529.jpeg?auto=compress&cs=tinysrgb&fit=crop&h=1200&w=800","landscape":"https:\/\/images.pexels.com\/photos\/30525529\/pexels-photo-30525529.jpeg?auto=compress&cs=tinysrgb&fit=crop&h=627&w=1200","tiny":"https:\/\/images.pexels.com\/photos\/30525529\/pexels-photo-30525529.jpeg?auto=compress&cs=tinysrgb&dpr=1&fit=crop&h=200&w=280"},"liked":false,"alt":"Single blue fish elegantly swimming in clear aquarium water, creating a serene underwater view."},{"id":12829694,"width":8192,"height":5464,"url":"https:\/\/www.pexels.com\/photo\/underwater-photography-of-a-swimming-bluefin-12829694\/","photographer":"isaac mijangos","photographer_url":"https:\/\/www.pexels.com\/@isaacmijangos","photographer_id":49565595,"avg_color":"#0A3A44","src":{"original":"https:\/\/images.pexels.com\/photos\/12829694\/pexels-photo-12829694.jpeg","large2x":"https:\/\/images.pexels.com\/photos\/12829694\/pexels-photo-12829694.jpeg?auto=compress&cs=tinysrgb&dpr=2&h=650&w=940","large":"https:\/\/images.pexels.com\/photos\/12829694\/pexels-photo-12829694.jpeg?auto=compress&cs=tinysrgb&h=650&w=940","medium":"https:\/\/images.pexels.com\/photos\/12829694\/pexels-photo-12829694.jpeg?auto=compress&cs=tinysrgb&h=350","small":"https:\/\/images.pexels.com\/photos\/12829694\/pexels-photo-12829694.jpeg?auto=compress&cs=tinysrgb&h=130","portrait":"https:\/\/images.pexels.com\/photos\/12829694\/pexels-photo-12829694.jpeg?auto=compress&cs=tinysrgb&fit=crop&h=1200&w=800","landscape":"https:\/\/images.pexels.com\/photos\/12829694\/pexels-photo-12829694.jpeg?auto=compress&cs=tinysrgb&fit=crop&h=627&w=1200","tiny":"https:\/\/images.pexels.com\/photos\/12829694\/pexels-photo-12829694.jpeg?auto=compress&cs=tinysrgb&dpr=1&fit=crop&h=200&w=280"},"liked":false,"alt":"A bluefin tuna swimming gracefully in the deep sea captured with artistic underwater photography."}],"total_results":8000,"next_page":"https:\/\/api.pexels.com\/v1\/v1\/search?page=2&per_page=15&query=fish+ocean+underwater"}