{"page":1,"per_page":15,"photos":[{"id":4620507,"width":4000,"height":3000,"url":"https:\/\/www.pexels.com\/photo\/green-coral-reef-in-blue-sea-4620507\/","photographer":"Francesco Ungaro","photographer_url":"https:\/\/www.pexels.com\/@francesco-ungaro","photographer_id":21273,"avg_color":"#415050","src":{"original":"https:\/\/images.pexels.com\/photos\/4620507\/pexels-photo-4620507.jpeg","large2x":"https:\/\/images.pexels.com\/photos\/4620507\/pexels-photo-4620507.jpeg?auto=compress&cs=tinysrgb&dpr=2&h=650&w=940","large":"https:\/\/images.pexels.com\/photos\/4620507\/pexels-photo-4620507.jpeg?auto=compress&cs=tinysrgb&h=650&w=940","medium":"https:\/\/images.pexels.com\/photos\/4620507\/pexels-photo-4620507.jpeg?auto=compress&cs=tinysrgb&h=350","small":"https:\/\/images.pexels.com\/photos\/4620507\/pexels-photo-4620507.jpeg?auto=compress&cs=tinysrgb&h=130","portrait":"https:\/\/images.pexels.com\/photos\/4620507\/pexels-photo-4620507.jpeg?auto=compress&cs=tinysrgb&fit=crop&h=1200&w=800","landscape":"https:\/\/images.pexels.com\/photos\/4620507\/pexels-photo-4620507.jpeg?auto=compress&cs=tinysrgb&fit=crop&h=627&w=1200","tiny":"https:\/\/images.pexels.com\/photos\/4620507\/pexels-photo-4620507.jpeg?auto=compress&cs=tinysrgb&dpr=1&fit=crop&h=200&w=280"},"liked":false,"alt":"Stunning underwater view of a vibrant coral reef under sunlight, showcasing marine diversity."},{"id":8395910,"width":4000,"height":3000,"url":"https:\/\/www.pexels.com\/photo\/a-coral-reef-underwater-8395910\/","photographer":"Zir YU","photographer_url":"https:\/\/www.pexels.com\/@zir-yu-70199639","photographer_id":70199639,"avg_color":"#417068","src":{"original":"https:\/\/images.pexels.com\/photos\/8395910\/pexels-photo-8395910.jpeg","large2x":"https:\/\/images.pexels.com\/photos\/8395910\/pexels-photo-8395910.jpeg?auto=compress&cs=tinysrgb&dpr=2&h=650&w=940","large":"https:\/\/images.pexels.com\/photos\/8395910\/pexels-photo-8395910.jpeg?auto=compress&cs=tinysrgb&h=650&w=940","medium":"https:\/\/images.pexels.com\/photos\/8395910\/pexels-photo-8395910.jpeg?auto=compress&cs=tinysrgb&h=350","small":"https:\/\/images.pexels.com\/photos\/8395910\/pexels-photo-8395910.jpeg?auto=compress&cs=tinysrgb&h=130","portrait":"https:\/\/images.pexels.com\/photos\/8395910\/pexels-photo-8395910.jpeg?auto=compress&cs=tinysrgb&fit=crop&h=1200&w=800","landscape":"https:\/\/images.pexels.com\/photos\/8395910\/pexels-photo-8395910.jpeg?auto=compress&cs=tinysrgb&fit=crop&h=627&w=1200","tiny":"https:\/\/images.pexels.com\/photos\/8395910\/pexels-photo-8395910.jpeg?auto=compress&cs=tinysrgb&dpr=1&fit=crop&h=200&w=280"},"liked":false,"alt":"Explore the vibrant marine life of a colorful coral reef in the Philippines' clear ocean waters."},{"id":3487160,"width":4000,"height":3000,"url":"https:\/\/www.pexels.com\/photo\/coral-reef-3487160\/","photographer":"Francesco Ungaro","photographer_url":"https:\/\/www.pexels.com\/@francesco-ungaro","photographer_id":21273,"avg_color":"#1E3744","src":{"original":"https:\/\/images.pexels.com\/photos\/3487160\/pexels-photo-3487160.jpeg","large2x":"https:\/\/images.pexels.com\/photos\/3487160\/pexels-photo-3487160.jpeg?auto=compress&cs=tinysrgb&dpr=2&h=650&w=940","large":"https:\/\/images.pexels.com\/photos\/3487160\/pexels-photo-3487160.jpeg?auto=compress&cs=tinysrgb&h=650&w=940","medium":"https:\/\/images.pexels.com\/photos\/3487160\/pexels-photo-3487160.jpeg?auto=compress&cs=tinysrgb&h=350","small":"https:\/\/images.pexels.com\/photos\/3487160\/pexels-photo-3487160.jpeg?auto=compress&cs=tinysrgb&h=130","portrait":"https:\/\/images.pexels.com\/photos\/3487160\/pexels-photo-3487160.jpeg?auto=compress&cs=tinysrgb&fit=crop&h=1200&w=800","landscape":"https:\/\/images.pexels.com\/photos\/3487160\/pexels-photo-3487160.jpeg?auto=compress&cs=tinysrgb&fit=crop&h=627&w=1200","tiny":"https:\/\/images.pexels.com\/photos\/3487160\/pexels-photo-3487160.jpeg?auto=compress&cs=tinysrgb&dpr=1&fit=crop&h=200&w=280"},"liked":false,"alt":"Explore the vibrant coral reef ecosystem thriving under the ocean's surface."},{"id":20044214,"width":4000,"height":3000,"url":"https:\/\/www.pexels.com\/photo\/colored-coral-reef-underwater-20044214\/","photographer":"Nothing Ahead","photographer_url":"https:\/\/www.pexels.com\/@ian-panelo","photographer_id":219836,"avg_color":"#8A867A","src":{"original":"https:\/\/images.pexels.com\/photos\/20044214\/pexels-photo-20044214.jpeg","large2x":"https:\/\/images.pexels.com\/photos\/20044214\/pexels-photo-20044214.jpeg?auto=compress&cs=tinysrgb&dpr=2&h=650&w=940","large":"https:\/\/images.pexels.com\/photos\/20044214\/pexels-photo-20044214.jpeg?auto=compress&cs=tinysrgb&h=650&w=940","medium":"https:\/\/images.pexels.com\/photos\/20044214\/pexels-photo-20044214.jpeg?auto=compress&cs=tinysrgb&h=350","small":"https:\/\/images.pexels.com\/photos\/20044214\/pexels-photo-20044214.jpeg?auto=compress&cs=tinysrgb&h=130","portrait":"https:\/\/images.pexels.com\/photos\/20044214\/pexels-photo-20044214.jpeg?auto=compress&cs=tinysrgb&fit=crop&h=1200&w=800","landscape":"https:\/\/images.pexels.com\/photos\/20044214\/pexels-photo-20044214.jpeg?auto=compress&cs=tinysrgb&fit=crop&h=627&w=1200","tiny":"https:\/\/images.pexels.com\/photos\/20044214\/pexels-photo-20044214.jpeg?auto=compress&cs=tinysrgb&dpr=1&fit=crop&h=200&w=280"},"liked":false,"alt":"Colorful coral colonies thriving underwater, showcasing marine biodiversity and vivid beauty."},{"id":18282377,"width":3000,"height":4000,"url":"https:\/\/www.pexels.com\/photo\/underwater-coral-reef-photograph-18282377\/","photographer":"Francesco Ungaro","photographer_url":"https:\/\/www.pexels.com\/@francesco-ungaro","photographer_id":21273,"avg_color":"#2A516E","src":{"original":"https:\/\/images.pexels.com\/photos\/18282377\/pexels-photo-18282377.jpeg","large2x":"https:\/\/images.pexels.com\/photos\/18282377\/pexels-photo-18282377.jpeg?auto=compress&cs=tinysrgb&dpr=2&h=650&w=940","large":"https:\/\/images.pexels.com\/photos\/18282377\/pexels-photo-18282377.jpeg?auto=compress&cs=tinysrgb&h=650&w=940","medium":"https:\/\/images.pexels.com\/photos\/18282377\/pexels-photo-18282377.jpeg?auto=compress&cs=tinysrgb&h=350","small":"https:\/\/images.pexels.com\/photos\/18282377\/pexels-photo-18282377.jpeg?auto=compress&cs=tinysrgb&h=130","portrait":"https:\/\/images.pexels.com\/photos\/18282377\/pexels-photo-18282377.jpeg?auto=compress&cs=tinysrgb&fit=crop&h=1200&w=800","landscape":"https:\/\/images.pexels.com\/photos\/18282377\/pexels-photo-18282377.jpeg?auto=compress&cs=tinysrgb&fit=crop&h=627&w=1200","tiny":"https:\/\/images.pexels.com\/photos\/18282377\/pexels-photo-18282377.jpeg?auto=compress&cs=tinysrgb&dpr=1&fit=crop&h=200&w=280"},"liked":false,"alt":"Explore the vibrant variety of coral reefs in this stunning underwater photograph showcasing natural beauty."},{"id":4620441,"width":4000,"height":3000,"url":"https:\/\/www.pexels.com\/photo\/photo-of-marine-life-4620441\/","photographer":"Francesco Ungaro","photographer_url":"https:\/\/www.pexels.com\/@francesco-ungaro","photographer_id":21273,"avg_color":"#404345","src":{"original":"https:\/\/images.pexels.com\/photos\/4620441\/pexels-photo-4620441.jpeg","large2x":"https:\/\/images.pexels.com\/photos\/4620441\/pexels-photo-4620441.jpeg?auto=compress&cs=tinysrgb&dpr=2&h=650&w=940","large":"https:\/\/images.pexels.com\/photos\/4620441\/pexels-photo-4620441.jpeg?auto=compress&cs=tinysrgb&h=650&w=940","medium":"https:\/\/images.pexels.com\/photos\/4620441\/pexels-photo-4620441.jpeg?auto=compress&cs=tinysrgb&h=350","small":"https:\/\/images.pexels.com\/photos\/4620441\/pexels-photo-4620441.jpeg?auto=compress&cs=tinysrgb&h=130","portrait":"https:\/\/images.pexels.com\/photos\/4620441\/pexels-photo-4620441.jpeg?auto=compress&cs=tinysrgb&fit=crop&h=1200&w=800","landscape":"https:\/\/images.pexels.com\/photos\/4620441\/pexels-photo-4620441.jpeg?auto=compress&cs=tinysrgb&fit=crop&h=627&w=1200","tiny":"https:\/\/images.pexels.com\/photos\/4620441\/pexels-photo-4620441.jpeg?auto=compress&cs=tinysrgb&dpr=1&fit=crop&h=200&w=280"},"liked":false,"alt":"Captivating underwater scene of vibrant corals and marine life in a clear ocean setting."},{"id":36255992,"width":4000,"height":2256,"url":"https:\/\/www.pexels.com\/photo\/vibrant-underwater-coral-reef-ecosystem-36255992\/","photographer":"Philippe WEICKMANN","photographer_url":"https:\/\/www.pexels.com\/@weickmann","photographer_id":597344,"avg_color":"#265068","src":{"original":"https:\/\/images.pexels.com\/photos\/36255992\/pexels-photo-36255992.jpeg","large2x":"https:\/\/images.pexels.com\/photos\/36255992\/pexels-photo-36255992.jpeg?auto=compress&cs=tinysrgb&dpr=2&h=650&w=940","large":"https:\/\/images.pexels.com\/photos\/36255992\/pexels-photo-36255992.jpeg?auto=compress&cs=tinysrgb&h=650&w=940","medium":"https:\/\/images.pexels.com\/photos\/36255992\/pexels-photo-36255992.jpeg?auto=compress&cs=tinysrgb&h=350","small":"https:\/\/images.pexels.com\/photos\/36255992\/pexels-photo-36255992.jpeg?auto=compress&cs=tinysrgb&h=130","portrait":"https:\/\/images.pexels.com\/photos\/36255992\/pexels-photo-36255992.jpeg?auto=compress&cs=tinysrgb&fit=crop&h=1200&w=800","landscape":"https:\/\/images.pexels.com\/photos\/36255992\/pexels-photo-36255992.jpeg?auto=compress&cs=tinysrgb&fit=crop&h=627&w=1200","tiny":"https:\/\/images.pexels.com\/photos\/36255992\/pexels-photo-36255992.jpeg?auto=compress&cs=tinysrgb&dpr=1&fit=crop&h=200&w=280"},"liked":false,"alt":"Colorful coral reef ecosystem under clear blue water with diverse marine life."},{"id":17598833,"width":4000,"height":3000,"url":"https:\/\/www.pexels.com\/photo\/fish-swimming-among-colorful-coral-reef-17598833\/","photographer":"Francesco Ungaro","photographer_url":"https:\/\/www.pexels.com\/@francesco-ungaro","photographer_id":21273,"avg_color":"#566C6A","src":{"original":"https:\/\/images.pexels.com\/photos\/17598833\/pexels-photo-17598833.jpeg","large2x":"https:\/\/images.pexels.com\/photos\/17598833\/pexels-photo-17598833.jpeg?auto=compress&cs=tinysrgb&dpr=2&h=650&w=940","large":"https:\/\/images.pexels.com\/photos\/17598833\/pexels-photo-17598833.jpeg?auto=compress&cs=tinysrgb&h=650&w=940","medium":"https:\/\/images.pexels.com\/photos\/17598833\/pexels-photo-17598833.jpeg?auto=compress&cs=tinysrgb&h=350","small":"https:\/\/images.pexels.com\/photos\/17598833\/pexels-photo-17598833.jpeg?auto=compress&cs=tinysrgb&h=130","portrait":"https:\/\/images.pexels.com\/photos\/17598833\/pexels-photo-17598833.jpeg?auto=compress&cs=tinysrgb&fit=crop&h=1200&w=800","landscape":"https:\/\/images.pexels.com\/photos\/17598833\/pexels-photo-17598833.jpeg?auto=compress&cs=tinysrgb&fit=crop&h=627&w=1200","tiny":"https:\/\/images.pexels.com\/photos\/17598833\/pexels-photo-17598833.jpeg?auto=compress&cs=tinysrgb&dpr=1&fit=crop&h=200&w=280"},"liked":false,"alt":"Colorful coral reef with vibrant marine life in an underwater ecosystem."},{"id":13051110,"width":3000,"height":4000,"url":"https:\/\/www.pexels.com\/photo\/corals-in-an-underwater-reef-13051110\/","photographer":"Francesco Ungaro","photographer_url":"https:\/\/www.pexels.com\/@francesco-ungaro","photographer_id":21273,"avg_color":"#DCDCDC","src":{"original":"https:\/\/images.pexels.com\/photos\/13051110\/pexels-photo-13051110.jpeg","large2x":"https:\/\/images.pexels.com\/photos\/13051110\/pexels-photo-13051110.jpeg?auto=compress&cs=tinysrgb&dpr=2&h=650&w=940","large":"https:\/\/images.pexels.com\/photos\/13051110\/pexels-photo-13051110.jpeg?auto=compress&cs=tinysrgb&h=650&w=940","medium":"https:\/\/images.pexels.com\/photos\/13051110\/pexels-photo-13051110.jpeg?auto=compress&cs=tinysrgb&h=350","small":"https:\/\/images.pexels.com\/photos\/13051110\/pexels-photo-13051110.jpeg?auto=compress&cs=tinysrgb&h=130","portrait":"https:\/\/images.pexels.com\/photos\/13051110\/pexels-photo-13051110.jpeg?auto=compress&cs=tinysrgb&fit=crop&h=1200&w=800","landscape":"https:\/\/images.pexels.com\/photos\/13051110\/pexels-photo-13051110.jpeg?auto=compress&cs=tinysrgb&fit=crop&h=627&w=1200","tiny":"https:\/\/images.pexels.com\/photos\/13051110\/pexels-photo-13051110.jpeg?auto=compress&cs=tinysrgb&dpr=1&fit=crop&h=200&w=280"},"liked":false,"alt":"A stunning close-up of colorful corals on a reef underwater."},{"id":4973961,"width":4608,"height":3456,"url":"https:\/\/www.pexels.com\/photo\/coral-reefs-underwater-4973961\/","photographer":"Charlotte Youlten","photographer_url":"https:\/\/www.pexels.com\/@charlotte-youlten-2391790","photographer_id":2391790,"avg_color":"#30454A","src":{"original":"https:\/\/images.pexels.com\/photos\/4973961\/pexels-photo-4973961.jpeg","large2x":"https:\/\/images.pexels.com\/photos\/4973961\/pexels-photo-4973961.jpeg?auto=compress&cs=tinysrgb&dpr=2&h=650&w=940","large":"https:\/\/images.pexels.com\/photos\/4973961\/pexels-photo-4973961.jpeg?auto=compress&cs=tinysrgb&h=650&w=940","medium":"https:\/\/images.pexels.com\/photos\/4973961\/pexels-photo-4973961.jpeg?auto=compress&cs=tinysrgb&h=350","small":"https:\/\/images.pexels.com\/photos\/4973961\/pexels-photo-4973961.jpeg?auto=compress&cs=tinysrgb&h=130","portrait":"https:\/\/images.pexels.com\/photos\/4973961\/pexels-photo-4973961.jpeg?auto=compress&cs=tinysrgb&fit=crop&h=1200&w=800","landscape":"https:\/\/images.pexels.com\/photos\/4973961\/pexels-photo-4973961.jpeg?auto=compress&cs=tinysrgb&fit=crop&h=627&w=1200","tiny":"https:\/\/images.pexels.com\/photos\/4973961\/pexels-photo-4973961.jpeg?auto=compress&cs=tinysrgb&dpr=1&fit=crop&h=200&w=280"},"liked":false,"alt":"Captivating underwater view of a vibrant coral reef in Maldives, showcasing diverse marine life."},{"id":17612643,"width":4000,"height":3000,"url":"https:\/\/www.pexels.com\/photo\/coral-reef-in-ocean-17612643\/","photographer":"Francesco Ungaro","photographer_url":"https:\/\/www.pexels.com\/@francesco-ungaro","photographer_id":21273,"avg_color":"#445859","src":{"original":"https:\/\/images.pexels.com\/photos\/17612643\/pexels-photo-17612643.jpeg","large2x":"https:\/\/images.pexels.com\/photos\/17612643\/pexels-photo-17612643.jpeg?auto=compress&cs=tinysrgb&dpr=2&h=650&w=940","large":"https:\/\/images.pexels.com\/photos\/17612643\/pexels-photo-17612643.jpeg?auto=compress&cs=tinysrgb&h=650&w=940","medium":"https:\/\/images.pexels.com\/photos\/17612643\/pexels-photo-17612643.jpeg?auto=compress&cs=tinysrgb&h=350","small":"https:\/\/images.pexels.com\/photos\/17612643\/pexels-photo-17612643.jpeg?auto=compress&cs=tinysrgb&h=130","portrait":"https:\/\/images.pexels.com\/photos\/17612643\/pexels-photo-17612643.jpeg?auto=compress&cs=tinysrgb&fit=crop&h=1200&w=800","landscape":"https:\/\/images.pexels.com\/photos\/17612643\/pexels-photo-17612643.jpeg?auto=compress&cs=tinysrgb&fit=crop&h=627&w=1200","tiny":"https:\/\/images.pexels.com\/photos\/17612643\/pexels-photo-17612643.jpeg?auto=compress&cs=tinysrgb&dpr=1&fit=crop&h=200&w=280"},"liked":false,"alt":"A colorful coral reef ecosystem thrives beneath the ocean surface, showcasing diverse marine life."},{"id":8395913,"width":4000,"height":3000,"url":"https:\/\/www.pexels.com\/photo\/close-up-shot-of-corals-under-water-8395913\/","photographer":"Zir YU","photographer_url":"https:\/\/www.pexels.com\/@zir-yu-70199639","photographer_id":70199639,"avg_color":"#4B7E6F","src":{"original":"https:\/\/images.pexels.com\/photos\/8395913\/pexels-photo-8395913.jpeg","large2x":"https:\/\/images.pexels.com\/photos\/8395913\/pexels-photo-8395913.jpeg?auto=compress&cs=tinysrgb&dpr=2&h=650&w=940","large":"https:\/\/images.pexels.com\/photos\/8395913\/pexels-photo-8395913.jpeg?auto=compress&cs=tinysrgb&h=650&w=940","medium":"https:\/\/images.pexels.com\/photos\/8395913\/pexels-photo-8395913.jpeg?auto=compress&cs=tinysrgb&h=350","small":"https:\/\/images.pexels.com\/photos\/8395913\/pexels-photo-8395913.jpeg?auto=compress&cs=tinysrgb&h=130","portrait":"https:\/\/images.pexels.com\/photos\/8395913\/pexels-photo-8395913.jpeg?auto=compress&cs=tinysrgb&fit=crop&h=1200&w=800","landscape":"https:\/\/images.pexels.com\/photos\/8395913\/pexels-photo-8395913.jpeg?auto=compress&cs=tinysrgb&fit=crop&h=627&w=1200","tiny":"https:\/\/images.pexels.com\/photos\/8395913\/pexels-photo-8395913.jpeg?auto=compress&cs=tinysrgb&dpr=1&fit=crop&h=200&w=280"},"liked":false,"alt":"Explore the vibrant coral reefs of San Jose, Philippines, showcasing marine biodiversity."},{"id":8444915,"width":4000,"height":3000,"url":"https:\/\/www.pexels.com\/photo\/brown-and-gray-coral-reef-8444915\/","photographer":"Zir YU","photographer_url":"https:\/\/www.pexels.com\/@zir-yu-70199639","photographer_id":70199639,"avg_color":"#41835F","src":{"original":"https:\/\/images.pexels.com\/photos\/8444915\/pexels-photo-8444915.jpeg","large2x":"https:\/\/images.pexels.com\/photos\/8444915\/pexels-photo-8444915.jpeg?auto=compress&cs=tinysrgb&dpr=2&h=650&w=940","large":"https:\/\/images.pexels.com\/photos\/8444915\/pexels-photo-8444915.jpeg?auto=compress&cs=tinysrgb&h=650&w=940","medium":"https:\/\/images.pexels.com\/photos\/8444915\/pexels-photo-8444915.jpeg?auto=compress&cs=tinysrgb&h=350","small":"https:\/\/images.pexels.com\/photos\/8444915\/pexels-photo-8444915.jpeg?auto=compress&cs=tinysrgb&h=130","portrait":"https:\/\/images.pexels.com\/photos\/8444915\/pexels-photo-8444915.jpeg?auto=compress&cs=tinysrgb&fit=crop&h=1200&w=800","landscape":"https:\/\/images.pexels.com\/photos\/8444915\/pexels-photo-8444915.jpeg?auto=compress&cs=tinysrgb&fit=crop&h=627&w=1200","tiny":"https:\/\/images.pexels.com\/photos\/8444915\/pexels-photo-8444915.jpeg?auto=compress&cs=tinysrgb&dpr=1&fit=crop&h=200&w=280"},"liked":false,"alt":"Explore the vibrant coral reef with diverse marine life in a clear underwater scene."},{"id":17952820,"width":3000,"height":4000,"url":"https:\/\/www.pexels.com\/photo\/coral-reef-on-seabed-17952820\/","photographer":"Francesco Ungaro","photographer_url":"https:\/\/www.pexels.com\/@francesco-ungaro","photographer_id":21273,"avg_color":"#305F65","src":{"original":"https:\/\/images.pexels.com\/photos\/17952820\/pexels-photo-17952820.jpeg","large2x":"https:\/\/images.pexels.com\/photos\/17952820\/pexels-photo-17952820.jpeg?auto=compress&cs=tinysrgb&dpr=2&h=650&w=940","large":"https:\/\/images.pexels.com\/photos\/17952820\/pexels-photo-17952820.jpeg?auto=compress&cs=tinysrgb&h=650&w=940","medium":"https:\/\/images.pexels.com\/photos\/17952820\/pexels-photo-17952820.jpeg?auto=compress&cs=tinysrgb&h=350","small":"https:\/\/images.pexels.com\/photos\/17952820\/pexels-photo-17952820.jpeg?auto=compress&cs=tinysrgb&h=130","portrait":"https:\/\/images.pexels.com\/photos\/17952820\/pexels-photo-17952820.jpeg?auto=compress&cs=tinysrgb&fit=crop&h=1200&w=800","landscape":"https:\/\/images.pexels.com\/photos\/17952820\/pexels-photo-17952820.jpeg?auto=compress&cs=tinysrgb&fit=crop&h=627&w=1200","tiny":"https:\/\/images.pexels.com\/photos\/17952820\/pexels-photo-17952820.jpeg?auto=compress&cs=tinysrgb&dpr=1&fit=crop&h=200&w=280"},"liked":false,"alt":"Explore the vivid beauty of a thriving coral reef teeming with marine life beneath crystal-clear ocean waters."},{"id":11646148,"width":4000,"height":3000,"url":"https:\/\/www.pexels.com\/photo\/coral-reef-under-water-11646148\/","photographer":"Francesco Ungaro","photographer_url":"https:\/\/www.pexels.com\/@francesco-ungaro","photographer_id":21273,"avg_color":"#0F6481","src":{"original":"https:\/\/images.pexels.com\/photos\/11646148\/pexels-photo-11646148.jpeg","large2x":"https:\/\/images.pexels.com\/photos\/11646148\/pexels-photo-11646148.jpeg?auto=compress&cs=tinysrgb&dpr=2&h=650&w=940","large":"https:\/\/images.pexels.com\/photos\/11646148\/pexels-photo-11646148.jpeg?auto=compress&cs=tinysrgb&h=650&w=940","medium":"https:\/\/images.pexels.com\/photos\/11646148\/pexels-photo-11646148.jpeg?auto=compress&cs=tinysrgb&h=350","small":"https:\/\/images.pexels.com\/photos\/11646148\/pexels-photo-11646148.jpeg?auto=compress&cs=tinysrgb&h=130","portrait":"https:\/\/images.pexels.com\/photos\/11646148\/pexels-photo-11646148.jpeg?auto=compress&cs=tinysrgb&fit=crop&h=1200&w=800","landscape":"https:\/\/images.pexels.com\/photos\/11646148\/pexels-photo-11646148.jpeg?auto=compress&cs=tinysrgb&fit=crop&h=627&w=1200","tiny":"https:\/\/images.pexels.com\/photos\/11646148\/pexels-photo-11646148.jpeg?auto=compress&cs=tinysrgb&dpr=1&fit=crop&h=200&w=280"},"liked":false,"alt":"Explore the vibrant coral formations beneath the blue waters of the ocean."}],"total_results":5917,"next_page":"https:\/\/api.pexels.com\/v1\/v1\/search?page=2&per_page=15&query=coral+reef+underwater"}