{"page":2,"per_page":15,"photos":[{"id":3220368,"width":5498,"height":4573,"url":"https:\/\/www.pexels.com\/photo\/yellow-and-blue-fish-in-water-3220368\/","photographer":"Egor Kamelev","photographer_url":"https:\/\/www.pexels.com\/@ekamelev","photographer_id":236647,"avg_color":"#354679","src":{"original":"https:\/\/images.pexels.com\/photos\/3220368\/pexels-photo-3220368.jpeg","large2x":"https:\/\/images.pexels.com\/photos\/3220368\/pexels-photo-3220368.jpeg?auto=compress&cs=tinysrgb&dpr=2&h=650&w=940","large":"https:\/\/images.pexels.com\/photos\/3220368\/pexels-photo-3220368.jpeg?auto=compress&cs=tinysrgb&h=650&w=940","medium":"https:\/\/images.pexels.com\/photos\/3220368\/pexels-photo-3220368.jpeg?auto=compress&cs=tinysrgb&h=350","small":"https:\/\/images.pexels.com\/photos\/3220368\/pexels-photo-3220368.jpeg?auto=compress&cs=tinysrgb&h=130","portrait":"https:\/\/images.pexels.com\/photos\/3220368\/pexels-photo-3220368.jpeg?auto=compress&cs=tinysrgb&fit=crop&h=1200&w=800","landscape":"https:\/\/images.pexels.com\/photos\/3220368\/pexels-photo-3220368.jpeg?auto=compress&cs=tinysrgb&fit=crop&h=627&w=1200","tiny":"https:\/\/images.pexels.com\/photos\/3220368\/pexels-photo-3220368.jpeg?auto=compress&cs=tinysrgb&dpr=1&fit=crop&h=200&w=280"},"liked":false,"alt":"Colorful tropical fish swimming among coral reefs underwater."},{"id":11653409,"width":3451,"height":5184,"url":"https:\/\/www.pexels.com\/photo\/purple-corals-underwater-11653409\/","photographer":"ohaps","photographer_url":"https:\/\/www.pexels.com\/@ohaps-194763155","photographer_id":194763155,"avg_color":"#181E2C","src":{"original":"https:\/\/images.pexels.com\/photos\/11653409\/pexels-photo-11653409.jpeg","large2x":"https:\/\/images.pexels.com\/photos\/11653409\/pexels-photo-11653409.jpeg?auto=compress&cs=tinysrgb&dpr=2&h=650&w=940","large":"https:\/\/images.pexels.com\/photos\/11653409\/pexels-photo-11653409.jpeg?auto=compress&cs=tinysrgb&h=650&w=940","medium":"https:\/\/images.pexels.com\/photos\/11653409\/pexels-photo-11653409.jpeg?auto=compress&cs=tinysrgb&h=350","small":"https:\/\/images.pexels.com\/photos\/11653409\/pexels-photo-11653409.jpeg?auto=compress&cs=tinysrgb&h=130","portrait":"https:\/\/images.pexels.com\/photos\/11653409\/pexels-photo-11653409.jpeg?auto=compress&cs=tinysrgb&fit=crop&h=1200&w=800","landscape":"https:\/\/images.pexels.com\/photos\/11653409\/pexels-photo-11653409.jpeg?auto=compress&cs=tinysrgb&fit=crop&h=627&w=1200","tiny":"https:\/\/images.pexels.com\/photos\/11653409\/pexels-photo-11653409.jpeg?auto=compress&cs=tinysrgb&dpr=1&fit=crop&h=200&w=280"},"liked":false,"alt":"A mesmerizing underwater shot highlighting diverse corals and marine life in vibrant colors."},{"id":1821724,"width":4000,"height":3000,"url":"https:\/\/www.pexels.com\/photo\/underwater-photo-of-fishes-1821724\/","photographer":"Orest Sv","photographer_url":"https:\/\/www.pexels.com\/@orestsv","photographer_id":253036,"avg_color":"#147675","src":{"original":"https:\/\/images.pexels.com\/photos\/1821724\/pexels-photo-1821724.jpeg","large2x":"https:\/\/images.pexels.com\/photos\/1821724\/pexels-photo-1821724.jpeg?auto=compress&cs=tinysrgb&dpr=2&h=650&w=940","large":"https:\/\/images.pexels.com\/photos\/1821724\/pexels-photo-1821724.jpeg?auto=compress&cs=tinysrgb&h=650&w=940","medium":"https:\/\/images.pexels.com\/photos\/1821724\/pexels-photo-1821724.jpeg?auto=compress&cs=tinysrgb&h=350","small":"https:\/\/images.pexels.com\/photos\/1821724\/pexels-photo-1821724.jpeg?auto=compress&cs=tinysrgb&h=130","portrait":"https:\/\/images.pexels.com\/photos\/1821724\/pexels-photo-1821724.jpeg?auto=compress&cs=tinysrgb&fit=crop&h=1200&w=800","landscape":"https:\/\/images.pexels.com\/photos\/1821724\/pexels-photo-1821724.jpeg?auto=compress&cs=tinysrgb&fit=crop&h=627&w=1200","tiny":"https:\/\/images.pexels.com\/photos\/1821724\/pexels-photo-1821724.jpeg?auto=compress&cs=tinysrgb&dpr=1&fit=crop&h=200&w=280"},"liked":false,"alt":"School of fish swimming in a vibrant ocean scene under sunlight."},{"id":10106421,"width":4324,"height":2860,"url":"https:\/\/www.pexels.com\/photo\/a-blue-starfish-underwater-10106421\/","photographer":"Magda Ehlers","photographer_url":"https:\/\/www.pexels.com\/@magda-ehlers-pexels","photographer_id":102775,"avg_color":"#506199","src":{"original":"https:\/\/images.pexels.com\/photos\/10106421\/pexels-photo-10106421.jpeg","large2x":"https:\/\/images.pexels.com\/photos\/10106421\/pexels-photo-10106421.jpeg?auto=compress&cs=tinysrgb&dpr=2&h=650&w=940","large":"https:\/\/images.pexels.com\/photos\/10106421\/pexels-photo-10106421.jpeg?auto=compress&cs=tinysrgb&h=650&w=940","medium":"https:\/\/images.pexels.com\/photos\/10106421\/pexels-photo-10106421.jpeg?auto=compress&cs=tinysrgb&h=350","small":"https:\/\/images.pexels.com\/photos\/10106421\/pexels-photo-10106421.jpeg?auto=compress&cs=tinysrgb&h=130","portrait":"https:\/\/images.pexels.com\/photos\/10106421\/pexels-photo-10106421.jpeg?auto=compress&cs=tinysrgb&fit=crop&h=1200&w=800","landscape":"https:\/\/images.pexels.com\/photos\/10106421\/pexels-photo-10106421.jpeg?auto=compress&cs=tinysrgb&fit=crop&h=627&w=1200","tiny":"https:\/\/images.pexels.com\/photos\/10106421\/pexels-photo-10106421.jpeg?auto=compress&cs=tinysrgb&dpr=1&fit=crop&h=200&w=280"},"liked":false,"alt":"Vivid close-up of a starfish in its natural underwater habitat, surrounded by colorful marine life."},{"id":4666750,"width":4240,"height":2832,"url":"https:\/\/www.pexels.com\/photo\/humpback-whale-underwater-4666750\/","photographer":"Elianne Dipp","photographer_url":"https:\/\/www.pexels.com\/@eliannedipp","photographer_id":3076080,"avg_color":"#2C4558","src":{"original":"https:\/\/images.pexels.com\/photos\/4666750\/pexels-photo-4666750.jpeg","large2x":"https:\/\/images.pexels.com\/photos\/4666750\/pexels-photo-4666750.jpeg?auto=compress&cs=tinysrgb&dpr=2&h=650&w=940","large":"https:\/\/images.pexels.com\/photos\/4666750\/pexels-photo-4666750.jpeg?auto=compress&cs=tinysrgb&h=650&w=940","medium":"https:\/\/images.pexels.com\/photos\/4666750\/pexels-photo-4666750.jpeg?auto=compress&cs=tinysrgb&h=350","small":"https:\/\/images.pexels.com\/photos\/4666750\/pexels-photo-4666750.jpeg?auto=compress&cs=tinysrgb&h=130","portrait":"https:\/\/images.pexels.com\/photos\/4666750\/pexels-photo-4666750.jpeg?auto=compress&cs=tinysrgb&fit=crop&h=1200&w=800","landscape":"https:\/\/images.pexels.com\/photos\/4666750\/pexels-photo-4666750.jpeg?auto=compress&cs=tinysrgb&fit=crop&h=627&w=1200","tiny":"https:\/\/images.pexels.com\/photos\/4666750\/pexels-photo-4666750.jpeg?auto=compress&cs=tinysrgb&dpr=1&fit=crop&h=200&w=280"},"liked":false,"alt":"A stunning view of a humpback whale gracefully swimming underwater in the clear blue waters of Tonga."},{"id":9341932,"width":3000,"height":4000,"url":"https:\/\/www.pexels.com\/photo\/underwater-photography-of-marine-animals-9341932\/","photographer":"Leticia  Azevedo","photographer_url":"https:\/\/www.pexels.com\/@leticia-azevedo-95410198","photographer_id":95410198,"avg_color":"#608FA9","src":{"original":"https:\/\/images.pexels.com\/photos\/9341932\/pexels-photo-9341932.jpeg","large2x":"https:\/\/images.pexels.com\/photos\/9341932\/pexels-photo-9341932.jpeg?auto=compress&cs=tinysrgb&dpr=2&h=650&w=940","large":"https:\/\/images.pexels.com\/photos\/9341932\/pexels-photo-9341932.jpeg?auto=compress&cs=tinysrgb&h=650&w=940","medium":"https:\/\/images.pexels.com\/photos\/9341932\/pexels-photo-9341932.jpeg?auto=compress&cs=tinysrgb&h=350","small":"https:\/\/images.pexels.com\/photos\/9341932\/pexels-photo-9341932.jpeg?auto=compress&cs=tinysrgb&h=130","portrait":"https:\/\/images.pexels.com\/photos\/9341932\/pexels-photo-9341932.jpeg?auto=compress&cs=tinysrgb&fit=crop&h=1200&w=800","landscape":"https:\/\/images.pexels.com\/photos\/9341932\/pexels-photo-9341932.jpeg?auto=compress&cs=tinysrgb&fit=crop&h=627&w=1200","tiny":"https:\/\/images.pexels.com\/photos\/9341932\/pexels-photo-9341932.jpeg?auto=compress&cs=tinysrgb&dpr=1&fit=crop&h=200&w=280"},"liked":false,"alt":"A captivating underwater image of a shoal of fish swimming gracefully beneath ocean waves, showcasing marine wildlife."},{"id":27768664,"width":5774,"height":3849,"url":"https:\/\/www.pexels.com\/photo\/a-dolphin-swims-in-the-ocean-under-blue-water-27768664\/","photographer":"Diana \u2728","photographer_url":"https:\/\/www.pexels.com\/@didsss","photographer_id":447505,"avg_color":"#017ABF","src":{"original":"https:\/\/images.pexels.com\/photos\/27768664\/pexels-photo-27768664.jpeg","large2x":"https:\/\/images.pexels.com\/photos\/27768664\/pexels-photo-27768664.jpeg?auto=compress&cs=tinysrgb&dpr=2&h=650&w=940","large":"https:\/\/images.pexels.com\/photos\/27768664\/pexels-photo-27768664.jpeg?auto=compress&cs=tinysrgb&h=650&w=940","medium":"https:\/\/images.pexels.com\/photos\/27768664\/pexels-photo-27768664.jpeg?auto=compress&cs=tinysrgb&h=350","small":"https:\/\/images.pexels.com\/photos\/27768664\/pexels-photo-27768664.jpeg?auto=compress&cs=tinysrgb&h=130","portrait":"https:\/\/images.pexels.com\/photos\/27768664\/pexels-photo-27768664.jpeg?auto=compress&cs=tinysrgb&fit=crop&h=1200&w=800","landscape":"https:\/\/images.pexels.com\/photos\/27768664\/pexels-photo-27768664.jpeg?auto=compress&cs=tinysrgb&fit=crop&h=627&w=1200","tiny":"https:\/\/images.pexels.com\/photos\/27768664\/pexels-photo-27768664.jpeg?auto=compress&cs=tinysrgb&dpr=1&fit=crop&h=200&w=280"},"liked":false,"alt":"Elegant dolphin swimming underwater, captured in a tranquil ocean scene."},{"id":3324590,"width":3000,"height":4000,"url":"https:\/\/www.pexels.com\/photo\/underwater-photography-of-school-of-fish-3324590\/","photographer":"Francesco Ungaro","photographer_url":"https:\/\/www.pexels.com\/@francesco-ungaro","photographer_id":21273,"avg_color":"#144B5A","src":{"original":"https:\/\/images.pexels.com\/photos\/3324590\/pexels-photo-3324590.jpeg","large2x":"https:\/\/images.pexels.com\/photos\/3324590\/pexels-photo-3324590.jpeg?auto=compress&cs=tinysrgb&dpr=2&h=650&w=940","large":"https:\/\/images.pexels.com\/photos\/3324590\/pexels-photo-3324590.jpeg?auto=compress&cs=tinysrgb&h=650&w=940","medium":"https:\/\/images.pexels.com\/photos\/3324590\/pexels-photo-3324590.jpeg?auto=compress&cs=tinysrgb&h=350","small":"https:\/\/images.pexels.com\/photos\/3324590\/pexels-photo-3324590.jpeg?auto=compress&cs=tinysrgb&h=130","portrait":"https:\/\/images.pexels.com\/photos\/3324590\/pexels-photo-3324590.jpeg?auto=compress&cs=tinysrgb&fit=crop&h=1200&w=800","landscape":"https:\/\/images.pexels.com\/photos\/3324590\/pexels-photo-3324590.jpeg?auto=compress&cs=tinysrgb&fit=crop&h=627&w=1200","tiny":"https:\/\/images.pexels.com\/photos\/3324590\/pexels-photo-3324590.jpeg?auto=compress&cs=tinysrgb&dpr=1&fit=crop&h=200&w=280"},"liked":false,"alt":"A vibrant coral reef teeming with colorful fish in a crystal-clear ocean setting."},{"id":34422108,"width":4032,"height":3024,"url":"https:\/\/www.pexels.com\/photo\/vibrant-coral-reef-with-colorful-marine-life-34422108\/","photographer":"Relaxing Journeys","photographer_url":"https:\/\/www.pexels.com\/@relaxing-journeys-500656459","photographer_id":500656459,"avg_color":"#28367F","src":{"original":"https:\/\/images.pexels.com\/photos\/34422108\/pexels-photo-34422108.jpeg","large2x":"https:\/\/images.pexels.com\/photos\/34422108\/pexels-photo-34422108.jpeg?auto=compress&cs=tinysrgb&dpr=2&h=650&w=940","large":"https:\/\/images.pexels.com\/photos\/34422108\/pexels-photo-34422108.jpeg?auto=compress&cs=tinysrgb&h=650&w=940","medium":"https:\/\/images.pexels.com\/photos\/34422108\/pexels-photo-34422108.jpeg?auto=compress&cs=tinysrgb&h=350","small":"https:\/\/images.pexels.com\/photos\/34422108\/pexels-photo-34422108.jpeg?auto=compress&cs=tinysrgb&h=130","portrait":"https:\/\/images.pexels.com\/photos\/34422108\/pexels-photo-34422108.jpeg?auto=compress&cs=tinysrgb&fit=crop&h=1200&w=800","landscape":"https:\/\/images.pexels.com\/photos\/34422108\/pexels-photo-34422108.jpeg?auto=compress&cs=tinysrgb&fit=crop&h=627&w=1200","tiny":"https:\/\/images.pexels.com\/photos\/34422108\/pexels-photo-34422108.jpeg?auto=compress&cs=tinysrgb&dpr=1&fit=crop&h=200&w=280"},"liked":false,"alt":"Underwater scene of vibrant coral reef teeming with diverse marine life in a tranquil setting."},{"id":3205268,"width":3000,"height":4000,"url":"https:\/\/www.pexels.com\/photo\/underwater-photography-of-coral-reefs-3205268\/","photographer":"Francesco Ungaro","photographer_url":"https:\/\/www.pexels.com\/@francesco-ungaro","photographer_id":21273,"avg_color":"#1C515B","src":{"original":"https:\/\/images.pexels.com\/photos\/3205268\/pexels-photo-3205268.jpeg","large2x":"https:\/\/images.pexels.com\/photos\/3205268\/pexels-photo-3205268.jpeg?auto=compress&cs=tinysrgb&dpr=2&h=650&w=940","large":"https:\/\/images.pexels.com\/photos\/3205268\/pexels-photo-3205268.jpeg?auto=compress&cs=tinysrgb&h=650&w=940","medium":"https:\/\/images.pexels.com\/photos\/3205268\/pexels-photo-3205268.jpeg?auto=compress&cs=tinysrgb&h=350","small":"https:\/\/images.pexels.com\/photos\/3205268\/pexels-photo-3205268.jpeg?auto=compress&cs=tinysrgb&h=130","portrait":"https:\/\/images.pexels.com\/photos\/3205268\/pexels-photo-3205268.jpeg?auto=compress&cs=tinysrgb&fit=crop&h=1200&w=800","landscape":"https:\/\/images.pexels.com\/photos\/3205268\/pexels-photo-3205268.jpeg?auto=compress&cs=tinysrgb&fit=crop&h=627&w=1200","tiny":"https:\/\/images.pexels.com\/photos\/3205268\/pexels-photo-3205268.jpeg?auto=compress&cs=tinysrgb&dpr=1&fit=crop&h=200&w=280"},"liked":false,"alt":"Explore the vibrant marine life of a coral reef with colorful fish swimming underwater."},{"id":3390587,"width":3000,"height":4000,"url":"https:\/\/www.pexels.com\/photo\/sea-animals-near-coral-reefs-3390587\/","photographer":"Francesco Ungaro","photographer_url":"https:\/\/www.pexels.com\/@francesco-ungaro","photographer_id":21273,"avg_color":"#15677E","src":{"original":"https:\/\/images.pexels.com\/photos\/3390587\/pexels-photo-3390587.jpeg","large2x":"https:\/\/images.pexels.com\/photos\/3390587\/pexels-photo-3390587.jpeg?auto=compress&cs=tinysrgb&dpr=2&h=650&w=940","large":"https:\/\/images.pexels.com\/photos\/3390587\/pexels-photo-3390587.jpeg?auto=compress&cs=tinysrgb&h=650&w=940","medium":"https:\/\/images.pexels.com\/photos\/3390587\/pexels-photo-3390587.jpeg?auto=compress&cs=tinysrgb&h=350","small":"https:\/\/images.pexels.com\/photos\/3390587\/pexels-photo-3390587.jpeg?auto=compress&cs=tinysrgb&h=130","portrait":"https:\/\/images.pexels.com\/photos\/3390587\/pexels-photo-3390587.jpeg?auto=compress&cs=tinysrgb&fit=crop&h=1200&w=800","landscape":"https:\/\/images.pexels.com\/photos\/3390587\/pexels-photo-3390587.jpeg?auto=compress&cs=tinysrgb&fit=crop&h=627&w=1200","tiny":"https:\/\/images.pexels.com\/photos\/3390587\/pexels-photo-3390587.jpeg?auto=compress&cs=tinysrgb&dpr=1&fit=crop&h=200&w=280"},"liked":false,"alt":"Explore a lively coral reef teeming with vibrantly colored butterflyfish and diverse marine life."},{"id":37014491,"width":5760,"height":3840,"url":"https:\/\/www.pexels.com\/photo\/colorful-spotted-sea-cucumber-in-vibrant-coral-reef-37014491\/","photographer":"Jeffry Surianto","photographer_url":"https:\/\/www.pexels.com\/@andromeda99","photographer_id":3009141,"avg_color":"#5B503C","src":{"original":"https:\/\/images.pexels.com\/photos\/37014491\/pexels-photo-37014491.jpeg","large2x":"https:\/\/images.pexels.com\/photos\/37014491\/pexels-photo-37014491.jpeg?auto=compress&cs=tinysrgb&dpr=2&h=650&w=940","large":"https:\/\/images.pexels.com\/photos\/37014491\/pexels-photo-37014491.jpeg?auto=compress&cs=tinysrgb&h=650&w=940","medium":"https:\/\/images.pexels.com\/photos\/37014491\/pexels-photo-37014491.jpeg?auto=compress&cs=tinysrgb&h=350","small":"https:\/\/images.pexels.com\/photos\/37014491\/pexels-photo-37014491.jpeg?auto=compress&cs=tinysrgb&h=130","portrait":"https:\/\/images.pexels.com\/photos\/37014491\/pexels-photo-37014491.jpeg?auto=compress&cs=tinysrgb&fit=crop&h=1200&w=800","landscape":"https:\/\/images.pexels.com\/photos\/37014491\/pexels-photo-37014491.jpeg?auto=compress&cs=tinysrgb&fit=crop&h=627&w=1200","tiny":"https:\/\/images.pexels.com\/photos\/37014491\/pexels-photo-37014491.jpeg?auto=compress&cs=tinysrgb&dpr=1&fit=crop&h=200&w=280"},"liked":false,"alt":"A vibrant marine scene featuring a colorful spotted sea cucumber amidst diverse coral formations."},{"id":27874658,"width":3265,"height":4898,"url":"https:\/\/www.pexels.com\/photo\/a-sea-anemone-on-a-coral-reef-27874658\/","photographer":"Erdal Erdal","photographer_url":"https:\/\/www.pexels.com\/@erdal-erdal-413074041","photographer_id":413074041,"avg_color":"#282F77","src":{"original":"https:\/\/images.pexels.com\/photos\/27874658\/pexels-photo-27874658.jpeg","large2x":"https:\/\/images.pexels.com\/photos\/27874658\/pexels-photo-27874658.jpeg?auto=compress&cs=tinysrgb&dpr=2&h=650&w=940","large":"https:\/\/images.pexels.com\/photos\/27874658\/pexels-photo-27874658.jpeg?auto=compress&cs=tinysrgb&h=650&w=940","medium":"https:\/\/images.pexels.com\/photos\/27874658\/pexels-photo-27874658.jpeg?auto=compress&cs=tinysrgb&h=350","small":"https:\/\/images.pexels.com\/photos\/27874658\/pexels-photo-27874658.jpeg?auto=compress&cs=tinysrgb&h=130","portrait":"https:\/\/images.pexels.com\/photos\/27874658\/pexels-photo-27874658.jpeg?auto=compress&cs=tinysrgb&fit=crop&h=1200&w=800","landscape":"https:\/\/images.pexels.com\/photos\/27874658\/pexels-photo-27874658.jpeg?auto=compress&cs=tinysrgb&fit=crop&h=627&w=1200","tiny":"https:\/\/images.pexels.com\/photos\/27874658\/pexels-photo-27874658.jpeg?auto=compress&cs=tinysrgb&dpr=1&fit=crop&h=200&w=280"},"liked":false,"alt":"Close-up of a colorful coral reef with anemone in an aquarium setting, showcasing underwater beauty."},{"id":3723505,"width":3000,"height":4000,"url":"https:\/\/www.pexels.com\/photo\/school-of-fish-near-coral-reefs-3723505\/","photographer":"Francesco Ungaro","photographer_url":"https:\/\/www.pexels.com\/@francesco-ungaro","photographer_id":21273,"avg_color":"#084C65","src":{"original":"https:\/\/images.pexels.com\/photos\/3723505\/pexels-photo-3723505.jpeg","large2x":"https:\/\/images.pexels.com\/photos\/3723505\/pexels-photo-3723505.jpeg?auto=compress&cs=tinysrgb&dpr=2&h=650&w=940","large":"https:\/\/images.pexels.com\/photos\/3723505\/pexels-photo-3723505.jpeg?auto=compress&cs=tinysrgb&h=650&w=940","medium":"https:\/\/images.pexels.com\/photos\/3723505\/pexels-photo-3723505.jpeg?auto=compress&cs=tinysrgb&h=350","small":"https:\/\/images.pexels.com\/photos\/3723505\/pexels-photo-3723505.jpeg?auto=compress&cs=tinysrgb&h=130","portrait":"https:\/\/images.pexels.com\/photos\/3723505\/pexels-photo-3723505.jpeg?auto=compress&cs=tinysrgb&fit=crop&h=1200&w=800","landscape":"https:\/\/images.pexels.com\/photos\/3723505\/pexels-photo-3723505.jpeg?auto=compress&cs=tinysrgb&fit=crop&h=627&w=1200","tiny":"https:\/\/images.pexels.com\/photos\/3723505\/pexels-photo-3723505.jpeg?auto=compress&cs=tinysrgb&dpr=1&fit=crop&h=200&w=280"},"liked":false,"alt":"Explore a lively coral reef underwater scene filled with colorful fish and diverse marine life."},{"id":10017673,"width":3820,"height":2865,"url":"https:\/\/www.pexels.com\/photo\/starfish-moving-underwater-10017673\/","photographer":"Yulia Ilina","photographer_url":"https:\/\/www.pexels.com\/@yuuilina","photographer_id":82666402,"avg_color":"#404473","src":{"original":"https:\/\/images.pexels.com\/photos\/10017673\/pexels-photo-10017673.jpeg","large2x":"https:\/\/images.pexels.com\/photos\/10017673\/pexels-photo-10017673.jpeg?auto=compress&cs=tinysrgb&dpr=2&h=650&w=940","large":"https:\/\/images.pexels.com\/photos\/10017673\/pexels-photo-10017673.jpeg?auto=compress&cs=tinysrgb&h=650&w=940","medium":"https:\/\/images.pexels.com\/photos\/10017673\/pexels-photo-10017673.jpeg?auto=compress&cs=tinysrgb&h=350","small":"https:\/\/images.pexels.com\/photos\/10017673\/pexels-photo-10017673.jpeg?auto=compress&cs=tinysrgb&h=130","portrait":"https:\/\/images.pexels.com\/photos\/10017673\/pexels-photo-10017673.jpeg?auto=compress&cs=tinysrgb&fit=crop&h=1200&w=800","landscape":"https:\/\/images.pexels.com\/photos\/10017673\/pexels-photo-10017673.jpeg?auto=compress&cs=tinysrgb&fit=crop&h=627&w=1200","tiny":"https:\/\/images.pexels.com\/photos\/10017673\/pexels-photo-10017673.jpeg?auto=compress&cs=tinysrgb&dpr=1&fit=crop&h=200&w=280"},"liked":false,"alt":"Vivid starfish and coral in an aquarium showcase underwater beauty."}],"total_results":8000,"next_page":"https:\/\/api.pexels.com\/v1\/v1\/search?page=3&per_page=15&query=ocean+life+marine","prev_page":"https:\/\/api.pexels.com\/v1\/v1\/search?page=1&per_page=15&query=ocean+life+marine"}