{"page":1,"per_page":15,"photos":[{"id":7774033,"width":2160,"height":3840,"url":"https:\/\/www.pexels.com\/photo\/a-person-playing-a-video-game-7774033\/","photographer":"Artem Podrez","photographer_url":"https:\/\/www.pexels.com\/@artempodrez","photographer_id":2951544,"avg_color":"#88150D","src":{"original":"https:\/\/images.pexels.com\/photos\/7774033\/pexels-photo-7774033.jpeg","large2x":"https:\/\/images.pexels.com\/photos\/7774033\/pexels-photo-7774033.jpeg?auto=compress&cs=tinysrgb&dpr=2&h=650&w=940","large":"https:\/\/images.pexels.com\/photos\/7774033\/pexels-photo-7774033.jpeg?auto=compress&cs=tinysrgb&h=650&w=940","medium":"https:\/\/images.pexels.com\/photos\/7774033\/pexels-photo-7774033.jpeg?auto=compress&cs=tinysrgb&h=350","small":"https:\/\/images.pexels.com\/photos\/7774033\/pexels-photo-7774033.jpeg?auto=compress&cs=tinysrgb&h=130","portrait":"https:\/\/images.pexels.com\/photos\/7774033\/pexels-photo-7774033.jpeg?auto=compress&cs=tinysrgb&fit=crop&h=1200&w=800","landscape":"https:\/\/images.pexels.com\/photos\/7774033\/pexels-photo-7774033.jpeg?auto=compress&cs=tinysrgb&fit=crop&h=627&w=1200","tiny":"https:\/\/images.pexels.com\/photos\/7774033\/pexels-photo-7774033.jpeg?auto=compress&cs=tinysrgb&dpr=1&fit=crop&h=200&w=280"},"liked":false,"alt":"Hands holding a game controller, bathed in orange light, creating a vibrant gaming atmosphere."},{"id":7773806,"width":2160,"height":3840,"url":"https:\/\/www.pexels.com\/photo\/a-person-wearing-a-purple-shirt-playing-a-video-game-7773806\/","photographer":"Artem Podrez","photographer_url":"https:\/\/www.pexels.com\/@artempodrez","photographer_id":2951544,"avg_color":"#9D7891","src":{"original":"https:\/\/images.pexels.com\/photos\/7773806\/pexels-photo-7773806.jpeg","large2x":"https:\/\/images.pexels.com\/photos\/7773806\/pexels-photo-7773806.jpeg?auto=compress&cs=tinysrgb&dpr=2&h=650&w=940","large":"https:\/\/images.pexels.com\/photos\/7773806\/pexels-photo-7773806.jpeg?auto=compress&cs=tinysrgb&h=650&w=940","medium":"https:\/\/images.pexels.com\/photos\/7773806\/pexels-photo-7773806.jpeg?auto=compress&cs=tinysrgb&h=350","small":"https:\/\/images.pexels.com\/photos\/7773806\/pexels-photo-7773806.jpeg?auto=compress&cs=tinysrgb&h=130","portrait":"https:\/\/images.pexels.com\/photos\/7773806\/pexels-photo-7773806.jpeg?auto=compress&cs=tinysrgb&fit=crop&h=1200&w=800","landscape":"https:\/\/images.pexels.com\/photos\/7773806\/pexels-photo-7773806.jpeg?auto=compress&cs=tinysrgb&fit=crop&h=627&w=1200","tiny":"https:\/\/images.pexels.com\/photos\/7773806\/pexels-photo-7773806.jpeg?auto=compress&cs=tinysrgb&dpr=1&fit=crop&h=200&w=280"},"liked":false,"alt":"Close-up of hands holding a wireless game controller, perfect for gaming themes."},{"id":7773817,"width":2160,"height":3840,"url":"https:\/\/www.pexels.com\/photo\/person-holding-wireless-controller-7773817\/","photographer":"Artem Podrez","photographer_url":"https:\/\/www.pexels.com\/@artempodrez","photographer_id":2951544,"avg_color":"#DBA195","src":{"original":"https:\/\/images.pexels.com\/photos\/7773817\/pexels-photo-7773817.jpeg","large2x":"https:\/\/images.pexels.com\/photos\/7773817\/pexels-photo-7773817.jpeg?auto=compress&cs=tinysrgb&dpr=2&h=650&w=940","large":"https:\/\/images.pexels.com\/photos\/7773817\/pexels-photo-7773817.jpeg?auto=compress&cs=tinysrgb&h=650&w=940","medium":"https:\/\/images.pexels.com\/photos\/7773817\/pexels-photo-7773817.jpeg?auto=compress&cs=tinysrgb&h=350","small":"https:\/\/images.pexels.com\/photos\/7773817\/pexels-photo-7773817.jpeg?auto=compress&cs=tinysrgb&h=130","portrait":"https:\/\/images.pexels.com\/photos\/7773817\/pexels-photo-7773817.jpeg?auto=compress&cs=tinysrgb&fit=crop&h=1200&w=800","landscape":"https:\/\/images.pexels.com\/photos\/7773817\/pexels-photo-7773817.jpeg?auto=compress&cs=tinysrgb&fit=crop&h=627&w=1200","tiny":"https:\/\/images.pexels.com\/photos\/7773817\/pexels-photo-7773817.jpeg?auto=compress&cs=tinysrgb&dpr=1&fit=crop&h=200&w=280"},"liked":false,"alt":"Person holding a wireless game controller with a pink background, showcasing gaming technology."},{"id":7862478,"width":3211,"height":4816,"url":"https:\/\/www.pexels.com\/photo\/person-holding-a-game-controller-7862478\/","photographer":"Alena Darmel","photographer_url":"https:\/\/www.pexels.com\/@a-darmel","photographer_id":21948611,"avg_color":"#373E6C","src":{"original":"https:\/\/images.pexels.com\/photos\/7862478\/pexels-photo-7862478.jpeg","large2x":"https:\/\/images.pexels.com\/photos\/7862478\/pexels-photo-7862478.jpeg?auto=compress&cs=tinysrgb&dpr=2&h=650&w=940","large":"https:\/\/images.pexels.com\/photos\/7862478\/pexels-photo-7862478.jpeg?auto=compress&cs=tinysrgb&h=650&w=940","medium":"https:\/\/images.pexels.com\/photos\/7862478\/pexels-photo-7862478.jpeg?auto=compress&cs=tinysrgb&h=350","small":"https:\/\/images.pexels.com\/photos\/7862478\/pexels-photo-7862478.jpeg?auto=compress&cs=tinysrgb&h=130","portrait":"https:\/\/images.pexels.com\/photos\/7862478\/pexels-photo-7862478.jpeg?auto=compress&cs=tinysrgb&fit=crop&h=1200&w=800","landscape":"https:\/\/images.pexels.com\/photos\/7862478\/pexels-photo-7862478.jpeg?auto=compress&cs=tinysrgb&fit=crop&h=627&w=1200","tiny":"https:\/\/images.pexels.com\/photos\/7862478\/pexels-photo-7862478.jpeg?auto=compress&cs=tinysrgb&dpr=1&fit=crop&h=200&w=280"},"liked":false,"alt":"Adult playing video games with a controller, showcasing modern gaming lifestyle."},{"id":7862385,"width":3247,"height":4870,"url":"https:\/\/www.pexels.com\/photo\/shallow-focus-of-a-person-holding-a-game-controller-7862385\/","photographer":"Alena Darmel","photographer_url":"https:\/\/www.pexels.com\/@a-darmel","photographer_id":21948611,"avg_color":"#554335","src":{"original":"https:\/\/images.pexels.com\/photos\/7862385\/pexels-photo-7862385.jpeg","large2x":"https:\/\/images.pexels.com\/photos\/7862385\/pexels-photo-7862385.jpeg?auto=compress&cs=tinysrgb&dpr=2&h=650&w=940","large":"https:\/\/images.pexels.com\/photos\/7862385\/pexels-photo-7862385.jpeg?auto=compress&cs=tinysrgb&h=650&w=940","medium":"https:\/\/images.pexels.com\/photos\/7862385\/pexels-photo-7862385.jpeg?auto=compress&cs=tinysrgb&h=350","small":"https:\/\/images.pexels.com\/photos\/7862385\/pexels-photo-7862385.jpeg?auto=compress&cs=tinysrgb&h=130","portrait":"https:\/\/images.pexels.com\/photos\/7862385\/pexels-photo-7862385.jpeg?auto=compress&cs=tinysrgb&fit=crop&h=1200&w=800","landscape":"https:\/\/images.pexels.com\/photos\/7862385\/pexels-photo-7862385.jpeg?auto=compress&cs=tinysrgb&fit=crop&h=627&w=1200","tiny":"https:\/\/images.pexels.com\/photos\/7862385\/pexels-photo-7862385.jpeg?auto=compress&cs=tinysrgb&dpr=1&fit=crop&h=200&w=280"},"liked":false,"alt":"A gamer holds a video game controller in a warmly lit, cozy setting with a friend nearby."},{"id":12672180,"width":3376,"height":6000,"url":"https:\/\/www.pexels.com\/photo\/nintendo-game-controllers-on-wooden-surface-12672180\/","photographer":"Nathan J Hilton","photographer_url":"https:\/\/www.pexels.com\/@nathanjhilton","photographer_id":2416310,"avg_color":"#2B201C","src":{"original":"https:\/\/images.pexels.com\/photos\/12672180\/pexels-photo-12672180.jpeg","large2x":"https:\/\/images.pexels.com\/photos\/12672180\/pexels-photo-12672180.jpeg?auto=compress&cs=tinysrgb&dpr=2&h=650&w=940","large":"https:\/\/images.pexels.com\/photos\/12672180\/pexels-photo-12672180.jpeg?auto=compress&cs=tinysrgb&h=650&w=940","medium":"https:\/\/images.pexels.com\/photos\/12672180\/pexels-photo-12672180.jpeg?auto=compress&cs=tinysrgb&h=350","small":"https:\/\/images.pexels.com\/photos\/12672180\/pexels-photo-12672180.jpeg?auto=compress&cs=tinysrgb&h=130","portrait":"https:\/\/images.pexels.com\/photos\/12672180\/pexels-photo-12672180.jpeg?auto=compress&cs=tinysrgb&fit=crop&h=1200&w=800","landscape":"https:\/\/images.pexels.com\/photos\/12672180\/pexels-photo-12672180.jpeg?auto=compress&cs=tinysrgb&fit=crop&h=627&w=1200","tiny":"https:\/\/images.pexels.com\/photos\/12672180\/pexels-photo-12672180.jpeg?auto=compress&cs=tinysrgb&dpr=1&fit=crop&h=200&w=280"},"liked":false,"alt":"Close-up of vintage Super Nintendo game controllers on a dark surface."},{"id":6557541,"width":4160,"height":6240,"url":"https:\/\/www.pexels.com\/photo\/close-up-shot-of-a-person-holding-a-game-controller-6557541\/","photographer":"cottonbro studio","photographer_url":"https:\/\/www.pexels.com\/@cottonbro","photographer_id":1437723,"avg_color":"#383234","src":{"original":"https:\/\/images.pexels.com\/photos\/6557541\/pexels-photo-6557541.jpeg","large2x":"https:\/\/images.pexels.com\/photos\/6557541\/pexels-photo-6557541.jpeg?auto=compress&cs=tinysrgb&dpr=2&h=650&w=940","large":"https:\/\/images.pexels.com\/photos\/6557541\/pexels-photo-6557541.jpeg?auto=compress&cs=tinysrgb&h=650&w=940","medium":"https:\/\/images.pexels.com\/photos\/6557541\/pexels-photo-6557541.jpeg?auto=compress&cs=tinysrgb&h=350","small":"https:\/\/images.pexels.com\/photos\/6557541\/pexels-photo-6557541.jpeg?auto=compress&cs=tinysrgb&h=130","portrait":"https:\/\/images.pexels.com\/photos\/6557541\/pexels-photo-6557541.jpeg?auto=compress&cs=tinysrgb&fit=crop&h=1200&w=800","landscape":"https:\/\/images.pexels.com\/photos\/6557541\/pexels-photo-6557541.jpeg?auto=compress&cs=tinysrgb&fit=crop&h=627&w=1200","tiny":"https:\/\/images.pexels.com\/photos\/6557541\/pexels-photo-6557541.jpeg?auto=compress&cs=tinysrgb&dpr=1&fit=crop&h=200&w=280"},"liked":false,"alt":"Hands holding a game controller, focusing on gaming experience with shallow focus."},{"id":7855652,"width":4480,"height":6720,"url":"https:\/\/www.pexels.com\/photo\/person-holding-a-black-game-controller-7855652\/","photographer":"Ron Lach","photographer_url":"https:\/\/www.pexels.com\/@ron-lach","photographer_id":22992178,"avg_color":"#7A6554","src":{"original":"https:\/\/images.pexels.com\/photos\/7855652\/pexels-photo-7855652.jpeg","large2x":"https:\/\/images.pexels.com\/photos\/7855652\/pexels-photo-7855652.jpeg?auto=compress&cs=tinysrgb&dpr=2&h=650&w=940","large":"https:\/\/images.pexels.com\/photos\/7855652\/pexels-photo-7855652.jpeg?auto=compress&cs=tinysrgb&h=650&w=940","medium":"https:\/\/images.pexels.com\/photos\/7855652\/pexels-photo-7855652.jpeg?auto=compress&cs=tinysrgb&h=350","small":"https:\/\/images.pexels.com\/photos\/7855652\/pexels-photo-7855652.jpeg?auto=compress&cs=tinysrgb&h=130","portrait":"https:\/\/images.pexels.com\/photos\/7855652\/pexels-photo-7855652.jpeg?auto=compress&cs=tinysrgb&fit=crop&h=1200&w=800","landscape":"https:\/\/images.pexels.com\/photos\/7855652\/pexels-photo-7855652.jpeg?auto=compress&cs=tinysrgb&fit=crop&h=627&w=1200","tiny":"https:\/\/images.pexels.com\/photos\/7855652\/pexels-photo-7855652.jpeg?auto=compress&cs=tinysrgb&dpr=1&fit=crop&h=200&w=280"},"liked":false,"alt":"Detailed view of hands gripping a gaming controller, emphasizing interactive technology."},{"id":7047326,"width":2941,"height":4411,"url":"https:\/\/www.pexels.com\/photo\/black-flat-screen-tv-turned-on-displaying-game-7047326\/","photographer":"Tima Miroshnichenko","photographer_url":"https:\/\/www.pexels.com\/@tima-miroshnichenko","photographer_id":3088726,"avg_color":"#616C76","src":{"original":"https:\/\/images.pexels.com\/photos\/7047326\/pexels-photo-7047326.jpeg","large2x":"https:\/\/images.pexels.com\/photos\/7047326\/pexels-photo-7047326.jpeg?auto=compress&cs=tinysrgb&dpr=2&h=650&w=940","large":"https:\/\/images.pexels.com\/photos\/7047326\/pexels-photo-7047326.jpeg?auto=compress&cs=tinysrgb&h=650&w=940","medium":"https:\/\/images.pexels.com\/photos\/7047326\/pexels-photo-7047326.jpeg?auto=compress&cs=tinysrgb&h=350","small":"https:\/\/images.pexels.com\/photos\/7047326\/pexels-photo-7047326.jpeg?auto=compress&cs=tinysrgb&h=130","portrait":"https:\/\/images.pexels.com\/photos\/7047326\/pexels-photo-7047326.jpeg?auto=compress&cs=tinysrgb&fit=crop&h=1200&w=800","landscape":"https:\/\/images.pexels.com\/photos\/7047326\/pexels-photo-7047326.jpeg?auto=compress&cs=tinysrgb&fit=crop&h=627&w=1200","tiny":"https:\/\/images.pexels.com\/photos\/7047326\/pexels-photo-7047326.jpeg?auto=compress&cs=tinysrgb&dpr=1&fit=crop&h=200&w=280"},"liked":false,"alt":"Focused teen playing a video game with controller at home, wearing headphones."},{"id":9069300,"width":4000,"height":6000,"url":"https:\/\/www.pexels.com\/photo\/selective-focus-photo-of-a-person-s-hands-using-a-black-game-controller-9069300\/","photographer":"Yan Krukau","photographer_url":"https:\/\/www.pexels.com\/@yankrukov","photographer_id":2905570,"avg_color":"#7F7E83","src":{"original":"https:\/\/images.pexels.com\/photos\/9069300\/pexels-photo-9069300.jpeg","large2x":"https:\/\/images.pexels.com\/photos\/9069300\/pexels-photo-9069300.jpeg?auto=compress&cs=tinysrgb&dpr=2&h=650&w=940","large":"https:\/\/images.pexels.com\/photos\/9069300\/pexels-photo-9069300.jpeg?auto=compress&cs=tinysrgb&h=650&w=940","medium":"https:\/\/images.pexels.com\/photos\/9069300\/pexels-photo-9069300.jpeg?auto=compress&cs=tinysrgb&h=350","small":"https:\/\/images.pexels.com\/photos\/9069300\/pexels-photo-9069300.jpeg?auto=compress&cs=tinysrgb&h=130","portrait":"https:\/\/images.pexels.com\/photos\/9069300\/pexels-photo-9069300.jpeg?auto=compress&cs=tinysrgb&fit=crop&h=1200&w=800","landscape":"https:\/\/images.pexels.com\/photos\/9069300\/pexels-photo-9069300.jpeg?auto=compress&cs=tinysrgb&fit=crop&h=627&w=1200","tiny":"https:\/\/images.pexels.com\/photos\/9069300\/pexels-photo-9069300.jpeg?auto=compress&cs=tinysrgb&dpr=1&fit=crop&h=200&w=280"},"liked":false,"alt":"Close-up of hands holding a game controller while immersed in gaming on a large TV screen."},{"id":9725479,"width":3486,"height":4358,"url":"https:\/\/www.pexels.com\/photo\/boy-holding-a-gamepad-while-playing-a-video-game-9725479\/","photographer":"\u0410\u043b\u0435\u043a\u0441\u0435\u0439 \u0412\u0435\u0447\u0435\u0440\u0438\u043d","photographer_url":"https:\/\/www.pexels.com\/@107014568","photographer_id":107014568,"avg_color":"#817C78","src":{"original":"https:\/\/images.pexels.com\/photos\/9725479\/pexels-photo-9725479.jpeg","large2x":"https:\/\/images.pexels.com\/photos\/9725479\/pexels-photo-9725479.jpeg?auto=compress&cs=tinysrgb&dpr=2&h=650&w=940","large":"https:\/\/images.pexels.com\/photos\/9725479\/pexels-photo-9725479.jpeg?auto=compress&cs=tinysrgb&h=650&w=940","medium":"https:\/\/images.pexels.com\/photos\/9725479\/pexels-photo-9725479.jpeg?auto=compress&cs=tinysrgb&h=350","small":"https:\/\/images.pexels.com\/photos\/9725479\/pexels-photo-9725479.jpeg?auto=compress&cs=tinysrgb&h=130","portrait":"https:\/\/images.pexels.com\/photos\/9725479\/pexels-photo-9725479.jpeg?auto=compress&cs=tinysrgb&fit=crop&h=1200&w=800","landscape":"https:\/\/images.pexels.com\/photos\/9725479\/pexels-photo-9725479.jpeg?auto=compress&cs=tinysrgb&fit=crop&h=627&w=1200","tiny":"https:\/\/images.pexels.com\/photos\/9725479\/pexels-photo-9725479.jpeg?auto=compress&cs=tinysrgb&dpr=1&fit=crop&h=200&w=280"},"liked":false,"alt":"Young boy relaxing with a gamepad playing video games on a comfortable indoor setup."},{"id":9069313,"width":4000,"height":6000,"url":"https:\/\/www.pexels.com\/photo\/two-men-playing-a-video-game-9069313\/","photographer":"Yan Krukau","photographer_url":"https:\/\/www.pexels.com\/@yankrukov","photographer_id":2905570,"avg_color":"#5C5D5F","src":{"original":"https:\/\/images.pexels.com\/photos\/9069313\/pexels-photo-9069313.jpeg","large2x":"https:\/\/images.pexels.com\/photos\/9069313\/pexels-photo-9069313.jpeg?auto=compress&cs=tinysrgb&dpr=2&h=650&w=940","large":"https:\/\/images.pexels.com\/photos\/9069313\/pexels-photo-9069313.jpeg?auto=compress&cs=tinysrgb&h=650&w=940","medium":"https:\/\/images.pexels.com\/photos\/9069313\/pexels-photo-9069313.jpeg?auto=compress&cs=tinysrgb&h=350","small":"https:\/\/images.pexels.com\/photos\/9069313\/pexels-photo-9069313.jpeg?auto=compress&cs=tinysrgb&h=130","portrait":"https:\/\/images.pexels.com\/photos\/9069313\/pexels-photo-9069313.jpeg?auto=compress&cs=tinysrgb&fit=crop&h=1200&w=800","landscape":"https:\/\/images.pexels.com\/photos\/9069313\/pexels-photo-9069313.jpeg?auto=compress&cs=tinysrgb&fit=crop&h=627&w=1200","tiny":"https:\/\/images.pexels.com\/photos\/9069313\/pexels-photo-9069313.jpeg?auto=compress&cs=tinysrgb&dpr=1&fit=crop&h=200&w=280"},"liked":false,"alt":"Two men playing video games together at home, enjoying a leisure activity."},{"id":12660511,"width":3280,"height":5176,"url":"https:\/\/www.pexels.com\/photo\/a-person-holding-a-game-controller-12660511\/","photographer":"Sai Krishna","photographer_url":"https:\/\/www.pexels.com\/@sai-krishna-179319646","photographer_id":179319646,"avg_color":"#4D029B","src":{"original":"https:\/\/images.pexels.com\/photos\/12660511\/pexels-photo-12660511.jpeg","large2x":"https:\/\/images.pexels.com\/photos\/12660511\/pexels-photo-12660511.jpeg?auto=compress&cs=tinysrgb&dpr=2&h=650&w=940","large":"https:\/\/images.pexels.com\/photos\/12660511\/pexels-photo-12660511.jpeg?auto=compress&cs=tinysrgb&h=650&w=940","medium":"https:\/\/images.pexels.com\/photos\/12660511\/pexels-photo-12660511.jpeg?auto=compress&cs=tinysrgb&h=350","small":"https:\/\/images.pexels.com\/photos\/12660511\/pexels-photo-12660511.jpeg?auto=compress&cs=tinysrgb&h=130","portrait":"https:\/\/images.pexels.com\/photos\/12660511\/pexels-photo-12660511.jpeg?auto=compress&cs=tinysrgb&fit=crop&h=1200&w=800","landscape":"https:\/\/images.pexels.com\/photos\/12660511\/pexels-photo-12660511.jpeg?auto=compress&cs=tinysrgb&fit=crop&h=627&w=1200","tiny":"https:\/\/images.pexels.com\/photos\/12660511\/pexels-photo-12660511.jpeg?auto=compress&cs=tinysrgb&dpr=1&fit=crop&h=200&w=280"},"liked":false,"alt":"Hands holding a wireless game controller under neon lights, creating a vibrant gaming vibe."},{"id":7773803,"width":2160,"height":3840,"url":"https:\/\/www.pexels.com\/photo\/a-person-holding-a-wireless-game-controller-7773803\/","photographer":"Artem Podrez","photographer_url":"https:\/\/www.pexels.com\/@artempodrez","photographer_id":2951544,"avg_color":"#C6A46F","src":{"original":"https:\/\/images.pexels.com\/photos\/7773803\/pexels-photo-7773803.jpeg","large2x":"https:\/\/images.pexels.com\/photos\/7773803\/pexels-photo-7773803.jpeg?auto=compress&cs=tinysrgb&dpr=2&h=650&w=940","large":"https:\/\/images.pexels.com\/photos\/7773803\/pexels-photo-7773803.jpeg?auto=compress&cs=tinysrgb&h=650&w=940","medium":"https:\/\/images.pexels.com\/photos\/7773803\/pexels-photo-7773803.jpeg?auto=compress&cs=tinysrgb&h=350","small":"https:\/\/images.pexels.com\/photos\/7773803\/pexels-photo-7773803.jpeg?auto=compress&cs=tinysrgb&h=130","portrait":"https:\/\/images.pexels.com\/photos\/7773803\/pexels-photo-7773803.jpeg?auto=compress&cs=tinysrgb&fit=crop&h=1200&w=800","landscape":"https:\/\/images.pexels.com\/photos\/7773803\/pexels-photo-7773803.jpeg?auto=compress&cs=tinysrgb&fit=crop&h=627&w=1200","tiny":"https:\/\/images.pexels.com\/photos\/7773803\/pexels-photo-7773803.jpeg?auto=compress&cs=tinysrgb&dpr=1&fit=crop&h=200&w=280"},"liked":false,"alt":"A close-up of hands holding a wireless game controller against a yellow background, capturing the gaming experience."},{"id":11769333,"width":4000,"height":6000,"url":"https:\/\/www.pexels.com\/photo\/backview-of-woman-using-game-controller-11769333\/","photographer":"Ali Pli","photographer_url":"https:\/\/www.pexels.com\/@alipli","photographer_id":934722,"avg_color":"#B28D7A","src":{"original":"https:\/\/images.pexels.com\/photos\/11769333\/pexels-photo-11769333.jpeg","large2x":"https:\/\/images.pexels.com\/photos\/11769333\/pexels-photo-11769333.jpeg?auto=compress&cs=tinysrgb&dpr=2&h=650&w=940","large":"https:\/\/images.pexels.com\/photos\/11769333\/pexels-photo-11769333.jpeg?auto=compress&cs=tinysrgb&h=650&w=940","medium":"https:\/\/images.pexels.com\/photos\/11769333\/pexels-photo-11769333.jpeg?auto=compress&cs=tinysrgb&h=350","small":"https:\/\/images.pexels.com\/photos\/11769333\/pexels-photo-11769333.jpeg?auto=compress&cs=tinysrgb&h=130","portrait":"https:\/\/images.pexels.com\/photos\/11769333\/pexels-photo-11769333.jpeg?auto=compress&cs=tinysrgb&fit=crop&h=1200&w=800","landscape":"https:\/\/images.pexels.com\/photos\/11769333\/pexels-photo-11769333.jpeg?auto=compress&cs=tinysrgb&fit=crop&h=627&w=1200","tiny":"https:\/\/images.pexels.com\/photos\/11769333\/pexels-photo-11769333.jpeg?auto=compress&cs=tinysrgb&dpr=1&fit=crop&h=200&w=280"},"liked":false,"alt":"Over-the-shoulder view of a person playing video games with a controller, surrounded by soda cans."}],"total_results":5116,"next_page":"https:\/\/api.pexels.com\/v1\/v1\/search?page=2&per_page=15&query=videojuegos"}