{"page":1,"per_page":15,"photos":[{"id":32771818,"width":6000,"height":4000,"url":"https:\/\/www.pexels.com\/photo\/tarot-card-reading-with-la-estrella-32771818\/","photographer":"D\u039bV\u039e G\u039bRCI\u039b","photographer_url":"https:\/\/www.pexels.com\/@davegarcia","photographer_id":1550809894,"avg_color":"#5A5F63","src":{"original":"https:\/\/images.pexels.com\/photos\/32771818\/pexels-photo-32771818.jpeg","large2x":"https:\/\/images.pexels.com\/photos\/32771818\/pexels-photo-32771818.jpeg?auto=compress&cs=tinysrgb&dpr=2&h=650&w=940","large":"https:\/\/images.pexels.com\/photos\/32771818\/pexels-photo-32771818.jpeg?auto=compress&cs=tinysrgb&h=650&w=940","medium":"https:\/\/images.pexels.com\/photos\/32771818\/pexels-photo-32771818.jpeg?auto=compress&cs=tinysrgb&h=350","small":"https:\/\/images.pexels.com\/photos\/32771818\/pexels-photo-32771818.jpeg?auto=compress&cs=tinysrgb&h=130","portrait":"https:\/\/images.pexels.com\/photos\/32771818\/pexels-photo-32771818.jpeg?auto=compress&cs=tinysrgb&fit=crop&h=1200&w=800","landscape":"https:\/\/images.pexels.com\/photos\/32771818\/pexels-photo-32771818.jpeg?auto=compress&cs=tinysrgb&fit=crop&h=627&w=1200","tiny":"https:\/\/images.pexels.com\/photos\/32771818\/pexels-photo-32771818.jpeg?auto=compress&cs=tinysrgb&dpr=1&fit=crop&h=200&w=280"},"liked":false,"alt":"Hands holding a La Estrella tarot card, surrounded by stones and other cards."},{"id":1835894,"width":5472,"height":3648,"url":"https:\/\/www.pexels.com\/photo\/brown-star-hanging-decor-1835894\/","photographer":"Craig Adderley","photographer_url":"https:\/\/www.pexels.com\/@thatguycraig000","photographer_id":657879,"avg_color":"#473F3C","src":{"original":"https:\/\/images.pexels.com\/photos\/1835894\/pexels-photo-1835894.jpeg","large2x":"https:\/\/images.pexels.com\/photos\/1835894\/pexels-photo-1835894.jpeg?auto=compress&cs=tinysrgb&dpr=2&h=650&w=940","large":"https:\/\/images.pexels.com\/photos\/1835894\/pexels-photo-1835894.jpeg?auto=compress&cs=tinysrgb&h=650&w=940","medium":"https:\/\/images.pexels.com\/photos\/1835894\/pexels-photo-1835894.jpeg?auto=compress&cs=tinysrgb&h=350","small":"https:\/\/images.pexels.com\/photos\/1835894\/pexels-photo-1835894.jpeg?auto=compress&cs=tinysrgb&h=130","portrait":"https:\/\/images.pexels.com\/photos\/1835894\/pexels-photo-1835894.jpeg?auto=compress&cs=tinysrgb&fit=crop&h=1200&w=800","landscape":"https:\/\/images.pexels.com\/photos\/1835894\/pexels-photo-1835894.jpeg?auto=compress&cs=tinysrgb&fit=crop&h=627&w=1200","tiny":"https:\/\/images.pexels.com\/photos\/1835894\/pexels-photo-1835894.jpeg?auto=compress&cs=tinysrgb&dpr=1&fit=crop&h=200&w=280"},"liked":false,"alt":"Close-up of a decorative star ornament with vintage hanging lights, creating a warm ambiance."},{"id":10518903,"width":4000,"height":6000,"url":"https:\/\/www.pexels.com\/photo\/a-star-decor-hanging-from-the-ceiling-10518903\/","photographer":"MEHMET AYTEM\u0130Z","photographer_url":"https:\/\/www.pexels.com\/@mehmetaytemiz","photographer_id":147524759,"avg_color":"#485E5B","src":{"original":"https:\/\/images.pexels.com\/photos\/10518903\/pexels-photo-10518903.jpeg","large2x":"https:\/\/images.pexels.com\/photos\/10518903\/pexels-photo-10518903.jpeg?auto=compress&cs=tinysrgb&dpr=2&h=650&w=940","large":"https:\/\/images.pexels.com\/photos\/10518903\/pexels-photo-10518903.jpeg?auto=compress&cs=tinysrgb&h=650&w=940","medium":"https:\/\/images.pexels.com\/photos\/10518903\/pexels-photo-10518903.jpeg?auto=compress&cs=tinysrgb&h=350","small":"https:\/\/images.pexels.com\/photos\/10518903\/pexels-photo-10518903.jpeg?auto=compress&cs=tinysrgb&h=130","portrait":"https:\/\/images.pexels.com\/photos\/10518903\/pexels-photo-10518903.jpeg?auto=compress&cs=tinysrgb&fit=crop&h=1200&w=800","landscape":"https:\/\/images.pexels.com\/photos\/10518903\/pexels-photo-10518903.jpeg?auto=compress&cs=tinysrgb&fit=crop&h=627&w=1200","tiny":"https:\/\/images.pexels.com\/photos\/10518903\/pexels-photo-10518903.jpeg?auto=compress&cs=tinysrgb&dpr=1&fit=crop&h=200&w=280"},"liked":false,"alt":"A wicker star-shaped ornament hanging indoors in a modern atrium. Perfect for decor themes."},{"id":8682050,"width":4096,"height":2730,"url":"https:\/\/www.pexels.com\/photo\/a-photo-of-star-hanging-decorartion-8682050\/","photographer":"Omkar Naik","photographer_url":"https:\/\/www.pexels.com\/@omkar-naik-67116666","photographer_id":67116666,"avg_color":"#2D2D2D","src":{"original":"https:\/\/images.pexels.com\/photos\/8682050\/pexels-photo-8682050.jpeg","large2x":"https:\/\/images.pexels.com\/photos\/8682050\/pexels-photo-8682050.jpeg?auto=compress&cs=tinysrgb&dpr=2&h=650&w=940","large":"https:\/\/images.pexels.com\/photos\/8682050\/pexels-photo-8682050.jpeg?auto=compress&cs=tinysrgb&h=650&w=940","medium":"https:\/\/images.pexels.com\/photos\/8682050\/pexels-photo-8682050.jpeg?auto=compress&cs=tinysrgb&h=350","small":"https:\/\/images.pexels.com\/photos\/8682050\/pexels-photo-8682050.jpeg?auto=compress&cs=tinysrgb&h=130","portrait":"https:\/\/images.pexels.com\/photos\/8682050\/pexels-photo-8682050.jpeg?auto=compress&cs=tinysrgb&fit=crop&h=1200&w=800","landscape":"https:\/\/images.pexels.com\/photos\/8682050\/pexels-photo-8682050.jpeg?auto=compress&cs=tinysrgb&fit=crop&h=627&w=1200","tiny":"https:\/\/images.pexels.com\/photos\/8682050\/pexels-photo-8682050.jpeg?auto=compress&cs=tinysrgb&dpr=1&fit=crop&h=200&w=280"},"liked":false,"alt":"Close-up of a crystal star decoration against a dark background."},{"id":6212467,"width":2670,"height":4000,"url":"https:\/\/www.pexels.com\/photo\/a-person-holding-a-clear-star-shaped-christmas-ornament-6212467\/","photographer":"Arina Krasnikova","photographer_url":"https:\/\/www.pexels.com\/@arina-krasnikova","photographer_id":3414985,"avg_color":"#644F2F","src":{"original":"https:\/\/images.pexels.com\/photos\/6212467\/pexels-photo-6212467.jpeg","large2x":"https:\/\/images.pexels.com\/photos\/6212467\/pexels-photo-6212467.jpeg?auto=compress&cs=tinysrgb&dpr=2&h=650&w=940","large":"https:\/\/images.pexels.com\/photos\/6212467\/pexels-photo-6212467.jpeg?auto=compress&cs=tinysrgb&h=650&w=940","medium":"https:\/\/images.pexels.com\/photos\/6212467\/pexels-photo-6212467.jpeg?auto=compress&cs=tinysrgb&h=350","small":"https:\/\/images.pexels.com\/photos\/6212467\/pexels-photo-6212467.jpeg?auto=compress&cs=tinysrgb&h=130","portrait":"https:\/\/images.pexels.com\/photos\/6212467\/pexels-photo-6212467.jpeg?auto=compress&cs=tinysrgb&fit=crop&h=1200&w=800","landscape":"https:\/\/images.pexels.com\/photos\/6212467\/pexels-photo-6212467.jpeg?auto=compress&cs=tinysrgb&fit=crop&h=627&w=1200","tiny":"https:\/\/images.pexels.com\/photos\/6212467\/pexels-photo-6212467.jpeg?auto=compress&cs=tinysrgb&dpr=1&fit=crop&h=200&w=280"},"liked":false,"alt":"A hand holding a glowing star-shaped light against a backdrop of warm bokeh, perfect for festive moods."},{"id":1671431,"width":3476,"height":5208,"url":"https:\/\/www.pexels.com\/photo\/macro-shot-photography-of-star-with-lights-1671431\/","photographer":"Elias Tigiser","photographer_url":"https:\/\/www.pexels.com\/@elias-tigiser-411757","photographer_id":411757,"avg_color":"#422D1B","src":{"original":"https:\/\/images.pexels.com\/photos\/1671431\/pexels-photo-1671431.jpeg","large2x":"https:\/\/images.pexels.com\/photos\/1671431\/pexels-photo-1671431.jpeg?auto=compress&cs=tinysrgb&dpr=2&h=650&w=940","large":"https:\/\/images.pexels.com\/photos\/1671431\/pexels-photo-1671431.jpeg?auto=compress&cs=tinysrgb&h=650&w=940","medium":"https:\/\/images.pexels.com\/photos\/1671431\/pexels-photo-1671431.jpeg?auto=compress&cs=tinysrgb&h=350","small":"https:\/\/images.pexels.com\/photos\/1671431\/pexels-photo-1671431.jpeg?auto=compress&cs=tinysrgb&h=130","portrait":"https:\/\/images.pexels.com\/photos\/1671431\/pexels-photo-1671431.jpeg?auto=compress&cs=tinysrgb&fit=crop&h=1200&w=800","landscape":"https:\/\/images.pexels.com\/photos\/1671431\/pexels-photo-1671431.jpeg?auto=compress&cs=tinysrgb&fit=crop&h=627&w=1200","tiny":"https:\/\/images.pexels.com\/photos\/1671431\/pexels-photo-1671431.jpeg?auto=compress&cs=tinysrgb&dpr=1&fit=crop&h=200&w=280"},"liked":false,"alt":"A shimmering golden star surrounded by warm Christmas string lights on a dark background. Perfect for holiday themes."},{"id":12307156,"width":3456,"height":5184,"url":"https:\/\/www.pexels.com\/photo\/green-cactus-under-night-sky-12307156\/","photographer":"Juan Cipriano Esquer","photographer_url":"https:\/\/www.pexels.com\/@juanciprianoesquer","photographer_id":241208182,"avg_color":"#2A2722","src":{"original":"https:\/\/images.pexels.com\/photos\/12307156\/pexels-photo-12307156.jpeg","large2x":"https:\/\/images.pexels.com\/photos\/12307156\/pexels-photo-12307156.jpeg?auto=compress&cs=tinysrgb&dpr=2&h=650&w=940","large":"https:\/\/images.pexels.com\/photos\/12307156\/pexels-photo-12307156.jpeg?auto=compress&cs=tinysrgb&h=650&w=940","medium":"https:\/\/images.pexels.com\/photos\/12307156\/pexels-photo-12307156.jpeg?auto=compress&cs=tinysrgb&h=350","small":"https:\/\/images.pexels.com\/photos\/12307156\/pexels-photo-12307156.jpeg?auto=compress&cs=tinysrgb&h=130","portrait":"https:\/\/images.pexels.com\/photos\/12307156\/pexels-photo-12307156.jpeg?auto=compress&cs=tinysrgb&fit=crop&h=1200&w=800","landscape":"https:\/\/images.pexels.com\/photos\/12307156\/pexels-photo-12307156.jpeg?auto=compress&cs=tinysrgb&fit=crop&h=627&w=1200","tiny":"https:\/\/images.pexels.com\/photos\/12307156\/pexels-photo-12307156.jpeg?auto=compress&cs=tinysrgb&dpr=1&fit=crop&h=200&w=280"},"liked":false,"alt":"Majestic cacti stand under a clear starry sky in Puerto Pe\u00f1asco, Mexico, showcasing nature's beauty at night."},{"id":7139875,"width":3648,"height":5472,"url":"https:\/\/www.pexels.com\/photo\/cute-black-girl-in-paper-star-mask-7139875\/","photographer":"Monstera Production","photographer_url":"https:\/\/www.pexels.com\/@gabby-k","photographer_id":3372733,"avg_color":"#C9B796","src":{"original":"https:\/\/images.pexels.com\/photos\/7139875\/pexels-photo-7139875.jpeg","large2x":"https:\/\/images.pexels.com\/photos\/7139875\/pexels-photo-7139875.jpeg?auto=compress&cs=tinysrgb&dpr=2&h=650&w=940","large":"https:\/\/images.pexels.com\/photos\/7139875\/pexels-photo-7139875.jpeg?auto=compress&cs=tinysrgb&h=650&w=940","medium":"https:\/\/images.pexels.com\/photos\/7139875\/pexels-photo-7139875.jpeg?auto=compress&cs=tinysrgb&h=350","small":"https:\/\/images.pexels.com\/photos\/7139875\/pexels-photo-7139875.jpeg?auto=compress&cs=tinysrgb&h=130","portrait":"https:\/\/images.pexels.com\/photos\/7139875\/pexels-photo-7139875.jpeg?auto=compress&cs=tinysrgb&fit=crop&h=1200&w=800","landscape":"https:\/\/images.pexels.com\/photos\/7139875\/pexels-photo-7139875.jpeg?auto=compress&cs=tinysrgb&fit=crop&h=627&w=1200","tiny":"https:\/\/images.pexels.com\/photos\/7139875\/pexels-photo-7139875.jpeg?auto=compress&cs=tinysrgb&dpr=1&fit=crop&h=200&w=280"},"liked":false,"alt":"Funny little African American girl in overall and handmade cutout carton star standing in studio and looking at camera"},{"id":7139878,"width":3648,"height":5472,"url":"https:\/\/www.pexels.com\/photo\/cute-black-girl-in-carton-star-shaped-costume-7139878\/","photographer":"Monstera Production","photographer_url":"https:\/\/www.pexels.com\/@gabby-k","photographer_id":3372733,"avg_color":"#C9B48C","src":{"original":"https:\/\/images.pexels.com\/photos\/7139878\/pexels-photo-7139878.jpeg","large2x":"https:\/\/images.pexels.com\/photos\/7139878\/pexels-photo-7139878.jpeg?auto=compress&cs=tinysrgb&dpr=2&h=650&w=940","large":"https:\/\/images.pexels.com\/photos\/7139878\/pexels-photo-7139878.jpeg?auto=compress&cs=tinysrgb&h=650&w=940","medium":"https:\/\/images.pexels.com\/photos\/7139878\/pexels-photo-7139878.jpeg?auto=compress&cs=tinysrgb&h=350","small":"https:\/\/images.pexels.com\/photos\/7139878\/pexels-photo-7139878.jpeg?auto=compress&cs=tinysrgb&h=130","portrait":"https:\/\/images.pexels.com\/photos\/7139878\/pexels-photo-7139878.jpeg?auto=compress&cs=tinysrgb&fit=crop&h=1200&w=800","landscape":"https:\/\/images.pexels.com\/photos\/7139878\/pexels-photo-7139878.jpeg?auto=compress&cs=tinysrgb&fit=crop&h=627&w=1200","tiny":"https:\/\/images.pexels.com\/photos\/7139878\/pexels-photo-7139878.jpeg?auto=compress&cs=tinysrgb&dpr=1&fit=crop&h=200&w=280"},"liked":false,"alt":"Adorable African American girl standing in gray studio in handmade yellow star for celebrating holiday"},{"id":3403022,"width":6000,"height":4000,"url":"https:\/\/www.pexels.com\/photo\/macro-photography-of-yellow-star-string-light-3403022\/","photographer":"Susanne Jutzeler, suju-foto","photographer_url":"https:\/\/www.pexels.com\/@suju","photographer_id":427138,"avg_color":"#5B4229","src":{"original":"https:\/\/images.pexels.com\/photos\/3403022\/pexels-photo-3403022.jpeg","large2x":"https:\/\/images.pexels.com\/photos\/3403022\/pexels-photo-3403022.jpeg?auto=compress&cs=tinysrgb&dpr=2&h=650&w=940","large":"https:\/\/images.pexels.com\/photos\/3403022\/pexels-photo-3403022.jpeg?auto=compress&cs=tinysrgb&h=650&w=940","medium":"https:\/\/images.pexels.com\/photos\/3403022\/pexels-photo-3403022.jpeg?auto=compress&cs=tinysrgb&h=350","small":"https:\/\/images.pexels.com\/photos\/3403022\/pexels-photo-3403022.jpeg?auto=compress&cs=tinysrgb&h=130","portrait":"https:\/\/images.pexels.com\/photos\/3403022\/pexels-photo-3403022.jpeg?auto=compress&cs=tinysrgb&fit=crop&h=1200&w=800","landscape":"https:\/\/images.pexels.com\/photos\/3403022\/pexels-photo-3403022.jpeg?auto=compress&cs=tinysrgb&fit=crop&h=627&w=1200","tiny":"https:\/\/images.pexels.com\/photos\/3403022\/pexels-photo-3403022.jpeg?auto=compress&cs=tinysrgb&dpr=1&fit=crop&h=200&w=280"},"liked":false,"alt":"A glowing star-shaped ornament with bokeh effect captures the Christmas spirit."},{"id":11608702,"width":2730,"height":4096,"url":"https:\/\/www.pexels.com\/photo\/a-woman-wearing-a-yellow-bikini-leaning-on-a-wall-11608702\/","photographer":"Cherry\u2019s  POV","photographer_url":"https:\/\/www.pexels.com\/@cherryspovv","photographer_id":170431592,"avg_color":"#9E8A6F","src":{"original":"https:\/\/images.pexels.com\/photos\/11608702\/pexels-photo-11608702.jpeg","large2x":"https:\/\/images.pexels.com\/photos\/11608702\/pexels-photo-11608702.jpeg?auto=compress&cs=tinysrgb&dpr=2&h=650&w=940","large":"https:\/\/images.pexels.com\/photos\/11608702\/pexels-photo-11608702.jpeg?auto=compress&cs=tinysrgb&h=650&w=940","medium":"https:\/\/images.pexels.com\/photos\/11608702\/pexels-photo-11608702.jpeg?auto=compress&cs=tinysrgb&h=350","small":"https:\/\/images.pexels.com\/photos\/11608702\/pexels-photo-11608702.jpeg?auto=compress&cs=tinysrgb&h=130","portrait":"https:\/\/images.pexels.com\/photos\/11608702\/pexels-photo-11608702.jpeg?auto=compress&cs=tinysrgb&fit=crop&h=1200&w=800","landscape":"https:\/\/images.pexels.com\/photos\/11608702\/pexels-photo-11608702.jpeg?auto=compress&cs=tinysrgb&fit=crop&h=627&w=1200","tiny":"https:\/\/images.pexels.com\/photos\/11608702\/pexels-photo-11608702.jpeg?auto=compress&cs=tinysrgb&dpr=1&fit=crop&h=200&w=280"},"liked":false,"alt":"Confident woman in yellow top enjoying sunny day against a colorful wall in Orlando."},{"id":5467107,"width":6141,"height":4094,"url":"https:\/\/www.pexels.com\/photo\/a-hand-with-tattoo-on-his-arm-holding-a-wooden-star-hanging-decoration-5467107\/","photographer":"www.kaboompics.com","photographer_url":"https:\/\/www.pexels.com\/@karola-g","photographer_id":2332540,"avg_color":"#DADADA","src":{"original":"https:\/\/images.pexels.com\/photos\/5467107\/pexels-photo-5467107.jpeg","large2x":"https:\/\/images.pexels.com\/photos\/5467107\/pexels-photo-5467107.jpeg?auto=compress&cs=tinysrgb&dpr=2&h=650&w=940","large":"https:\/\/images.pexels.com\/photos\/5467107\/pexels-photo-5467107.jpeg?auto=compress&cs=tinysrgb&h=650&w=940","medium":"https:\/\/images.pexels.com\/photos\/5467107\/pexels-photo-5467107.jpeg?auto=compress&cs=tinysrgb&h=350","small":"https:\/\/images.pexels.com\/photos\/5467107\/pexels-photo-5467107.jpeg?auto=compress&cs=tinysrgb&h=130","portrait":"https:\/\/images.pexels.com\/photos\/5467107\/pexels-photo-5467107.jpeg?auto=compress&cs=tinysrgb&fit=crop&h=1200&w=800","landscape":"https:\/\/images.pexels.com\/photos\/5467107\/pexels-photo-5467107.jpeg?auto=compress&cs=tinysrgb&fit=crop&h=627&w=1200","tiny":"https:\/\/images.pexels.com\/photos\/5467107\/pexels-photo-5467107.jpeg?auto=compress&cs=tinysrgb&dpr=1&fit=crop&h=200&w=280"},"liked":false,"alt":"A tattooed hand holds a rustic wooden star decoration against a white background, perfect for festive themes."},{"id":7139881,"width":5472,"height":3648,"url":"https:\/\/www.pexels.com\/photo\/cute-little-black-girl-with-paper-star-on-face-7139881\/","photographer":"Monstera Production","photographer_url":"https:\/\/www.pexels.com\/@gabby-k","photographer_id":3372733,"avg_color":"#CFBA95","src":{"original":"https:\/\/images.pexels.com\/photos\/7139881\/pexels-photo-7139881.jpeg","large2x":"https:\/\/images.pexels.com\/photos\/7139881\/pexels-photo-7139881.jpeg?auto=compress&cs=tinysrgb&dpr=2&h=650&w=940","large":"https:\/\/images.pexels.com\/photos\/7139881\/pexels-photo-7139881.jpeg?auto=compress&cs=tinysrgb&h=650&w=940","medium":"https:\/\/images.pexels.com\/photos\/7139881\/pexels-photo-7139881.jpeg?auto=compress&cs=tinysrgb&h=350","small":"https:\/\/images.pexels.com\/photos\/7139881\/pexels-photo-7139881.jpeg?auto=compress&cs=tinysrgb&h=130","portrait":"https:\/\/images.pexels.com\/photos\/7139881\/pexels-photo-7139881.jpeg?auto=compress&cs=tinysrgb&fit=crop&h=1200&w=800","landscape":"https:\/\/images.pexels.com\/photos\/7139881\/pexels-photo-7139881.jpeg?auto=compress&cs=tinysrgb&fit=crop&h=627&w=1200","tiny":"https:\/\/images.pexels.com\/photos\/7139881\/pexels-photo-7139881.jpeg?auto=compress&cs=tinysrgb&dpr=1&fit=crop&h=200&w=280"},"liked":false,"alt":"Charming African American girl with cutout paper star on face standing in studio and looking at camera"},{"id":4586889,"width":4160,"height":6240,"url":"https:\/\/www.pexels.com\/photo\/a-person-holding-star-shaped-light-4586889\/","photographer":"Anna Shvets","photographer_url":"https:\/\/www.pexels.com\/@shvetsa","photographer_id":1984515,"avg_color":"#382419","src":{"original":"https:\/\/images.pexels.com\/photos\/4586889\/pexels-photo-4586889.jpeg","large2x":"https:\/\/images.pexels.com\/photos\/4586889\/pexels-photo-4586889.jpeg?auto=compress&cs=tinysrgb&dpr=2&h=650&w=940","large":"https:\/\/images.pexels.com\/photos\/4586889\/pexels-photo-4586889.jpeg?auto=compress&cs=tinysrgb&h=650&w=940","medium":"https:\/\/images.pexels.com\/photos\/4586889\/pexels-photo-4586889.jpeg?auto=compress&cs=tinysrgb&h=350","small":"https:\/\/images.pexels.com\/photos\/4586889\/pexels-photo-4586889.jpeg?auto=compress&cs=tinysrgb&h=130","portrait":"https:\/\/images.pexels.com\/photos\/4586889\/pexels-photo-4586889.jpeg?auto=compress&cs=tinysrgb&fit=crop&h=1200&w=800","landscape":"https:\/\/images.pexels.com\/photos\/4586889\/pexels-photo-4586889.jpeg?auto=compress&cs=tinysrgb&fit=crop&h=627&w=1200","tiny":"https:\/\/images.pexels.com\/photos\/4586889\/pexels-photo-4586889.jpeg?auto=compress&cs=tinysrgb&dpr=1&fit=crop&h=200&w=280"},"liked":false,"alt":"A luminous star-shaped light held in a hand, casting a warm glow in a dark setting."},{"id":4069532,"width":2100,"height":2624,"url":"https:\/\/www.pexels.com\/photo\/silver-star-ornament-in-close-up-photography-4069532\/","photographer":"Frank Cone","photographer_url":"https:\/\/www.pexels.com\/@frank-cone-140140","photographer_id":140140,"avg_color":"#363D5F","src":{"original":"https:\/\/images.pexels.com\/photos\/4069532\/pexels-photo-4069532.jpeg","large2x":"https:\/\/images.pexels.com\/photos\/4069532\/pexels-photo-4069532.jpeg?auto=compress&cs=tinysrgb&dpr=2&h=650&w=940","large":"https:\/\/images.pexels.com\/photos\/4069532\/pexels-photo-4069532.jpeg?auto=compress&cs=tinysrgb&h=650&w=940","medium":"https:\/\/images.pexels.com\/photos\/4069532\/pexels-photo-4069532.jpeg?auto=compress&cs=tinysrgb&h=350","small":"https:\/\/images.pexels.com\/photos\/4069532\/pexels-photo-4069532.jpeg?auto=compress&cs=tinysrgb&h=130","portrait":"https:\/\/images.pexels.com\/photos\/4069532\/pexels-photo-4069532.jpeg?auto=compress&cs=tinysrgb&fit=crop&h=1200&w=800","landscape":"https:\/\/images.pexels.com\/photos\/4069532\/pexels-photo-4069532.jpeg?auto=compress&cs=tinysrgb&fit=crop&h=627&w=1200","tiny":"https:\/\/images.pexels.com\/photos\/4069532\/pexels-photo-4069532.jpeg?auto=compress&cs=tinysrgb&dpr=1&fit=crop&h=200&w=280"},"liked":false,"alt":"Close-up of a crystal star with blue bokeh lights, creating a dreamy effect."}],"total_results":2543,"next_page":"https:\/\/api.pexels.com\/v1\/v1\/search?page=2&per_page=15&query=estrella"}