{"page":1,"per_page":15,"photos":[{"id":31744795,"width":3300,"height":5867,"url":"https:\/\/www.pexels.com\/photo\/schnauzer-dog-enjoys-green-outdoor-yard-31744795\/","photographer":"Daniela S\u00e1nchez","photographer_url":"https:\/\/www.pexels.com\/@daniwithaniphotovideo","photographer_id":2578665,"avg_color":"#444C34","src":{"original":"https:\/\/images.pexels.com\/photos\/31744795\/pexels-photo-31744795.jpeg","large2x":"https:\/\/images.pexels.com\/photos\/31744795\/pexels-photo-31744795.jpeg?auto=compress&cs=tinysrgb&dpr=2&h=650&w=940","large":"https:\/\/images.pexels.com\/photos\/31744795\/pexels-photo-31744795.jpeg?auto=compress&cs=tinysrgb&h=650&w=940","medium":"https:\/\/images.pexels.com\/photos\/31744795\/pexels-photo-31744795.jpeg?auto=compress&cs=tinysrgb&h=350","small":"https:\/\/images.pexels.com\/photos\/31744795\/pexels-photo-31744795.jpeg?auto=compress&cs=tinysrgb&h=130","portrait":"https:\/\/images.pexels.com\/photos\/31744795\/pexels-photo-31744795.jpeg?auto=compress&cs=tinysrgb&fit=crop&h=1200&w=800","landscape":"https:\/\/images.pexels.com\/photos\/31744795\/pexels-photo-31744795.jpeg?auto=compress&cs=tinysrgb&fit=crop&h=627&w=1200","tiny":"https:\/\/images.pexels.com\/photos\/31744795\/pexels-photo-31744795.jpeg?auto=compress&cs=tinysrgb&dpr=1&fit=crop&h=200&w=280"},"liked":false,"alt":"Cute schnauzer standing in a lush green yard with potted plants in Ciudad de Guatemala."},{"id":26607798,"width":2993,"height":5321,"url":"https:\/\/www.pexels.com\/photo\/dog-playing-with-stick-26607798\/","photographer":"Gustavo Denuncio","photographer_url":"https:\/\/www.pexels.com\/@gustavodenuncio","photographer_id":787527523,"avg_color":"#5E5B56","src":{"original":"https:\/\/images.pexels.com\/photos\/26607798\/pexels-photo-26607798.jpeg","large2x":"https:\/\/images.pexels.com\/photos\/26607798\/pexels-photo-26607798.jpeg?auto=compress&cs=tinysrgb&dpr=2&h=650&w=940","large":"https:\/\/images.pexels.com\/photos\/26607798\/pexels-photo-26607798.jpeg?auto=compress&cs=tinysrgb&h=650&w=940","medium":"https:\/\/images.pexels.com\/photos\/26607798\/pexels-photo-26607798.jpeg?auto=compress&cs=tinysrgb&h=350","small":"https:\/\/images.pexels.com\/photos\/26607798\/pexels-photo-26607798.jpeg?auto=compress&cs=tinysrgb&h=130","portrait":"https:\/\/images.pexels.com\/photos\/26607798\/pexels-photo-26607798.jpeg?auto=compress&cs=tinysrgb&fit=crop&h=1200&w=800","landscape":"https:\/\/images.pexels.com\/photos\/26607798\/pexels-photo-26607798.jpeg?auto=compress&cs=tinysrgb&fit=crop&h=627&w=1200","tiny":"https:\/\/images.pexels.com\/photos\/26607798\/pexels-photo-26607798.jpeg?auto=compress&cs=tinysrgb&dpr=1&fit=crop&h=200&w=280"},"liked":false,"alt":"Black dachshund playfully chewing a stick while lying on grass in a selective focus outdoors setting."},{"id":31744794,"width":3227,"height":5737,"url":"https:\/\/www.pexels.com\/photo\/playful-dog-on-green-lawn-in-urban-backyard-31744794\/","photographer":"Daniela S\u00e1nchez","photographer_url":"https:\/\/www.pexels.com\/@daniwithaniphotovideo","photographer_id":2578665,"avg_color":"#353F27","src":{"original":"https:\/\/images.pexels.com\/photos\/31744794\/pexels-photo-31744794.jpeg","large2x":"https:\/\/images.pexels.com\/photos\/31744794\/pexels-photo-31744794.jpeg?auto=compress&cs=tinysrgb&dpr=2&h=650&w=940","large":"https:\/\/images.pexels.com\/photos\/31744794\/pexels-photo-31744794.jpeg?auto=compress&cs=tinysrgb&h=650&w=940","medium":"https:\/\/images.pexels.com\/photos\/31744794\/pexels-photo-31744794.jpeg?auto=compress&cs=tinysrgb&h=350","small":"https:\/\/images.pexels.com\/photos\/31744794\/pexels-photo-31744794.jpeg?auto=compress&cs=tinysrgb&h=130","portrait":"https:\/\/images.pexels.com\/photos\/31744794\/pexels-photo-31744794.jpeg?auto=compress&cs=tinysrgb&fit=crop&h=1200&w=800","landscape":"https:\/\/images.pexels.com\/photos\/31744794\/pexels-photo-31744794.jpeg?auto=compress&cs=tinysrgb&fit=crop&h=627&w=1200","tiny":"https:\/\/images.pexels.com\/photos\/31744794\/pexels-photo-31744794.jpeg?auto=compress&cs=tinysrgb&dpr=1&fit=crop&h=200&w=280"},"liked":false,"alt":"Happy small dog playing with a toy on a grassy backyard, perfect for pet and outdoor themes."},{"id":32668804,"width":6000,"height":4000,"url":"https:\/\/www.pexels.com\/photo\/chihuahua-dog-posing-against-rustic-stone-wall-32668804\/","photographer":"Cristian  Arag\u00f3n","photographer_url":"https:\/\/www.pexels.com\/@kurisari","photographer_id":145489244,"avg_color":"#6B5D50","src":{"original":"https:\/\/images.pexels.com\/photos\/32668804\/pexels-photo-32668804.jpeg","large2x":"https:\/\/images.pexels.com\/photos\/32668804\/pexels-photo-32668804.jpeg?auto=compress&cs=tinysrgb&dpr=2&h=650&w=940","large":"https:\/\/images.pexels.com\/photos\/32668804\/pexels-photo-32668804.jpeg?auto=compress&cs=tinysrgb&h=650&w=940","medium":"https:\/\/images.pexels.com\/photos\/32668804\/pexels-photo-32668804.jpeg?auto=compress&cs=tinysrgb&h=350","small":"https:\/\/images.pexels.com\/photos\/32668804\/pexels-photo-32668804.jpeg?auto=compress&cs=tinysrgb&h=130","portrait":"https:\/\/images.pexels.com\/photos\/32668804\/pexels-photo-32668804.jpeg?auto=compress&cs=tinysrgb&fit=crop&h=1200&w=800","landscape":"https:\/\/images.pexels.com\/photos\/32668804\/pexels-photo-32668804.jpeg?auto=compress&cs=tinysrgb&fit=crop&h=627&w=1200","tiny":"https:\/\/images.pexels.com\/photos\/32668804\/pexels-photo-32668804.jpeg?auto=compress&cs=tinysrgb&dpr=1&fit=crop&h=200&w=280"},"liked":false,"alt":"Charming chihuahua sitting against a rustic stone wall, showcasing its expressive features and alert demeanor."},{"id":20407184,"width":4975,"height":5152,"url":"https:\/\/www.pexels.com\/photo\/a-dog-lying-on-the-grass-20407184\/","photographer":"Do\u011fan Alpaslan  Demir","photographer_url":"https:\/\/www.pexels.com\/@izafi","photographer_id":83080550,"avg_color":"#515851","src":{"original":"https:\/\/images.pexels.com\/photos\/20407184\/pexels-photo-20407184.jpeg","large2x":"https:\/\/images.pexels.com\/photos\/20407184\/pexels-photo-20407184.jpeg?auto=compress&cs=tinysrgb&dpr=2&h=650&w=940","large":"https:\/\/images.pexels.com\/photos\/20407184\/pexels-photo-20407184.jpeg?auto=compress&cs=tinysrgb&h=650&w=940","medium":"https:\/\/images.pexels.com\/photos\/20407184\/pexels-photo-20407184.jpeg?auto=compress&cs=tinysrgb&h=350","small":"https:\/\/images.pexels.com\/photos\/20407184\/pexels-photo-20407184.jpeg?auto=compress&cs=tinysrgb&h=130","portrait":"https:\/\/images.pexels.com\/photos\/20407184\/pexels-photo-20407184.jpeg?auto=compress&cs=tinysrgb&fit=crop&h=1200&w=800","landscape":"https:\/\/images.pexels.com\/photos\/20407184\/pexels-photo-20407184.jpeg?auto=compress&cs=tinysrgb&fit=crop&h=627&w=1200","tiny":"https:\/\/images.pexels.com\/photos\/20407184\/pexels-photo-20407184.jpeg?auto=compress&cs=tinysrgb&dpr=1&fit=crop&h=200&w=280"},"liked":false,"alt":"A stray dog relaxing on grass in a forest setting in \u0130zmir, Turkey."},{"id":4610780,"width":4000,"height":6000,"url":"https:\/\/www.pexels.com\/photo\/a-black-labrador-retriever-covered-with-yellow-plastic-4610780\/","photographer":"Steven Paucar","photographer_url":"https:\/\/www.pexels.com\/@steven-paucar-3042500","photographer_id":3042500,"avg_color":"#936517","src":{"original":"https:\/\/images.pexels.com\/photos\/4610780\/pexels-photo-4610780.jpeg","large2x":"https:\/\/images.pexels.com\/photos\/4610780\/pexels-photo-4610780.jpeg?auto=compress&cs=tinysrgb&dpr=2&h=650&w=940","large":"https:\/\/images.pexels.com\/photos\/4610780\/pexels-photo-4610780.jpeg?auto=compress&cs=tinysrgb&h=650&w=940","medium":"https:\/\/images.pexels.com\/photos\/4610780\/pexels-photo-4610780.jpeg?auto=compress&cs=tinysrgb&h=350","small":"https:\/\/images.pexels.com\/photos\/4610780\/pexels-photo-4610780.jpeg?auto=compress&cs=tinysrgb&h=130","portrait":"https:\/\/images.pexels.com\/photos\/4610780\/pexels-photo-4610780.jpeg?auto=compress&cs=tinysrgb&fit=crop&h=1200&w=800","landscape":"https:\/\/images.pexels.com\/photos\/4610780\/pexels-photo-4610780.jpeg?auto=compress&cs=tinysrgb&fit=crop&h=627&w=1200","tiny":"https:\/\/images.pexels.com\/photos\/4610780\/pexels-photo-4610780.jpeg?auto=compress&cs=tinysrgb&dpr=1&fit=crop&h=200&w=280"},"liked":false,"alt":"A black dog peeks through bright yellow plastic for a vivid contrast."},{"id":31868253,"width":4000,"height":6000,"url":"https:\/\/www.pexels.com\/photo\/sunny-day-walk-in-merida-with-siberian-husky-31868253\/","photographer":"Alan Morales","photographer_url":"https:\/\/www.pexels.com\/@alanmoraales","photographer_id":232856971,"avg_color":"#848681","src":{"original":"https:\/\/images.pexels.com\/photos\/31868253\/pexels-photo-31868253.jpeg","large2x":"https:\/\/images.pexels.com\/photos\/31868253\/pexels-photo-31868253.jpeg?auto=compress&cs=tinysrgb&dpr=2&h=650&w=940","large":"https:\/\/images.pexels.com\/photos\/31868253\/pexels-photo-31868253.jpeg?auto=compress&cs=tinysrgb&h=650&w=940","medium":"https:\/\/images.pexels.com\/photos\/31868253\/pexels-photo-31868253.jpeg?auto=compress&cs=tinysrgb&h=350","small":"https:\/\/images.pexels.com\/photos\/31868253\/pexels-photo-31868253.jpeg?auto=compress&cs=tinysrgb&h=130","portrait":"https:\/\/images.pexels.com\/photos\/31868253\/pexels-photo-31868253.jpeg?auto=compress&cs=tinysrgb&fit=crop&h=1200&w=800","landscape":"https:\/\/images.pexels.com\/photos\/31868253\/pexels-photo-31868253.jpeg?auto=compress&cs=tinysrgb&fit=crop&h=627&w=1200","tiny":"https:\/\/images.pexels.com\/photos\/31868253\/pexels-photo-31868253.jpeg?auto=compress&cs=tinysrgb&dpr=1&fit=crop&h=200&w=280"},"liked":false,"alt":"A woman enjoys a sunny stroll with her Siberian husky in M\u00e9rida, capturing the vibrant street life."},{"id":29578701,"width":3648,"height":5472,"url":"https:\/\/www.pexels.com\/photo\/border-collie-on-a-woodland-trail-29578701\/","photographer":"Elina Volkova","photographer_url":"https:\/\/www.pexels.com\/@miami302","photographer_id":52023188,"avg_color":"#433C2A","src":{"original":"https:\/\/images.pexels.com\/photos\/29578701\/pexels-photo-29578701.jpeg","large2x":"https:\/\/images.pexels.com\/photos\/29578701\/pexels-photo-29578701.jpeg?auto=compress&cs=tinysrgb&dpr=2&h=650&w=940","large":"https:\/\/images.pexels.com\/photos\/29578701\/pexels-photo-29578701.jpeg?auto=compress&cs=tinysrgb&h=650&w=940","medium":"https:\/\/images.pexels.com\/photos\/29578701\/pexels-photo-29578701.jpeg?auto=compress&cs=tinysrgb&h=350","small":"https:\/\/images.pexels.com\/photos\/29578701\/pexels-photo-29578701.jpeg?auto=compress&cs=tinysrgb&h=130","portrait":"https:\/\/images.pexels.com\/photos\/29578701\/pexels-photo-29578701.jpeg?auto=compress&cs=tinysrgb&fit=crop&h=1200&w=800","landscape":"https:\/\/images.pexels.com\/photos\/29578701\/pexels-photo-29578701.jpeg?auto=compress&cs=tinysrgb&fit=crop&h=627&w=1200","tiny":"https:\/\/images.pexels.com\/photos\/29578701\/pexels-photo-29578701.jpeg?auto=compress&cs=tinysrgb&dpr=1&fit=crop&h=200&w=280"},"liked":false,"alt":"A Border Collie exploring a forest path during a quiet day in nature."},{"id":12268657,"width":2492,"height":4000,"url":"https:\/\/www.pexels.com\/photo\/black-dog-wearing-a-carnival-decoration-12268657\/","photographer":"Evelyn Luna","photographer_url":"https:\/\/www.pexels.com\/@evelyn-luna-236642366","photographer_id":236642366,"avg_color":"#6E6465","src":{"original":"https:\/\/images.pexels.com\/photos\/12268657\/pexels-photo-12268657.jpeg","large2x":"https:\/\/images.pexels.com\/photos\/12268657\/pexels-photo-12268657.jpeg?auto=compress&cs=tinysrgb&dpr=2&h=650&w=940","large":"https:\/\/images.pexels.com\/photos\/12268657\/pexels-photo-12268657.jpeg?auto=compress&cs=tinysrgb&h=650&w=940","medium":"https:\/\/images.pexels.com\/photos\/12268657\/pexels-photo-12268657.jpeg?auto=compress&cs=tinysrgb&h=350","small":"https:\/\/images.pexels.com\/photos\/12268657\/pexels-photo-12268657.jpeg?auto=compress&cs=tinysrgb&h=130","portrait":"https:\/\/images.pexels.com\/photos\/12268657\/pexels-photo-12268657.jpeg?auto=compress&cs=tinysrgb&fit=crop&h=1200&w=800","landscape":"https:\/\/images.pexels.com\/photos\/12268657\/pexels-photo-12268657.jpeg?auto=compress&cs=tinysrgb&fit=crop&h=627&w=1200","tiny":"https:\/\/images.pexels.com\/photos\/12268657\/pexels-photo-12268657.jpeg?auto=compress&cs=tinysrgb&dpr=1&fit=crop&h=200&w=280"},"liked":false,"alt":"A Xoloitzcuintli dog amidst traditional attire during a vibrant cultural festival in Mexico City."},{"id":33446875,"width":3376,"height":6000,"url":"https:\/\/www.pexels.com\/photo\/adorable-poodle-on-leash-in-boquete-panama-33446875\/","photographer":"issac miller","photographer_url":"https:\/\/www.pexels.com\/@issac-miller-2154899604","photographer_id":2154899604,"avg_color":"#776861","src":{"original":"https:\/\/images.pexels.com\/photos\/33446875\/pexels-photo-33446875.jpeg","large2x":"https:\/\/images.pexels.com\/photos\/33446875\/pexels-photo-33446875.jpeg?auto=compress&cs=tinysrgb&dpr=2&h=650&w=940","large":"https:\/\/images.pexels.com\/photos\/33446875\/pexels-photo-33446875.jpeg?auto=compress&cs=tinysrgb&h=650&w=940","medium":"https:\/\/images.pexels.com\/photos\/33446875\/pexels-photo-33446875.jpeg?auto=compress&cs=tinysrgb&h=350","small":"https:\/\/images.pexels.com\/photos\/33446875\/pexels-photo-33446875.jpeg?auto=compress&cs=tinysrgb&h=130","portrait":"https:\/\/images.pexels.com\/photos\/33446875\/pexels-photo-33446875.jpeg?auto=compress&cs=tinysrgb&fit=crop&h=1200&w=800","landscape":"https:\/\/images.pexels.com\/photos\/33446875\/pexels-photo-33446875.jpeg?auto=compress&cs=tinysrgb&fit=crop&h=627&w=1200","tiny":"https:\/\/images.pexels.com\/photos\/33446875\/pexels-photo-33446875.jpeg?auto=compress&cs=tinysrgb&dpr=1&fit=crop&h=200&w=280"},"liked":false,"alt":"Charming poodle sitting on stone pavement with colorful leash in Boquete, Panama."},{"id":32066338,"width":3096,"height":4644,"url":"https:\/\/www.pexels.com\/photo\/dog-looking-out-from-window-in-mar-del-plata-32066338\/","photographer":"Leonardo Delsabio","photographer_url":"https:\/\/www.pexels.com\/@leonardo-delsabio-2150529415","photographer_id":2150529415,"avg_color":"#917C79","src":{"original":"https:\/\/images.pexels.com\/photos\/32066338\/pexels-photo-32066338.jpeg","large2x":"https:\/\/images.pexels.com\/photos\/32066338\/pexels-photo-32066338.jpeg?auto=compress&cs=tinysrgb&dpr=2&h=650&w=940","large":"https:\/\/images.pexels.com\/photos\/32066338\/pexels-photo-32066338.jpeg?auto=compress&cs=tinysrgb&h=650&w=940","medium":"https:\/\/images.pexels.com\/photos\/32066338\/pexels-photo-32066338.jpeg?auto=compress&cs=tinysrgb&h=350","small":"https:\/\/images.pexels.com\/photos\/32066338\/pexels-photo-32066338.jpeg?auto=compress&cs=tinysrgb&h=130","portrait":"https:\/\/images.pexels.com\/photos\/32066338\/pexels-photo-32066338.jpeg?auto=compress&cs=tinysrgb&fit=crop&h=1200&w=800","landscape":"https:\/\/images.pexels.com\/photos\/32066338\/pexels-photo-32066338.jpeg?auto=compress&cs=tinysrgb&fit=crop&h=627&w=1200","tiny":"https:\/\/images.pexels.com\/photos\/32066338\/pexels-photo-32066338.jpeg?auto=compress&cs=tinysrgb&dpr=1&fit=crop&h=200&w=280"},"liked":false,"alt":"A white dog peers out from behind a window in Mar del Plata, Argentina, expressing curiosity and longing."},{"id":24039200,"width":5464,"height":8192,"url":"https:\/\/www.pexels.com\/photo\/dog-on-grass-24039200\/","photographer":"K","photographer_url":"https:\/\/www.pexels.com\/@kelly","photographer_id":1179532,"avg_color":"#5D563C","src":{"original":"https:\/\/images.pexels.com\/photos\/24039200\/pexels-photo-24039200.jpeg","large2x":"https:\/\/images.pexels.com\/photos\/24039200\/pexels-photo-24039200.jpeg?auto=compress&cs=tinysrgb&dpr=2&h=650&w=940","large":"https:\/\/images.pexels.com\/photos\/24039200\/pexels-photo-24039200.jpeg?auto=compress&cs=tinysrgb&h=650&w=940","medium":"https:\/\/images.pexels.com\/photos\/24039200\/pexels-photo-24039200.jpeg?auto=compress&cs=tinysrgb&h=350","small":"https:\/\/images.pexels.com\/photos\/24039200\/pexels-photo-24039200.jpeg?auto=compress&cs=tinysrgb&h=130","portrait":"https:\/\/images.pexels.com\/photos\/24039200\/pexels-photo-24039200.jpeg?auto=compress&cs=tinysrgb&fit=crop&h=1200&w=800","landscape":"https:\/\/images.pexels.com\/photos\/24039200\/pexels-photo-24039200.jpeg?auto=compress&cs=tinysrgb&fit=crop&h=627&w=1200","tiny":"https:\/\/images.pexels.com\/photos\/24039200\/pexels-photo-24039200.jpeg?auto=compress&cs=tinysrgb&dpr=1&fit=crop&h=200&w=280"},"liked":false,"alt":"A cute dog in a coat exploring a sunny outdoor path in Cusco, Peru."},{"id":32668810,"width":6000,"height":4000,"url":"https:\/\/www.pexels.com\/photo\/relaxed-chihuahua-resting-on-a-brick-wall-32668810\/","photographer":"Cristian  Arag\u00f3n","photographer_url":"https:\/\/www.pexels.com\/@kurisari","photographer_id":145489244,"avg_color":"#63605B","src":{"original":"https:\/\/images.pexels.com\/photos\/32668810\/pexels-photo-32668810.jpeg","large2x":"https:\/\/images.pexels.com\/photos\/32668810\/pexels-photo-32668810.jpeg?auto=compress&cs=tinysrgb&dpr=2&h=650&w=940","large":"https:\/\/images.pexels.com\/photos\/32668810\/pexels-photo-32668810.jpeg?auto=compress&cs=tinysrgb&h=650&w=940","medium":"https:\/\/images.pexels.com\/photos\/32668810\/pexels-photo-32668810.jpeg?auto=compress&cs=tinysrgb&h=350","small":"https:\/\/images.pexels.com\/photos\/32668810\/pexels-photo-32668810.jpeg?auto=compress&cs=tinysrgb&h=130","portrait":"https:\/\/images.pexels.com\/photos\/32668810\/pexels-photo-32668810.jpeg?auto=compress&cs=tinysrgb&fit=crop&h=1200&w=800","landscape":"https:\/\/images.pexels.com\/photos\/32668810\/pexels-photo-32668810.jpeg?auto=compress&cs=tinysrgb&fit=crop&h=627&w=1200","tiny":"https:\/\/images.pexels.com\/photos\/32668810\/pexels-photo-32668810.jpeg?auto=compress&cs=tinysrgb&dpr=1&fit=crop&h=200&w=280"},"liked":false,"alt":"A cute chihuahua relaxing on a brick wall in a sunny outdoor setting, displaying a calm demeanor."},{"id":33446876,"width":3376,"height":6000,"url":"https:\/\/www.pexels.com\/photo\/close-up-portrait-of-a-smiling-brown-dog-outdoors-33446876\/","photographer":"issac miller","photographer_url":"https:\/\/www.pexels.com\/@issac-miller-2154899604","photographer_id":2154899604,"avg_color":"#6D5648","src":{"original":"https:\/\/images.pexels.com\/photos\/33446876\/pexels-photo-33446876.jpeg","large2x":"https:\/\/images.pexels.com\/photos\/33446876\/pexels-photo-33446876.jpeg?auto=compress&cs=tinysrgb&dpr=2&h=650&w=940","large":"https:\/\/images.pexels.com\/photos\/33446876\/pexels-photo-33446876.jpeg?auto=compress&cs=tinysrgb&h=650&w=940","medium":"https:\/\/images.pexels.com\/photos\/33446876\/pexels-photo-33446876.jpeg?auto=compress&cs=tinysrgb&h=350","small":"https:\/\/images.pexels.com\/photos\/33446876\/pexels-photo-33446876.jpeg?auto=compress&cs=tinysrgb&h=130","portrait":"https:\/\/images.pexels.com\/photos\/33446876\/pexels-photo-33446876.jpeg?auto=compress&cs=tinysrgb&fit=crop&h=1200&w=800","landscape":"https:\/\/images.pexels.com\/photos\/33446876\/pexels-photo-33446876.jpeg?auto=compress&cs=tinysrgb&fit=crop&h=627&w=1200","tiny":"https:\/\/images.pexels.com\/photos\/33446876\/pexels-photo-33446876.jpeg?auto=compress&cs=tinysrgb&dpr=1&fit=crop&h=200&w=280"},"liked":false,"alt":"Adorable brown dog with warm eyes enjoying the outdoors in Boquete, Panama."},{"id":34995451,"width":3512,"height":6240,"url":"https:\/\/www.pexels.com\/photo\/street-dog-relaxing-in-istanbul-s-streets-34995451\/","photographer":"Ey\u00fcpcan Timur","photographer_url":"https:\/\/www.pexels.com\/@eyupcan-timur-424989336","photographer_id":424989336,"avg_color":"#8A796F","src":{"original":"https:\/\/images.pexels.com\/photos\/34995451\/pexels-photo-34995451.jpeg","large2x":"https:\/\/images.pexels.com\/photos\/34995451\/pexels-photo-34995451.jpeg?auto=compress&cs=tinysrgb&dpr=2&h=650&w=940","large":"https:\/\/images.pexels.com\/photos\/34995451\/pexels-photo-34995451.jpeg?auto=compress&cs=tinysrgb&h=650&w=940","medium":"https:\/\/images.pexels.com\/photos\/34995451\/pexels-photo-34995451.jpeg?auto=compress&cs=tinysrgb&h=350","small":"https:\/\/images.pexels.com\/photos\/34995451\/pexels-photo-34995451.jpeg?auto=compress&cs=tinysrgb&h=130","portrait":"https:\/\/images.pexels.com\/photos\/34995451\/pexels-photo-34995451.jpeg?auto=compress&cs=tinysrgb&fit=crop&h=1200&w=800","landscape":"https:\/\/images.pexels.com\/photos\/34995451\/pexels-photo-34995451.jpeg?auto=compress&cs=tinysrgb&fit=crop&h=627&w=1200","tiny":"https:\/\/images.pexels.com\/photos\/34995451\/pexels-photo-34995451.jpeg?auto=compress&cs=tinysrgb&dpr=1&fit=crop&h=200&w=280"},"liked":false,"alt":"Brown stray dog lying on the sidewalk in \u0130stanbul, evoking a sense of calm and street life."}],"total_results":4276,"next_page":"https:\/\/api.pexels.com\/v1\/v1\/search?page=2&per_page=15&query=perro"}