{"page":1,"per_page":15,"photos":[{"id":19598325,"width":5477,"height":3651,"url":"https:\/\/www.pexels.com\/photo\/people-in-a-city-at-night-19598325\/","photographer":"Amar  Preciado","photographer_url":"https:\/\/www.pexels.com\/@amar","photographer_id":2247381,"avg_color":"#5A4A3B","src":{"original":"https:\/\/images.pexels.com\/photos\/19598325\/pexels-photo-19598325.jpeg","large2x":"https:\/\/images.pexels.com\/photos\/19598325\/pexels-photo-19598325.jpeg?auto=compress&cs=tinysrgb&dpr=2&h=650&w=940","large":"https:\/\/images.pexels.com\/photos\/19598325\/pexels-photo-19598325.jpeg?auto=compress&cs=tinysrgb&h=650&w=940","medium":"https:\/\/images.pexels.com\/photos\/19598325\/pexels-photo-19598325.jpeg?auto=compress&cs=tinysrgb&h=350","small":"https:\/\/images.pexels.com\/photos\/19598325\/pexels-photo-19598325.jpeg?auto=compress&cs=tinysrgb&h=130","portrait":"https:\/\/images.pexels.com\/photos\/19598325\/pexels-photo-19598325.jpeg?auto=compress&cs=tinysrgb&fit=crop&h=1200&w=800","landscape":"https:\/\/images.pexels.com\/photos\/19598325\/pexels-photo-19598325.jpeg?auto=compress&cs=tinysrgb&fit=crop&h=627&w=1200","tiny":"https:\/\/images.pexels.com\/photos\/19598325\/pexels-photo-19598325.jpeg?auto=compress&cs=tinysrgb&dpr=1&fit=crop&h=200&w=280"},"liked":false,"alt":"Vibrant night view of Le\u00f3n's iconic cathedral with blurred motion of people, captured in M\u00e9xico."},{"id":12203736,"width":4640,"height":6960,"url":"https:\/\/www.pexels.com\/photo\/yellow-car-crossing-the-street-12203736\/","photographer":"Ali  Alc\u00e1ntara","photographer_url":"https:\/\/www.pexels.com\/@alialcantara","photographer_id":177885845,"avg_color":"#9D9990","src":{"original":"https:\/\/images.pexels.com\/photos\/12203736\/pexels-photo-12203736.jpeg","large2x":"https:\/\/images.pexels.com\/photos\/12203736\/pexels-photo-12203736.jpeg?auto=compress&cs=tinysrgb&dpr=2&h=650&w=940","large":"https:\/\/images.pexels.com\/photos\/12203736\/pexels-photo-12203736.jpeg?auto=compress&cs=tinysrgb&h=650&w=940","medium":"https:\/\/images.pexels.com\/photos\/12203736\/pexels-photo-12203736.jpeg?auto=compress&cs=tinysrgb&h=350","small":"https:\/\/images.pexels.com\/photos\/12203736\/pexels-photo-12203736.jpeg?auto=compress&cs=tinysrgb&h=130","portrait":"https:\/\/images.pexels.com\/photos\/12203736\/pexels-photo-12203736.jpeg?auto=compress&cs=tinysrgb&fit=crop&h=1200&w=800","landscape":"https:\/\/images.pexels.com\/photos\/12203736\/pexels-photo-12203736.jpeg?auto=compress&cs=tinysrgb&fit=crop&h=627&w=1200","tiny":"https:\/\/images.pexels.com\/photos\/12203736\/pexels-photo-12203736.jpeg?auto=compress&cs=tinysrgb&dpr=1&fit=crop&h=200&w=280"},"liked":false,"alt":"Cars at a city intersection with traffic lights under clear sky."},{"id":16208801,"width":6000,"height":4000,"url":"https:\/\/www.pexels.com\/photo\/bus-on-a-street-16208801\/","photographer":"Arturo A\u00f1ez.","photographer_url":"https:\/\/www.pexels.com\/@arturoaez225","photographer_id":26952428,"avg_color":"#646055","src":{"original":"https:\/\/images.pexels.com\/photos\/16208801\/pexels-photo-16208801.jpeg","large2x":"https:\/\/images.pexels.com\/photos\/16208801\/pexels-photo-16208801.jpeg?auto=compress&cs=tinysrgb&dpr=2&h=650&w=940","large":"https:\/\/images.pexels.com\/photos\/16208801\/pexels-photo-16208801.jpeg?auto=compress&cs=tinysrgb&h=650&w=940","medium":"https:\/\/images.pexels.com\/photos\/16208801\/pexels-photo-16208801.jpeg?auto=compress&cs=tinysrgb&h=350","small":"https:\/\/images.pexels.com\/photos\/16208801\/pexels-photo-16208801.jpeg?auto=compress&cs=tinysrgb&h=130","portrait":"https:\/\/images.pexels.com\/photos\/16208801\/pexels-photo-16208801.jpeg?auto=compress&cs=tinysrgb&fit=crop&h=1200&w=800","landscape":"https:\/\/images.pexels.com\/photos\/16208801\/pexels-photo-16208801.jpeg?auto=compress&cs=tinysrgb&fit=crop&h=627&w=1200","tiny":"https:\/\/images.pexels.com\/photos\/16208801\/pexels-photo-16208801.jpeg?auto=compress&cs=tinysrgb&dpr=1&fit=crop&h=200&w=280"},"liked":false,"alt":"A vibrant urban street in M\u00e9rida, Venezuela, showcasing daily life under bright sunlight."},{"id":33365324,"width":3703,"height":5555,"url":"https:\/\/www.pexels.com\/photo\/street-scene-outside-mercado-juarez-mexico-33365324\/","photographer":"Alex Quezada","photographer_url":"https:\/\/www.pexels.com\/@alexquezada","photographer_id":24040751,"avg_color":"#768580","src":{"original":"https:\/\/images.pexels.com\/photos\/33365324\/pexels-photo-33365324.jpeg","large2x":"https:\/\/images.pexels.com\/photos\/33365324\/pexels-photo-33365324.jpeg?auto=compress&cs=tinysrgb&dpr=2&h=650&w=940","large":"https:\/\/images.pexels.com\/photos\/33365324\/pexels-photo-33365324.jpeg?auto=compress&cs=tinysrgb&h=650&w=940","medium":"https:\/\/images.pexels.com\/photos\/33365324\/pexels-photo-33365324.jpeg?auto=compress&cs=tinysrgb&h=350","small":"https:\/\/images.pexels.com\/photos\/33365324\/pexels-photo-33365324.jpeg?auto=compress&cs=tinysrgb&h=130","portrait":"https:\/\/images.pexels.com\/photos\/33365324\/pexels-photo-33365324.jpeg?auto=compress&cs=tinysrgb&fit=crop&h=1200&w=800","landscape":"https:\/\/images.pexels.com\/photos\/33365324\/pexels-photo-33365324.jpeg?auto=compress&cs=tinysrgb&fit=crop&h=627&w=1200","tiny":"https:\/\/images.pexels.com\/photos\/33365324\/pexels-photo-33365324.jpeg?auto=compress&cs=tinysrgb&dpr=1&fit=crop&h=200&w=280"},"liked":false,"alt":"People and cars outside Mercado Ju\u00e1rez on a sunny day capturing urban life."},{"id":20820017,"width":2762,"height":3453,"url":"https:\/\/www.pexels.com\/photo\/man-walking-with-dog-among-trees-in-sunlight-20820017\/","photographer":"Rodolfo G\u00e1lvez","photographer_url":"https:\/\/www.pexels.com\/@rodolfogalvezz","photographer_id":617977599,"avg_color":"#6E6852","src":{"original":"https:\/\/images.pexels.com\/photos\/20820017\/pexels-photo-20820017.jpeg","large2x":"https:\/\/images.pexels.com\/photos\/20820017\/pexels-photo-20820017.jpeg?auto=compress&cs=tinysrgb&dpr=2&h=650&w=940","large":"https:\/\/images.pexels.com\/photos\/20820017\/pexels-photo-20820017.jpeg?auto=compress&cs=tinysrgb&h=650&w=940","medium":"https:\/\/images.pexels.com\/photos\/20820017\/pexels-photo-20820017.jpeg?auto=compress&cs=tinysrgb&h=350","small":"https:\/\/images.pexels.com\/photos\/20820017\/pexels-photo-20820017.jpeg?auto=compress&cs=tinysrgb&h=130","portrait":"https:\/\/images.pexels.com\/photos\/20820017\/pexels-photo-20820017.jpeg?auto=compress&cs=tinysrgb&fit=crop&h=1200&w=800","landscape":"https:\/\/images.pexels.com\/photos\/20820017\/pexels-photo-20820017.jpeg?auto=compress&cs=tinysrgb&fit=crop&h=627&w=1200","tiny":"https:\/\/images.pexels.com\/photos\/20820017\/pexels-photo-20820017.jpeg?auto=compress&cs=tinysrgb&dpr=1&fit=crop&h=200&w=280"},"liked":false,"alt":"Man walking under sunlit trees on a street in Le\u00f3n, Gto., M\u00e9xico."},{"id":13469551,"width":3648,"height":5472,"url":"https:\/\/www.pexels.com\/photo\/busy-street-in-town-centre-13469551\/","photographer":"Moises  Caro | Photographer","photographer_url":"https:\/\/www.pexels.com\/@moises-caro-photographer-296475578","photographer_id":296475578,"avg_color":"#6C5E51","src":{"original":"https:\/\/images.pexels.com\/photos\/13469551\/pexels-photo-13469551.jpeg","large2x":"https:\/\/images.pexels.com\/photos\/13469551\/pexels-photo-13469551.jpeg?auto=compress&cs=tinysrgb&dpr=2&h=650&w=940","large":"https:\/\/images.pexels.com\/photos\/13469551\/pexels-photo-13469551.jpeg?auto=compress&cs=tinysrgb&h=650&w=940","medium":"https:\/\/images.pexels.com\/photos\/13469551\/pexels-photo-13469551.jpeg?auto=compress&cs=tinysrgb&h=350","small":"https:\/\/images.pexels.com\/photos\/13469551\/pexels-photo-13469551.jpeg?auto=compress&cs=tinysrgb&h=130","portrait":"https:\/\/images.pexels.com\/photos\/13469551\/pexels-photo-13469551.jpeg?auto=compress&cs=tinysrgb&fit=crop&h=1200&w=800","landscape":"https:\/\/images.pexels.com\/photos\/13469551\/pexels-photo-13469551.jpeg?auto=compress&cs=tinysrgb&fit=crop&h=627&w=1200","tiny":"https:\/\/images.pexels.com\/photos\/13469551\/pexels-photo-13469551.jpeg?auto=compress&cs=tinysrgb&dpr=1&fit=crop&h=200&w=280"},"liked":false,"alt":"Busy street in M\u00e9rida, Yucatan, Mexico, featuring classic architecture and urban life."},{"id":35238332,"width":7290,"height":4862,"url":"https:\/\/www.pexels.com\/photo\/leon-cathedral-illuminated-at-night-35238332\/","photographer":"Ramon Perucho","photographer_url":"https:\/\/www.pexels.com\/@rperucho","photographer_id":466603,"avg_color":"#594731","src":{"original":"https:\/\/images.pexels.com\/photos\/35238332\/pexels-photo-35238332.jpeg","large2x":"https:\/\/images.pexels.com\/photos\/35238332\/pexels-photo-35238332.jpeg?auto=compress&cs=tinysrgb&dpr=2&h=650&w=940","large":"https:\/\/images.pexels.com\/photos\/35238332\/pexels-photo-35238332.jpeg?auto=compress&cs=tinysrgb&h=650&w=940","medium":"https:\/\/images.pexels.com\/photos\/35238332\/pexels-photo-35238332.jpeg?auto=compress&cs=tinysrgb&h=350","small":"https:\/\/images.pexels.com\/photos\/35238332\/pexels-photo-35238332.jpeg?auto=compress&cs=tinysrgb&h=130","portrait":"https:\/\/images.pexels.com\/photos\/35238332\/pexels-photo-35238332.jpeg?auto=compress&cs=tinysrgb&fit=crop&h=1200&w=800","landscape":"https:\/\/images.pexels.com\/photos\/35238332\/pexels-photo-35238332.jpeg?auto=compress&cs=tinysrgb&fit=crop&h=627&w=1200","tiny":"https:\/\/images.pexels.com\/photos\/35238332\/pexels-photo-35238332.jpeg?auto=compress&cs=tinysrgb&dpr=1&fit=crop&h=200&w=280"},"liked":false,"alt":"Stunning view of Le\u00f3n Cathedral's gothic architecture under night lights."},{"id":28889000,"width":3986,"height":5979,"url":"https:\/\/www.pexels.com\/photo\/urban-street-scene-with-local-shopfront-28889000\/","photographer":"Alex Quezada","photographer_url":"https:\/\/www.pexels.com\/@alexquezada","photographer_id":24040751,"avg_color":"#83745F","src":{"original":"https:\/\/images.pexels.com\/photos\/28889000\/pexels-photo-28889000.jpeg","large2x":"https:\/\/images.pexels.com\/photos\/28889000\/pexels-photo-28889000.jpeg?auto=compress&cs=tinysrgb&dpr=2&h=650&w=940","large":"https:\/\/images.pexels.com\/photos\/28889000\/pexels-photo-28889000.jpeg?auto=compress&cs=tinysrgb&h=650&w=940","medium":"https:\/\/images.pexels.com\/photos\/28889000\/pexels-photo-28889000.jpeg?auto=compress&cs=tinysrgb&h=350","small":"https:\/\/images.pexels.com\/photos\/28889000\/pexels-photo-28889000.jpeg?auto=compress&cs=tinysrgb&h=130","portrait":"https:\/\/images.pexels.com\/photos\/28889000\/pexels-photo-28889000.jpeg?auto=compress&cs=tinysrgb&fit=crop&h=1200&w=800","landscape":"https:\/\/images.pexels.com\/photos\/28889000\/pexels-photo-28889000.jpeg?auto=compress&cs=tinysrgb&fit=crop&h=627&w=1200","tiny":"https:\/\/images.pexels.com\/photos\/28889000\/pexels-photo-28889000.jpeg?auto=compress&cs=tinysrgb&dpr=1&fit=crop&h=200&w=280"},"liked":false,"alt":"A bustling urban street with a person walking by a shop featuring vibrant signage."},{"id":11634263,"width":3426,"height":4975,"url":"https:\/\/www.pexels.com\/photo\/white-concrete-building-11634263\/","photographer":"Denis Zagorodniuc","photographer_url":"https:\/\/www.pexels.com\/@imdennyz","photographer_id":784089,"avg_color":"#5F6C75","src":{"original":"https:\/\/images.pexels.com\/photos\/11634263\/pexels-photo-11634263.jpeg","large2x":"https:\/\/images.pexels.com\/photos\/11634263\/pexels-photo-11634263.jpeg?auto=compress&cs=tinysrgb&dpr=2&h=650&w=940","large":"https:\/\/images.pexels.com\/photos\/11634263\/pexels-photo-11634263.jpeg?auto=compress&cs=tinysrgb&h=650&w=940","medium":"https:\/\/images.pexels.com\/photos\/11634263\/pexels-photo-11634263.jpeg?auto=compress&cs=tinysrgb&h=350","small":"https:\/\/images.pexels.com\/photos\/11634263\/pexels-photo-11634263.jpeg?auto=compress&cs=tinysrgb&h=130","portrait":"https:\/\/images.pexels.com\/photos\/11634263\/pexels-photo-11634263.jpeg?auto=compress&cs=tinysrgb&fit=crop&h=1200&w=800","landscape":"https:\/\/images.pexels.com\/photos\/11634263\/pexels-photo-11634263.jpeg?auto=compress&cs=tinysrgb&fit=crop&h=627&w=1200","tiny":"https:\/\/images.pexels.com\/photos\/11634263\/pexels-photo-11634263.jpeg?auto=compress&cs=tinysrgb&dpr=1&fit=crop&h=200&w=280"},"liked":false,"alt":"A vibrant urban street scene featuring residential buildings, clear blue sky, and street graffiti."},{"id":794907,"width":6016,"height":4000,"url":"https:\/\/www.pexels.com\/photo\/woman-in-black-t-shirt-blue-washed-denim-jeans-and-pair-of-pink-inline-skates-skating-in-street-794907\/","photographer":"Genaro Serv\u00edn","photographer_url":"https:\/\/www.pexels.com\/@gesel","photographer_id":250108,"avg_color":"#928E87","src":{"original":"https:\/\/images.pexels.com\/photos\/794907\/pexels-photo-794907.jpeg","large2x":"https:\/\/images.pexels.com\/photos\/794907\/pexels-photo-794907.jpeg?auto=compress&cs=tinysrgb&dpr=2&h=650&w=940","large":"https:\/\/images.pexels.com\/photos\/794907\/pexels-photo-794907.jpeg?auto=compress&cs=tinysrgb&h=650&w=940","medium":"https:\/\/images.pexels.com\/photos\/794907\/pexels-photo-794907.jpeg?auto=compress&cs=tinysrgb&h=350","small":"https:\/\/images.pexels.com\/photos\/794907\/pexels-photo-794907.jpeg?auto=compress&cs=tinysrgb&h=130","portrait":"https:\/\/images.pexels.com\/photos\/794907\/pexels-photo-794907.jpeg?auto=compress&cs=tinysrgb&fit=crop&h=1200&w=800","landscape":"https:\/\/images.pexels.com\/photos\/794907\/pexels-photo-794907.jpeg?auto=compress&cs=tinysrgb&fit=crop&h=627&w=1200","tiny":"https:\/\/images.pexels.com\/photos\/794907\/pexels-photo-794907.jpeg?auto=compress&cs=tinysrgb&dpr=1&fit=crop&h=200&w=280"},"liked":false,"alt":"A vibrant urban street scene with a woman roller skating amidst pedestrians and traffic during the day."},{"id":19598317,"width":5477,"height":3651,"url":"https:\/\/www.pexels.com\/photo\/expiatory-sanctuary-of-the-sacred-heart-of-jesus-in-leon-in-mexico-19598317\/","photographer":"Amar  Preciado","photographer_url":"https:\/\/www.pexels.com\/@amar","photographer_id":2247381,"avg_color":"#414B4C","src":{"original":"https:\/\/images.pexels.com\/photos\/19598317\/pexels-photo-19598317.jpeg","large2x":"https:\/\/images.pexels.com\/photos\/19598317\/pexels-photo-19598317.jpeg?auto=compress&cs=tinysrgb&dpr=2&h=650&w=940","large":"https:\/\/images.pexels.com\/photos\/19598317\/pexels-photo-19598317.jpeg?auto=compress&cs=tinysrgb&h=650&w=940","medium":"https:\/\/images.pexels.com\/photos\/19598317\/pexels-photo-19598317.jpeg?auto=compress&cs=tinysrgb&h=350","small":"https:\/\/images.pexels.com\/photos\/19598317\/pexels-photo-19598317.jpeg?auto=compress&cs=tinysrgb&h=130","portrait":"https:\/\/images.pexels.com\/photos\/19598317\/pexels-photo-19598317.jpeg?auto=compress&cs=tinysrgb&fit=crop&h=1200&w=800","landscape":"https:\/\/images.pexels.com\/photos\/19598317\/pexels-photo-19598317.jpeg?auto=compress&cs=tinysrgb&fit=crop&h=627&w=1200","tiny":"https:\/\/images.pexels.com\/photos\/19598317\/pexels-photo-19598317.jpeg?auto=compress&cs=tinysrgb&dpr=1&fit=crop&h=200&w=280"},"liked":false,"alt":"Captivating nighttime image of Le\u00f3n Cathedral, showcasing its stunning Neo-Gothic architecture."},{"id":14566306,"width":4000,"height":6000,"url":"https:\/\/www.pexels.com\/photo\/people-walking-on-street-sidewalk-of-a-public-market-14566306\/","photographer":"Moises  Caro | Photographer","photographer_url":"https:\/\/www.pexels.com\/@moises-caro-photographer-296475578","photographer_id":296475578,"avg_color":"#6F8583","src":{"original":"https:\/\/images.pexels.com\/photos\/14566306\/pexels-photo-14566306.jpeg","large2x":"https:\/\/images.pexels.com\/photos\/14566306\/pexels-photo-14566306.jpeg?auto=compress&cs=tinysrgb&dpr=2&h=650&w=940","large":"https:\/\/images.pexels.com\/photos\/14566306\/pexels-photo-14566306.jpeg?auto=compress&cs=tinysrgb&h=650&w=940","medium":"https:\/\/images.pexels.com\/photos\/14566306\/pexels-photo-14566306.jpeg?auto=compress&cs=tinysrgb&h=350","small":"https:\/\/images.pexels.com\/photos\/14566306\/pexels-photo-14566306.jpeg?auto=compress&cs=tinysrgb&h=130","portrait":"https:\/\/images.pexels.com\/photos\/14566306\/pexels-photo-14566306.jpeg?auto=compress&cs=tinysrgb&fit=crop&h=1200&w=800","landscape":"https:\/\/images.pexels.com\/photos\/14566306\/pexels-photo-14566306.jpeg?auto=compress&cs=tinysrgb&fit=crop&h=627&w=1200","tiny":"https:\/\/images.pexels.com\/photos\/14566306\/pexels-photo-14566306.jpeg?auto=compress&cs=tinysrgb&dpr=1&fit=crop&h=200&w=280"},"liked":false,"alt":"A lively street market scene featuring historic buildings and people exploring shops."},{"id":35659497,"width":2848,"height":4272,"url":"https:\/\/www.pexels.com\/photo\/bustling-street-scene-in-historic-city-center-35659497\/","photographer":"Dan Herrera","photographer_url":"https:\/\/www.pexels.com\/@dan-herrera-207148301","photographer_id":207148301,"avg_color":"#AFABA8","src":{"original":"https:\/\/images.pexels.com\/photos\/35659497\/pexels-photo-35659497.jpeg","large2x":"https:\/\/images.pexels.com\/photos\/35659497\/pexels-photo-35659497.jpeg?auto=compress&cs=tinysrgb&dpr=2&h=650&w=940","large":"https:\/\/images.pexels.com\/photos\/35659497\/pexels-photo-35659497.jpeg?auto=compress&cs=tinysrgb&h=650&w=940","medium":"https:\/\/images.pexels.com\/photos\/35659497\/pexels-photo-35659497.jpeg?auto=compress&cs=tinysrgb&h=350","small":"https:\/\/images.pexels.com\/photos\/35659497\/pexels-photo-35659497.jpeg?auto=compress&cs=tinysrgb&h=130","portrait":"https:\/\/images.pexels.com\/photos\/35659497\/pexels-photo-35659497.jpeg?auto=compress&cs=tinysrgb&fit=crop&h=1200&w=800","landscape":"https:\/\/images.pexels.com\/photos\/35659497\/pexels-photo-35659497.jpeg?auto=compress&cs=tinysrgb&fit=crop&h=627&w=1200","tiny":"https:\/\/images.pexels.com\/photos\/35659497\/pexels-photo-35659497.jpeg?auto=compress&cs=tinysrgb&dpr=1&fit=crop&h=200&w=280"},"liked":false,"alt":"Vibrant city street with motorcyclist and historic buildings in urban setting."},{"id":13160090,"width":4000,"height":6000,"url":"https:\/\/www.pexels.com\/photo\/people-walking-on-sidewalk-13160090\/","photographer":"FranDany","photographer_url":"https:\/\/www.pexels.com\/@frandany-227885104","photographer_id":227885104,"avg_color":"#705D61","src":{"original":"https:\/\/images.pexels.com\/photos\/13160090\/pexels-photo-13160090.jpeg","large2x":"https:\/\/images.pexels.com\/photos\/13160090\/pexels-photo-13160090.jpeg?auto=compress&cs=tinysrgb&dpr=2&h=650&w=940","large":"https:\/\/images.pexels.com\/photos\/13160090\/pexels-photo-13160090.jpeg?auto=compress&cs=tinysrgb&h=650&w=940","medium":"https:\/\/images.pexels.com\/photos\/13160090\/pexels-photo-13160090.jpeg?auto=compress&cs=tinysrgb&h=350","small":"https:\/\/images.pexels.com\/photos\/13160090\/pexels-photo-13160090.jpeg?auto=compress&cs=tinysrgb&h=130","portrait":"https:\/\/images.pexels.com\/photos\/13160090\/pexels-photo-13160090.jpeg?auto=compress&cs=tinysrgb&fit=crop&h=1200&w=800","landscape":"https:\/\/images.pexels.com\/photos\/13160090\/pexels-photo-13160090.jpeg?auto=compress&cs=tinysrgb&fit=crop&h=627&w=1200","tiny":"https:\/\/images.pexels.com\/photos\/13160090\/pexels-photo-13160090.jpeg?auto=compress&cs=tinysrgb&dpr=1&fit=crop&h=200&w=280"},"liked":false,"alt":"Urban street corner with busy pedestrian traffic and a local shopfront on a sunny day."},{"id":36503562,"width":9520,"height":6336,"url":"https:\/\/www.pexels.com\/photo\/street-food-vendor-in-trujillo-peru-36503562\/","photographer":"Joshuan Barboza","photographer_url":"https:\/\/www.pexels.com\/@jbarbozameca","photographer_id":2160057633,"avg_color":"#5D6C71","src":{"original":"https:\/\/images.pexels.com\/photos\/36503562\/pexels-photo-36503562.jpeg","large2x":"https:\/\/images.pexels.com\/photos\/36503562\/pexels-photo-36503562.jpeg?auto=compress&cs=tinysrgb&dpr=2&h=650&w=940","large":"https:\/\/images.pexels.com\/photos\/36503562\/pexels-photo-36503562.jpeg?auto=compress&cs=tinysrgb&h=650&w=940","medium":"https:\/\/images.pexels.com\/photos\/36503562\/pexels-photo-36503562.jpeg?auto=compress&cs=tinysrgb&h=350","small":"https:\/\/images.pexels.com\/photos\/36503562\/pexels-photo-36503562.jpeg?auto=compress&cs=tinysrgb&h=130","portrait":"https:\/\/images.pexels.com\/photos\/36503562\/pexels-photo-36503562.jpeg?auto=compress&cs=tinysrgb&fit=crop&h=1200&w=800","landscape":"https:\/\/images.pexels.com\/photos\/36503562\/pexels-photo-36503562.jpeg?auto=compress&cs=tinysrgb&fit=crop&h=627&w=1200","tiny":"https:\/\/images.pexels.com\/photos\/36503562\/pexels-photo-36503562.jpeg?auto=compress&cs=tinysrgb&dpr=1&fit=crop&h=200&w=280"},"liked":false,"alt":"A bustling street food stand in Trujillo, Peru under a blue canopy on a sunny day."}],"total_results":5172,"next_page":"https:\/\/api.pexels.com\/v1\/v1\/search?page=2&per_page=15&query=leon"}