{"page":1,"per_page":15,"photos":[{"id":7041203,"width":3024,"height":4032,"url":"https:\/\/www.pexels.com\/photo\/white-dolphins-swimming-under-water-7041203\/","photographer":"Owen Bowers","photographer_url":"https:\/\/www.pexels.com\/@owen-bowers-30984375","photographer_id":30984375,"avg_color":"#1F7690","src":{"original":"https:\/\/images.pexels.com\/photos\/7041203\/pexels-photo-7041203.jpeg","large2x":"https:\/\/images.pexels.com\/photos\/7041203\/pexels-photo-7041203.jpeg?auto=compress&cs=tinysrgb&dpr=2&h=650&w=940","large":"https:\/\/images.pexels.com\/photos\/7041203\/pexels-photo-7041203.jpeg?auto=compress&cs=tinysrgb&h=650&w=940","medium":"https:\/\/images.pexels.com\/photos\/7041203\/pexels-photo-7041203.jpeg?auto=compress&cs=tinysrgb&h=350","small":"https:\/\/images.pexels.com\/photos\/7041203\/pexels-photo-7041203.jpeg?auto=compress&cs=tinysrgb&h=130","portrait":"https:\/\/images.pexels.com\/photos\/7041203\/pexels-photo-7041203.jpeg?auto=compress&cs=tinysrgb&fit=crop&h=1200&w=800","landscape":"https:\/\/images.pexels.com\/photos\/7041203\/pexels-photo-7041203.jpeg?auto=compress&cs=tinysrgb&fit=crop&h=627&w=1200","tiny":"https:\/\/images.pexels.com\/photos\/7041203\/pexels-photo-7041203.jpeg?auto=compress&cs=tinysrgb&dpr=1&fit=crop&h=200&w=280"},"liked":false,"alt":"Majestic beluga whales swimming gracefully underwater in a serene aquatic environment."},{"id":11342048,"width":5472,"height":3648,"url":"https:\/\/www.pexels.com\/photo\/dolphin-s-tail-on-water-11342048\/","photographer":"Magda Ehlers","photographer_url":"https:\/\/www.pexels.com\/@magda-ehlers-pexels","photographer_id":102775,"avg_color":"#1C97DD","src":{"original":"https:\/\/images.pexels.com\/photos\/11342048\/pexels-photo-11342048.jpeg","large2x":"https:\/\/images.pexels.com\/photos\/11342048\/pexels-photo-11342048.jpeg?auto=compress&cs=tinysrgb&dpr=2&h=650&w=940","large":"https:\/\/images.pexels.com\/photos\/11342048\/pexels-photo-11342048.jpeg?auto=compress&cs=tinysrgb&h=650&w=940","medium":"https:\/\/images.pexels.com\/photos\/11342048\/pexels-photo-11342048.jpeg?auto=compress&cs=tinysrgb&h=350","small":"https:\/\/images.pexels.com\/photos\/11342048\/pexels-photo-11342048.jpeg?auto=compress&cs=tinysrgb&h=130","portrait":"https:\/\/images.pexels.com\/photos\/11342048\/pexels-photo-11342048.jpeg?auto=compress&cs=tinysrgb&fit=crop&h=1200&w=800","landscape":"https:\/\/images.pexels.com\/photos\/11342048\/pexels-photo-11342048.jpeg?auto=compress&cs=tinysrgb&fit=crop&h=627&w=1200","tiny":"https:\/\/images.pexels.com\/photos\/11342048\/pexels-photo-11342048.jpeg?auto=compress&cs=tinysrgb&dpr=1&fit=crop&h=200&w=280"},"liked":false,"alt":"Captivating image of a dolphin tail splashing in vibrant blue ocean waters, capturing dynamic motion."},{"id":31179443,"width":6000,"height":4000,"url":"https:\/\/www.pexels.com\/photo\/majestic-whale-tail-in-santa-cruz-waterscape-31179443\/","photographer":"Michal Va\u0161ko","photographer_url":"https:\/\/www.pexels.com\/@wacho","photographer_id":2150516696,"avg_color":"#8AA4C5","src":{"original":"https:\/\/images.pexels.com\/photos\/31179443\/pexels-photo-31179443.jpeg","large2x":"https:\/\/images.pexels.com\/photos\/31179443\/pexels-photo-31179443.jpeg?auto=compress&cs=tinysrgb&dpr=2&h=650&w=940","large":"https:\/\/images.pexels.com\/photos\/31179443\/pexels-photo-31179443.jpeg?auto=compress&cs=tinysrgb&h=650&w=940","medium":"https:\/\/images.pexels.com\/photos\/31179443\/pexels-photo-31179443.jpeg?auto=compress&cs=tinysrgb&h=350","small":"https:\/\/images.pexels.com\/photos\/31179443\/pexels-photo-31179443.jpeg?auto=compress&cs=tinysrgb&h=130","portrait":"https:\/\/images.pexels.com\/photos\/31179443\/pexels-photo-31179443.jpeg?auto=compress&cs=tinysrgb&fit=crop&h=1200&w=800","landscape":"https:\/\/images.pexels.com\/photos\/31179443\/pexels-photo-31179443.jpeg?auto=compress&cs=tinysrgb&fit=crop&h=627&w=1200","tiny":"https:\/\/images.pexels.com\/photos\/31179443\/pexels-photo-31179443.jpeg?auto=compress&cs=tinysrgb&dpr=1&fit=crop&h=200&w=280"},"liked":false,"alt":"Whale tail emerges in Santa Cruz ocean, surrounded by lively marine life and seagulls."},{"id":9479348,"width":4108,"height":2739,"url":"https:\/\/www.pexels.com\/photo\/black-whale-on-water-9479348\/","photographer":"Kalei garcia","photographer_url":"https:\/\/www.pexels.com\/@kalei-garcia-104294085","photographer_id":104294085,"avg_color":"#B2BCC5","src":{"original":"https:\/\/images.pexels.com\/photos\/9479348\/pexels-photo-9479348.jpeg","large2x":"https:\/\/images.pexels.com\/photos\/9479348\/pexels-photo-9479348.jpeg?auto=compress&cs=tinysrgb&dpr=2&h=650&w=940","large":"https:\/\/images.pexels.com\/photos\/9479348\/pexels-photo-9479348.jpeg?auto=compress&cs=tinysrgb&h=650&w=940","medium":"https:\/\/images.pexels.com\/photos\/9479348\/pexels-photo-9479348.jpeg?auto=compress&cs=tinysrgb&h=350","small":"https:\/\/images.pexels.com\/photos\/9479348\/pexels-photo-9479348.jpeg?auto=compress&cs=tinysrgb&h=130","portrait":"https:\/\/images.pexels.com\/photos\/9479348\/pexels-photo-9479348.jpeg?auto=compress&cs=tinysrgb&fit=crop&h=1200&w=800","landscape":"https:\/\/images.pexels.com\/photos\/9479348\/pexels-photo-9479348.jpeg?auto=compress&cs=tinysrgb&fit=crop&h=627&w=1200","tiny":"https:\/\/images.pexels.com\/photos\/9479348\/pexels-photo-9479348.jpeg?auto=compress&cs=tinysrgb&dpr=1&fit=crop&h=200&w=280"},"liked":false,"alt":"A humpback whale's tail rises gracefully from the ocean amidst a serene seascape."},{"id":33713339,"width":3095,"height":4642,"url":"https:\/\/www.pexels.com\/photo\/dolphin-swimming-in-madeira-s-ocean-33713339\/","photographer":"Liane Ferreira","photographer_url":"https:\/\/www.pexels.com\/@liane-ferreira-1033991071","photographer_id":1033991071,"avg_color":"#6098A7","src":{"original":"https:\/\/images.pexels.com\/photos\/33713339\/pexels-photo-33713339.jpeg","large2x":"https:\/\/images.pexels.com\/photos\/33713339\/pexels-photo-33713339.jpeg?auto=compress&cs=tinysrgb&dpr=2&h=650&w=940","large":"https:\/\/images.pexels.com\/photos\/33713339\/pexels-photo-33713339.jpeg?auto=compress&cs=tinysrgb&h=650&w=940","medium":"https:\/\/images.pexels.com\/photos\/33713339\/pexels-photo-33713339.jpeg?auto=compress&cs=tinysrgb&h=350","small":"https:\/\/images.pexels.com\/photos\/33713339\/pexels-photo-33713339.jpeg?auto=compress&cs=tinysrgb&h=130","portrait":"https:\/\/images.pexels.com\/photos\/33713339\/pexels-photo-33713339.jpeg?auto=compress&cs=tinysrgb&fit=crop&h=1200&w=800","landscape":"https:\/\/images.pexels.com\/photos\/33713339\/pexels-photo-33713339.jpeg?auto=compress&cs=tinysrgb&fit=crop&h=627&w=1200","tiny":"https:\/\/images.pexels.com\/photos\/33713339\/pexels-photo-33713339.jpeg?auto=compress&cs=tinysrgb&dpr=1&fit=crop&h=200&w=280"},"liked":false,"alt":"A dolphin swimming in the vibrant blue waters near Madeira, Portugal."},{"id":3695720,"width":4658,"height":3342,"url":"https:\/\/www.pexels.com\/photo\/two-black-and-white-dolphins-on-body-of-water-3695720\/","photographer":"Dianne Maddox","photographer_url":"https:\/\/www.pexels.com\/@dianne-maddox-2069639","photographer_id":2069639,"avg_color":"#697280","src":{"original":"https:\/\/images.pexels.com\/photos\/3695720\/pexels-photo-3695720.jpeg","large2x":"https:\/\/images.pexels.com\/photos\/3695720\/pexels-photo-3695720.jpeg?auto=compress&cs=tinysrgb&dpr=2&h=650&w=940","large":"https:\/\/images.pexels.com\/photos\/3695720\/pexels-photo-3695720.jpeg?auto=compress&cs=tinysrgb&h=650&w=940","medium":"https:\/\/images.pexels.com\/photos\/3695720\/pexels-photo-3695720.jpeg?auto=compress&cs=tinysrgb&h=350","small":"https:\/\/images.pexels.com\/photos\/3695720\/pexels-photo-3695720.jpeg?auto=compress&cs=tinysrgb&h=130","portrait":"https:\/\/images.pexels.com\/photos\/3695720\/pexels-photo-3695720.jpeg?auto=compress&cs=tinysrgb&fit=crop&h=1200&w=800","landscape":"https:\/\/images.pexels.com\/photos\/3695720\/pexels-photo-3695720.jpeg?auto=compress&cs=tinysrgb&fit=crop&h=627&w=1200","tiny":"https:\/\/images.pexels.com\/photos\/3695720\/pexels-photo-3695720.jpeg?auto=compress&cs=tinysrgb&dpr=1&fit=crop&h=200&w=280"},"liked":false,"alt":"Two orcas gracefully swimming in the Pacific Ocean, Alaska."},{"id":11470709,"width":4259,"height":2840,"url":"https:\/\/www.pexels.com\/photo\/killer-whale-on-the-sea-11470709\/","photographer":"marnock","photographer_url":"https:\/\/www.pexels.com\/@marnock-66354018","photographer_id":66354018,"avg_color":"#5E89AC","src":{"original":"https:\/\/images.pexels.com\/photos\/11470709\/pexels-photo-11470709.jpeg","large2x":"https:\/\/images.pexels.com\/photos\/11470709\/pexels-photo-11470709.jpeg?auto=compress&cs=tinysrgb&dpr=2&h=650&w=940","large":"https:\/\/images.pexels.com\/photos\/11470709\/pexels-photo-11470709.jpeg?auto=compress&cs=tinysrgb&h=650&w=940","medium":"https:\/\/images.pexels.com\/photos\/11470709\/pexels-photo-11470709.jpeg?auto=compress&cs=tinysrgb&h=350","small":"https:\/\/images.pexels.com\/photos\/11470709\/pexels-photo-11470709.jpeg?auto=compress&cs=tinysrgb&h=130","portrait":"https:\/\/images.pexels.com\/photos\/11470709\/pexels-photo-11470709.jpeg?auto=compress&cs=tinysrgb&fit=crop&h=1200&w=800","landscape":"https:\/\/images.pexels.com\/photos\/11470709\/pexels-photo-11470709.jpeg?auto=compress&cs=tinysrgb&fit=crop&h=627&w=1200","tiny":"https:\/\/images.pexels.com\/photos\/11470709\/pexels-photo-11470709.jpeg?auto=compress&cs=tinysrgb&dpr=1&fit=crop&h=200&w=280"},"liked":false,"alt":"A serene view of an orca swimming below the surface in Telegraph Cove, Canada."},{"id":14342621,"width":4615,"height":3077,"url":"https:\/\/www.pexels.com\/photo\/whale-on-body-of-water-14342621\/","photographer":"Luc","photographer_url":"https:\/\/www.pexels.com\/@luc-241207200","photographer_id":241207200,"avg_color":"#595E62","src":{"original":"https:\/\/images.pexels.com\/photos\/14342621\/pexels-photo-14342621.jpeg","large2x":"https:\/\/images.pexels.com\/photos\/14342621\/pexels-photo-14342621.jpeg?auto=compress&cs=tinysrgb&dpr=2&h=650&w=940","large":"https:\/\/images.pexels.com\/photos\/14342621\/pexels-photo-14342621.jpeg?auto=compress&cs=tinysrgb&h=650&w=940","medium":"https:\/\/images.pexels.com\/photos\/14342621\/pexels-photo-14342621.jpeg?auto=compress&cs=tinysrgb&h=350","small":"https:\/\/images.pexels.com\/photos\/14342621\/pexels-photo-14342621.jpeg?auto=compress&cs=tinysrgb&h=130","portrait":"https:\/\/images.pexels.com\/photos\/14342621\/pexels-photo-14342621.jpeg?auto=compress&cs=tinysrgb&fit=crop&h=1200&w=800","landscape":"https:\/\/images.pexels.com\/photos\/14342621\/pexels-photo-14342621.jpeg?auto=compress&cs=tinysrgb&fit=crop&h=627&w=1200","tiny":"https:\/\/images.pexels.com\/photos\/14342621\/pexels-photo-14342621.jpeg?auto=compress&cs=tinysrgb&dpr=1&fit=crop&h=200&w=280"},"liked":false,"alt":"A whale surfacing in the waters near Tadoussac, Quebec, Canada."},{"id":33641434,"width":2685,"height":4028,"url":"https:\/\/www.pexels.com\/photo\/humpback-whale-in-atlantic-ocean-massachusetts-33641434\/","photographer":"Jaylen Giachello","photographer_url":"https:\/\/www.pexels.com\/@jaylen-giachello-2155284247","photographer_id":2155284247,"avg_color":"#B6BAC6","src":{"original":"https:\/\/images.pexels.com\/photos\/33641434\/pexels-photo-33641434.jpeg","large2x":"https:\/\/images.pexels.com\/photos\/33641434\/pexels-photo-33641434.jpeg?auto=compress&cs=tinysrgb&dpr=2&h=650&w=940","large":"https:\/\/images.pexels.com\/photos\/33641434\/pexels-photo-33641434.jpeg?auto=compress&cs=tinysrgb&h=650&w=940","medium":"https:\/\/images.pexels.com\/photos\/33641434\/pexels-photo-33641434.jpeg?auto=compress&cs=tinysrgb&h=350","small":"https:\/\/images.pexels.com\/photos\/33641434\/pexels-photo-33641434.jpeg?auto=compress&cs=tinysrgb&h=130","portrait":"https:\/\/images.pexels.com\/photos\/33641434\/pexels-photo-33641434.jpeg?auto=compress&cs=tinysrgb&fit=crop&h=1200&w=800","landscape":"https:\/\/images.pexels.com\/photos\/33641434\/pexels-photo-33641434.jpeg?auto=compress&cs=tinysrgb&fit=crop&h=627&w=1200","tiny":"https:\/\/images.pexels.com\/photos\/33641434\/pexels-photo-33641434.jpeg?auto=compress&cs=tinysrgb&dpr=1&fit=crop&h=200&w=280"},"liked":false,"alt":"A humpback whale surfaces in the Atlantic near Massachusetts offering a stunning marine wildlife view."},{"id":22670211,"width":3936,"height":2648,"url":"https:\/\/www.pexels.com\/photo\/whale-in-ocean-22670211\/","photographer":"John Arellano Riera","photographer_url":"https:\/\/www.pexels.com\/@john-arellano-riera-1157206201","photographer_id":1157206201,"avg_color":"#2C6291","src":{"original":"https:\/\/images.pexels.com\/photos\/22670211\/pexels-photo-22670211.jpeg","large2x":"https:\/\/images.pexels.com\/photos\/22670211\/pexels-photo-22670211.jpeg?auto=compress&cs=tinysrgb&dpr=2&h=650&w=940","large":"https:\/\/images.pexels.com\/photos\/22670211\/pexels-photo-22670211.jpeg?auto=compress&cs=tinysrgb&h=650&w=940","medium":"https:\/\/images.pexels.com\/photos\/22670211\/pexels-photo-22670211.jpeg?auto=compress&cs=tinysrgb&h=350","small":"https:\/\/images.pexels.com\/photos\/22670211\/pexels-photo-22670211.jpeg?auto=compress&cs=tinysrgb&h=130","portrait":"https:\/\/images.pexels.com\/photos\/22670211\/pexels-photo-22670211.jpeg?auto=compress&cs=tinysrgb&fit=crop&h=1200&w=800","landscape":"https:\/\/images.pexels.com\/photos\/22670211\/pexels-photo-22670211.jpeg?auto=compress&cs=tinysrgb&fit=crop&h=627&w=1200","tiny":"https:\/\/images.pexels.com\/photos\/22670211\/pexels-photo-22670211.jpeg?auto=compress&cs=tinysrgb&dpr=1&fit=crop&h=200&w=280"},"liked":false,"alt":"A pilot whale emerges gently in the vibrant blue ocean, showcasing nature's majestic beauty."},{"id":34102838,"width":3392,"height":5088,"url":"https:\/\/www.pexels.com\/photo\/grey-seal-swimming-in-dublin-harbour-waters-34102838\/","photographer":"Jonathan Borba","photographer_url":"https:\/\/www.pexels.com\/@jonathanborba","photographer_id":1491594,"avg_color":"#5F7E81","src":{"original":"https:\/\/images.pexels.com\/photos\/34102838\/pexels-photo-34102838.jpeg","large2x":"https:\/\/images.pexels.com\/photos\/34102838\/pexels-photo-34102838.jpeg?auto=compress&cs=tinysrgb&dpr=2&h=650&w=940","large":"https:\/\/images.pexels.com\/photos\/34102838\/pexels-photo-34102838.jpeg?auto=compress&cs=tinysrgb&h=650&w=940","medium":"https:\/\/images.pexels.com\/photos\/34102838\/pexels-photo-34102838.jpeg?auto=compress&cs=tinysrgb&h=350","small":"https:\/\/images.pexels.com\/photos\/34102838\/pexels-photo-34102838.jpeg?auto=compress&cs=tinysrgb&h=130","portrait":"https:\/\/images.pexels.com\/photos\/34102838\/pexels-photo-34102838.jpeg?auto=compress&cs=tinysrgb&fit=crop&h=1200&w=800","landscape":"https:\/\/images.pexels.com\/photos\/34102838\/pexels-photo-34102838.jpeg?auto=compress&cs=tinysrgb&fit=crop&h=627&w=1200","tiny":"https:\/\/images.pexels.com\/photos\/34102838\/pexels-photo-34102838.jpeg?auto=compress&cs=tinysrgb&dpr=1&fit=crop&h=200&w=280"},"liked":false,"alt":"A close-up shot of a grey seal swimming in the clear waters of Dublin Harbour, Ireland."},{"id":12227132,"width":3888,"height":2592,"url":"https:\/\/www.pexels.com\/photo\/close-up-photo-of-dolphin-on-water-surface-12227132\/","photographer":"TonyNojmanSK","photographer_url":"https:\/\/www.pexels.com\/@tonynojmansk-186688133","photographer_id":186688133,"avg_color":"#3E5356","src":{"original":"https:\/\/images.pexels.com\/photos\/12227132\/pexels-photo-12227132.jpeg","large2x":"https:\/\/images.pexels.com\/photos\/12227132\/pexels-photo-12227132.jpeg?auto=compress&cs=tinysrgb&dpr=2&h=650&w=940","large":"https:\/\/images.pexels.com\/photos\/12227132\/pexels-photo-12227132.jpeg?auto=compress&cs=tinysrgb&h=650&w=940","medium":"https:\/\/images.pexels.com\/photos\/12227132\/pexels-photo-12227132.jpeg?auto=compress&cs=tinysrgb&h=350","small":"https:\/\/images.pexels.com\/photos\/12227132\/pexels-photo-12227132.jpeg?auto=compress&cs=tinysrgb&h=130","portrait":"https:\/\/images.pexels.com\/photos\/12227132\/pexels-photo-12227132.jpeg?auto=compress&cs=tinysrgb&fit=crop&h=1200&w=800","landscape":"https:\/\/images.pexels.com\/photos\/12227132\/pexels-photo-12227132.jpeg?auto=compress&cs=tinysrgb&fit=crop&h=627&w=1200","tiny":"https:\/\/images.pexels.com\/photos\/12227132\/pexels-photo-12227132.jpeg?auto=compress&cs=tinysrgb&dpr=1&fit=crop&h=200&w=280"},"liked":false,"alt":"Close-up of a cute dolphin swimming in the pristine waters of Mexico, showcasing its playful nature."},{"id":35015044,"width":3800,"height":2137,"url":"https:\/\/www.pexels.com\/photo\/dolphin-leaping-from-ocean-in-baja-california-35015044\/","photographer":"Nico Mar\u00edn","photographer_url":"https:\/\/www.pexels.com\/@nicomarinb","photographer_id":703142244,"avg_color":"#BAD0E5","src":{"original":"https:\/\/images.pexels.com\/photos\/35015044\/pexels-photo-35015044.jpeg","large2x":"https:\/\/images.pexels.com\/photos\/35015044\/pexels-photo-35015044.jpeg?auto=compress&cs=tinysrgb&dpr=2&h=650&w=940","large":"https:\/\/images.pexels.com\/photos\/35015044\/pexels-photo-35015044.jpeg?auto=compress&cs=tinysrgb&h=650&w=940","medium":"https:\/\/images.pexels.com\/photos\/35015044\/pexels-photo-35015044.jpeg?auto=compress&cs=tinysrgb&h=350","small":"https:\/\/images.pexels.com\/photos\/35015044\/pexels-photo-35015044.jpeg?auto=compress&cs=tinysrgb&h=130","portrait":"https:\/\/images.pexels.com\/photos\/35015044\/pexels-photo-35015044.jpeg?auto=compress&cs=tinysrgb&fit=crop&h=1200&w=800","landscape":"https:\/\/images.pexels.com\/photos\/35015044\/pexels-photo-35015044.jpeg?auto=compress&cs=tinysrgb&fit=crop&h=627&w=1200","tiny":"https:\/\/images.pexels.com\/photos\/35015044\/pexels-photo-35015044.jpeg?auto=compress&cs=tinysrgb&dpr=1&fit=crop&h=200&w=280"},"liked":false,"alt":"A dolphin captured mid-jump from the ocean against a bright sky in Baja California, Mexico."},{"id":25956366,"width":2632,"height":3949,"url":"https:\/\/www.pexels.com\/photo\/a-california-sea-lion-25956366\/","photographer":"Moln\u00e1r Tam\u00e1s Photography\u2122","photographer_url":"https:\/\/www.pexels.com\/@molnartamasphotography","photographer_id":219258494,"avg_color":"#7F8B89","src":{"original":"https:\/\/images.pexels.com\/photos\/25956366\/pexels-photo-25956366.jpeg","large2x":"https:\/\/images.pexels.com\/photos\/25956366\/pexels-photo-25956366.jpeg?auto=compress&cs=tinysrgb&dpr=2&h=650&w=940","large":"https:\/\/images.pexels.com\/photos\/25956366\/pexels-photo-25956366.jpeg?auto=compress&cs=tinysrgb&h=650&w=940","medium":"https:\/\/images.pexels.com\/photos\/25956366\/pexels-photo-25956366.jpeg?auto=compress&cs=tinysrgb&h=350","small":"https:\/\/images.pexels.com\/photos\/25956366\/pexels-photo-25956366.jpeg?auto=compress&cs=tinysrgb&h=130","portrait":"https:\/\/images.pexels.com\/photos\/25956366\/pexels-photo-25956366.jpeg?auto=compress&cs=tinysrgb&fit=crop&h=1200&w=800","landscape":"https:\/\/images.pexels.com\/photos\/25956366\/pexels-photo-25956366.jpeg?auto=compress&cs=tinysrgb&fit=crop&h=627&w=1200","tiny":"https:\/\/images.pexels.com\/photos\/25956366\/pexels-photo-25956366.jpeg?auto=compress&cs=tinysrgb&dpr=1&fit=crop&h=200&w=280"},"liked":false,"alt":"California sea lion posing near a zoo pool in Hungary, showcasing its natural elegance."},{"id":27164007,"width":5472,"height":3648,"url":"https:\/\/www.pexels.com\/photo\/a-whale-tail-is-seen-in-the-water-27164007\/","photographer":"Aliaksei Semirski","photographer_url":"https:\/\/www.pexels.com\/@asemirski","photographer_id":274855050,"avg_color":"#919DAD","src":{"original":"https:\/\/images.pexels.com\/photos\/27164007\/pexels-photo-27164007.jpeg","large2x":"https:\/\/images.pexels.com\/photos\/27164007\/pexels-photo-27164007.jpeg?auto=compress&cs=tinysrgb&dpr=2&h=650&w=940","large":"https:\/\/images.pexels.com\/photos\/27164007\/pexels-photo-27164007.jpeg?auto=compress&cs=tinysrgb&h=650&w=940","medium":"https:\/\/images.pexels.com\/photos\/27164007\/pexels-photo-27164007.jpeg?auto=compress&cs=tinysrgb&h=350","small":"https:\/\/images.pexels.com\/photos\/27164007\/pexels-photo-27164007.jpeg?auto=compress&cs=tinysrgb&h=130","portrait":"https:\/\/images.pexels.com\/photos\/27164007\/pexels-photo-27164007.jpeg?auto=compress&cs=tinysrgb&fit=crop&h=1200&w=800","landscape":"https:\/\/images.pexels.com\/photos\/27164007\/pexels-photo-27164007.jpeg?auto=compress&cs=tinysrgb&fit=crop&h=627&w=1200","tiny":"https:\/\/images.pexels.com\/photos\/27164007\/pexels-photo-27164007.jpeg?auto=compress&cs=tinysrgb&dpr=1&fit=crop&h=200&w=280"},"liked":false,"alt":"Humpback whale tail visible above water surface in Akureyri, Iceland. Captivating marine wildlife scene."}],"total_results":8000,"next_page":"https:\/\/api.pexels.com\/v1\/v1\/search?page=2&per_page=15&query=whale+dolphin+seal+marine+mammal"}