{"page":1,"per_page":15,"photos":[{"id":68744,"width":2100,"height":1575,"url":"https:\/\/www.pexels.com\/photo\/gray-and-green-turtle-swimming-on-water-68744\/","photographer":"Pixabay","photographer_url":"https:\/\/www.pexels.com\/@pixabay","photographer_id":2659,"avg_color":"#285CA2","src":{"original":"https:\/\/images.pexels.com\/photos\/68744\/loggerhead-turtle-sea-ocean-water-68744.jpeg","large2x":"https:\/\/images.pexels.com\/photos\/68744\/loggerhead-turtle-sea-ocean-water-68744.jpeg?auto=compress&cs=tinysrgb&dpr=2&h=650&w=940","large":"https:\/\/images.pexels.com\/photos\/68744\/loggerhead-turtle-sea-ocean-water-68744.jpeg?auto=compress&cs=tinysrgb&h=650&w=940","medium":"https:\/\/images.pexels.com\/photos\/68744\/loggerhead-turtle-sea-ocean-water-68744.jpeg?auto=compress&cs=tinysrgb&h=350","small":"https:\/\/images.pexels.com\/photos\/68744\/loggerhead-turtle-sea-ocean-water-68744.jpeg?auto=compress&cs=tinysrgb&h=130","portrait":"https:\/\/images.pexels.com\/photos\/68744\/loggerhead-turtle-sea-ocean-water-68744.jpeg?auto=compress&cs=tinysrgb&fit=crop&h=1200&w=800","landscape":"https:\/\/images.pexels.com\/photos\/68744\/loggerhead-turtle-sea-ocean-water-68744.jpeg?auto=compress&cs=tinysrgb&fit=crop&h=627&w=1200","tiny":"https:\/\/images.pexels.com\/photos\/68744\/loggerhead-turtle-sea-ocean-water-68744.jpeg?auto=compress&cs=tinysrgb&dpr=1&fit=crop&h=200&w=280"},"liked":false,"alt":"Captivating close-up of a sea turtle gracefully swimming in the clear blue ocean."},{"id":31740978,"width":6336,"height":9504,"url":"https:\/\/www.pexels.com\/photo\/sea-turtle-swimming-among-coral-reefs-in-hawaii-31740978\/","photographer":"Daniel Torobekov","photographer_url":"https:\/\/www.pexels.com\/@alohaphotostudio","photographer_id":3028574,"avg_color":"#10447D","src":{"original":"https:\/\/images.pexels.com\/photos\/31740978\/pexels-photo-31740978.jpeg","large2x":"https:\/\/images.pexels.com\/photos\/31740978\/pexels-photo-31740978.jpeg?auto=compress&cs=tinysrgb&dpr=2&h=650&w=940","large":"https:\/\/images.pexels.com\/photos\/31740978\/pexels-photo-31740978.jpeg?auto=compress&cs=tinysrgb&h=650&w=940","medium":"https:\/\/images.pexels.com\/photos\/31740978\/pexels-photo-31740978.jpeg?auto=compress&cs=tinysrgb&h=350","small":"https:\/\/images.pexels.com\/photos\/31740978\/pexels-photo-31740978.jpeg?auto=compress&cs=tinysrgb&h=130","portrait":"https:\/\/images.pexels.com\/photos\/31740978\/pexels-photo-31740978.jpeg?auto=compress&cs=tinysrgb&fit=crop&h=1200&w=800","landscape":"https:\/\/images.pexels.com\/photos\/31740978\/pexels-photo-31740978.jpeg?auto=compress&cs=tinysrgb&fit=crop&h=627&w=1200","tiny":"https:\/\/images.pexels.com\/photos\/31740978\/pexels-photo-31740978.jpeg?auto=compress&cs=tinysrgb&dpr=1&fit=crop&h=200&w=280"},"liked":false,"alt":"A majestic sea turtle gliding through the clear waters over coral reefs in Hawaii's ocean."},{"id":10498909,"width":4656,"height":6980,"url":"https:\/\/www.pexels.com\/photo\/sea-turtle-swimming-in-blue-sea-10498909\/","photographer":"Daniel Torobekov","photographer_url":"https:\/\/www.pexels.com\/@alohaphotostudio","photographer_id":3028574,"avg_color":"#64708A","src":{"original":"https:\/\/images.pexels.com\/photos\/10498909\/pexels-photo-10498909.jpeg","large2x":"https:\/\/images.pexels.com\/photos\/10498909\/pexels-photo-10498909.jpeg?auto=compress&cs=tinysrgb&dpr=2&h=650&w=940","large":"https:\/\/images.pexels.com\/photos\/10498909\/pexels-photo-10498909.jpeg?auto=compress&cs=tinysrgb&h=650&w=940","medium":"https:\/\/images.pexels.com\/photos\/10498909\/pexels-photo-10498909.jpeg?auto=compress&cs=tinysrgb&h=350","small":"https:\/\/images.pexels.com\/photos\/10498909\/pexels-photo-10498909.jpeg?auto=compress&cs=tinysrgb&h=130","portrait":"https:\/\/images.pexels.com\/photos\/10498909\/pexels-photo-10498909.jpeg?auto=compress&cs=tinysrgb&fit=crop&h=1200&w=800","landscape":"https:\/\/images.pexels.com\/photos\/10498909\/pexels-photo-10498909.jpeg?auto=compress&cs=tinysrgb&fit=crop&h=627&w=1200","tiny":"https:\/\/images.pexels.com\/photos\/10498909\/pexels-photo-10498909.jpeg?auto=compress&cs=tinysrgb&dpr=1&fit=crop&h=200&w=280"},"liked":false,"alt":"Elegant sea turtle gliding through the ocean blue against a sandy seabed."},{"id":3410956,"width":3000,"height":4000,"url":"https:\/\/www.pexels.com\/photo\/assorted-fish-in-sea-with-corals-3410956\/","photographer":"Francesco Ungaro","photographer_url":"https:\/\/www.pexels.com\/@francesco-ungaro","photographer_id":21273,"avg_color":"#063F52","src":{"original":"https:\/\/images.pexels.com\/photos\/3410956\/pexels-photo-3410956.jpeg","large2x":"https:\/\/images.pexels.com\/photos\/3410956\/pexels-photo-3410956.jpeg?auto=compress&cs=tinysrgb&dpr=2&h=650&w=940","large":"https:\/\/images.pexels.com\/photos\/3410956\/pexels-photo-3410956.jpeg?auto=compress&cs=tinysrgb&h=650&w=940","medium":"https:\/\/images.pexels.com\/photos\/3410956\/pexels-photo-3410956.jpeg?auto=compress&cs=tinysrgb&h=350","small":"https:\/\/images.pexels.com\/photos\/3410956\/pexels-photo-3410956.jpeg?auto=compress&cs=tinysrgb&h=130","portrait":"https:\/\/images.pexels.com\/photos\/3410956\/pexels-photo-3410956.jpeg?auto=compress&cs=tinysrgb&fit=crop&h=1200&w=800","landscape":"https:\/\/images.pexels.com\/photos\/3410956\/pexels-photo-3410956.jpeg?auto=compress&cs=tinysrgb&fit=crop&h=627&w=1200","tiny":"https:\/\/images.pexels.com\/photos\/3410956\/pexels-photo-3410956.jpeg?auto=compress&cs=tinysrgb&dpr=1&fit=crop&h=200&w=280"},"liked":false,"alt":"Sea turtle swims gracefully among vibrant coral in a tranquil ocean scene."},{"id":10350645,"width":13937,"height":7838,"url":"https:\/\/www.pexels.com\/photo\/a-shot-of-a-turtle-swimming-underwater-10350645\/","photographer":"Daniel Torobekov","photographer_url":"https:\/\/www.pexels.com\/@alohaphotostudio","photographer_id":3028574,"avg_color":"#878BA4","src":{"original":"https:\/\/images.pexels.com\/photos\/10350645\/pexels-photo-10350645.jpeg","large2x":"https:\/\/images.pexels.com\/photos\/10350645\/pexels-photo-10350645.jpeg?auto=compress&cs=tinysrgb&dpr=2&h=650&w=940","large":"https:\/\/images.pexels.com\/photos\/10350645\/pexels-photo-10350645.jpeg?auto=compress&cs=tinysrgb&h=650&w=940","medium":"https:\/\/images.pexels.com\/photos\/10350645\/pexels-photo-10350645.jpeg?auto=compress&cs=tinysrgb&h=350","small":"https:\/\/images.pexels.com\/photos\/10350645\/pexels-photo-10350645.jpeg?auto=compress&cs=tinysrgb&h=130","portrait":"https:\/\/images.pexels.com\/photos\/10350645\/pexels-photo-10350645.jpeg?auto=compress&cs=tinysrgb&fit=crop&h=1200&w=800","landscape":"https:\/\/images.pexels.com\/photos\/10350645\/pexels-photo-10350645.jpeg?auto=compress&cs=tinysrgb&fit=crop&h=627&w=1200","tiny":"https:\/\/images.pexels.com\/photos\/10350645\/pexels-photo-10350645.jpeg?auto=compress&cs=tinysrgb&dpr=1&fit=crop&h=200&w=280"},"liked":false,"alt":"A serene sea turtle gracefully swimming underwater, showcasing marine life."},{"id":14188265,"width":9512,"height":9512,"url":"https:\/\/www.pexels.com\/photo\/close-up-shot-of-a-sea-turtle-in-the-water-14188265\/","photographer":"chris clark","photographer_url":"https:\/\/www.pexels.com\/@chris-clark-1933184","photographer_id":1933184,"avg_color":"#3192C5","src":{"original":"https:\/\/images.pexels.com\/photos\/14188265\/pexels-photo-14188265.jpeg","large2x":"https:\/\/images.pexels.com\/photos\/14188265\/pexels-photo-14188265.jpeg?auto=compress&cs=tinysrgb&dpr=2&h=650&w=940","large":"https:\/\/images.pexels.com\/photos\/14188265\/pexels-photo-14188265.jpeg?auto=compress&cs=tinysrgb&h=650&w=940","medium":"https:\/\/images.pexels.com\/photos\/14188265\/pexels-photo-14188265.jpeg?auto=compress&cs=tinysrgb&h=350","small":"https:\/\/images.pexels.com\/photos\/14188265\/pexels-photo-14188265.jpeg?auto=compress&cs=tinysrgb&h=130","portrait":"https:\/\/images.pexels.com\/photos\/14188265\/pexels-photo-14188265.jpeg?auto=compress&cs=tinysrgb&fit=crop&h=1200&w=800","landscape":"https:\/\/images.pexels.com\/photos\/14188265\/pexels-photo-14188265.jpeg?auto=compress&cs=tinysrgb&fit=crop&h=627&w=1200","tiny":"https:\/\/images.pexels.com\/photos\/14188265\/pexels-photo-14188265.jpeg?auto=compress&cs=tinysrgb&dpr=1&fit=crop&h=200&w=280"},"liked":false,"alt":"A sea turtle surfaces in the clear blue ocean, showcasing marine wildlife."},{"id":847393,"width":4000,"height":3000,"url":"https:\/\/www.pexels.com\/photo\/photo-of-a-turtle-swimming-underwater-847393\/","photographer":"Belle Co","photographer_url":"https:\/\/www.pexels.com\/@belle-co-99483","photographer_id":99483,"avg_color":"#21684F","src":{"original":"https:\/\/images.pexels.com\/photos\/847393\/pexels-photo-847393.jpeg","large2x":"https:\/\/images.pexels.com\/photos\/847393\/pexels-photo-847393.jpeg?auto=compress&cs=tinysrgb&dpr=2&h=650&w=940","large":"https:\/\/images.pexels.com\/photos\/847393\/pexels-photo-847393.jpeg?auto=compress&cs=tinysrgb&h=650&w=940","medium":"https:\/\/images.pexels.com\/photos\/847393\/pexels-photo-847393.jpeg?auto=compress&cs=tinysrgb&h=350","small":"https:\/\/images.pexels.com\/photos\/847393\/pexels-photo-847393.jpeg?auto=compress&cs=tinysrgb&h=130","portrait":"https:\/\/images.pexels.com\/photos\/847393\/pexels-photo-847393.jpeg?auto=compress&cs=tinysrgb&fit=crop&h=1200&w=800","landscape":"https:\/\/images.pexels.com\/photos\/847393\/pexels-photo-847393.jpeg?auto=compress&cs=tinysrgb&fit=crop&h=627&w=1200","tiny":"https:\/\/images.pexels.com\/photos\/847393\/pexels-photo-847393.jpeg?auto=compress&cs=tinysrgb&dpr=1&fit=crop&h=200&w=280"},"liked":false,"alt":"Explore the beauty of a sea turtle gliding through a colorful underwater coral reef."},{"id":36132584,"width":3968,"height":2976,"url":"https:\/\/www.pexels.com\/photo\/hawksbill-sea-turtle-swimming-in-caribbean-waters-36132584\/","photographer":"Zack Gilbert","photographer_url":"https:\/\/www.pexels.com\/@zack-gilbert-2159535417","photographer_id":2159535417,"avg_color":"#168DCF","src":{"original":"https:\/\/images.pexels.com\/photos\/36132584\/pexels-photo-36132584.jpeg","large2x":"https:\/\/images.pexels.com\/photos\/36132584\/pexels-photo-36132584.jpeg?auto=compress&cs=tinysrgb&dpr=2&h=650&w=940","large":"https:\/\/images.pexels.com\/photos\/36132584\/pexels-photo-36132584.jpeg?auto=compress&cs=tinysrgb&h=650&w=940","medium":"https:\/\/images.pexels.com\/photos\/36132584\/pexels-photo-36132584.jpeg?auto=compress&cs=tinysrgb&h=350","small":"https:\/\/images.pexels.com\/photos\/36132584\/pexels-photo-36132584.jpeg?auto=compress&cs=tinysrgb&h=130","portrait":"https:\/\/images.pexels.com\/photos\/36132584\/pexels-photo-36132584.jpeg?auto=compress&cs=tinysrgb&fit=crop&h=1200&w=800","landscape":"https:\/\/images.pexels.com\/photos\/36132584\/pexels-photo-36132584.jpeg?auto=compress&cs=tinysrgb&fit=crop&h=627&w=1200","tiny":"https:\/\/images.pexels.com\/photos\/36132584\/pexels-photo-36132584.jpeg?auto=compress&cs=tinysrgb&dpr=1&fit=crop&h=200&w=280"},"liked":false,"alt":"A hawksbill sea turtle gracefully swimming underwater in the vibrant blue Caribbean sea off Bonaire."},{"id":1618606,"width":3648,"height":2736,"url":"https:\/\/www.pexels.com\/photo\/black-and-white-turtle-1618606\/","photographer":"Richard Segal","photographer_url":"https:\/\/www.pexels.com\/@richard-segal-732340","photographer_id":732340,"avg_color":"#126FAF","src":{"original":"https:\/\/images.pexels.com\/photos\/1618606\/pexels-photo-1618606.jpeg","large2x":"https:\/\/images.pexels.com\/photos\/1618606\/pexels-photo-1618606.jpeg?auto=compress&cs=tinysrgb&dpr=2&h=650&w=940","large":"https:\/\/images.pexels.com\/photos\/1618606\/pexels-photo-1618606.jpeg?auto=compress&cs=tinysrgb&h=650&w=940","medium":"https:\/\/images.pexels.com\/photos\/1618606\/pexels-photo-1618606.jpeg?auto=compress&cs=tinysrgb&h=350","small":"https:\/\/images.pexels.com\/photos\/1618606\/pexels-photo-1618606.jpeg?auto=compress&cs=tinysrgb&h=130","portrait":"https:\/\/images.pexels.com\/photos\/1618606\/pexels-photo-1618606.jpeg?auto=compress&cs=tinysrgb&fit=crop&h=1200&w=800","landscape":"https:\/\/images.pexels.com\/photos\/1618606\/pexels-photo-1618606.jpeg?auto=compress&cs=tinysrgb&fit=crop&h=627&w=1200","tiny":"https:\/\/images.pexels.com\/photos\/1618606\/pexels-photo-1618606.jpeg?auto=compress&cs=tinysrgb&dpr=1&fit=crop&h=200&w=280"},"liked":false,"alt":"Close-up of a sea turtle gracefully swimming underwater, showcasing marine life in its natural habitat."},{"id":4767915,"width":4000,"height":3000,"url":"https:\/\/www.pexels.com\/photo\/turtle-swimming-underwater-4767915\/","photographer":"David Willis","photographer_url":"https:\/\/www.pexels.com\/@david-willis-3160184","photographer_id":3160184,"avg_color":"#639696","src":{"original":"https:\/\/images.pexels.com\/photos\/4767915\/pexels-photo-4767915.jpeg","large2x":"https:\/\/images.pexels.com\/photos\/4767915\/pexels-photo-4767915.jpeg?auto=compress&cs=tinysrgb&dpr=2&h=650&w=940","large":"https:\/\/images.pexels.com\/photos\/4767915\/pexels-photo-4767915.jpeg?auto=compress&cs=tinysrgb&h=650&w=940","medium":"https:\/\/images.pexels.com\/photos\/4767915\/pexels-photo-4767915.jpeg?auto=compress&cs=tinysrgb&h=350","small":"https:\/\/images.pexels.com\/photos\/4767915\/pexels-photo-4767915.jpeg?auto=compress&cs=tinysrgb&h=130","portrait":"https:\/\/images.pexels.com\/photos\/4767915\/pexels-photo-4767915.jpeg?auto=compress&cs=tinysrgb&fit=crop&h=1200&w=800","landscape":"https:\/\/images.pexels.com\/photos\/4767915\/pexels-photo-4767915.jpeg?auto=compress&cs=tinysrgb&fit=crop&h=627&w=1200","tiny":"https:\/\/images.pexels.com\/photos\/4767915\/pexels-photo-4767915.jpeg?auto=compress&cs=tinysrgb&dpr=1&fit=crop&h=200&w=280"},"liked":false,"alt":"Capture of a majestic green sea turtle swimming in the clear waters of Hawaii's coral reef."},{"id":10467,"width":3888,"height":2592,"url":"https:\/\/www.pexels.com\/photo\/turtle-swimming-underwater-10467\/","photographer":"Tanguy Sauvin","photographer_url":"https:\/\/www.pexels.com\/@tanguysauvin","photographer_id":58,"avg_color":"#2084A4","src":{"original":"https:\/\/images.pexels.com\/photos\/10467\/pexels-photo-10467.jpeg","large2x":"https:\/\/images.pexels.com\/photos\/10467\/pexels-photo-10467.jpeg?auto=compress&cs=tinysrgb&dpr=2&h=650&w=940","large":"https:\/\/images.pexels.com\/photos\/10467\/pexels-photo-10467.jpeg?auto=compress&cs=tinysrgb&h=650&w=940","medium":"https:\/\/images.pexels.com\/photos\/10467\/pexels-photo-10467.jpeg?auto=compress&cs=tinysrgb&h=350","small":"https:\/\/images.pexels.com\/photos\/10467\/pexels-photo-10467.jpeg?auto=compress&cs=tinysrgb&h=130","portrait":"https:\/\/images.pexels.com\/photos\/10467\/pexels-photo-10467.jpeg?auto=compress&cs=tinysrgb&fit=crop&h=1200&w=800","landscape":"https:\/\/images.pexels.com\/photos\/10467\/pexels-photo-10467.jpeg?auto=compress&cs=tinysrgb&fit=crop&h=627&w=1200","tiny":"https:\/\/images.pexels.com\/photos\/10467\/pexels-photo-10467.jpeg?auto=compress&cs=tinysrgb&dpr=1&fit=crop&h=200&w=280"},"liked":false,"alt":"A sea turtle gracefully swimming underwater in the clear blue ocean, surrounded by fish."},{"id":8026837,"width":6000,"height":4000,"url":"https:\/\/www.pexels.com\/photo\/close-up-of-a-turtle-underwater-8026837\/","photographer":"Chris F","photographer_url":"https:\/\/www.pexels.com\/@chris-f-38966","photographer_id":38966,"avg_color":"#528380","src":{"original":"https:\/\/images.pexels.com\/photos\/8026837\/pexels-photo-8026837.jpeg","large2x":"https:\/\/images.pexels.com\/photos\/8026837\/pexels-photo-8026837.jpeg?auto=compress&cs=tinysrgb&dpr=2&h=650&w=940","large":"https:\/\/images.pexels.com\/photos\/8026837\/pexels-photo-8026837.jpeg?auto=compress&cs=tinysrgb&h=650&w=940","medium":"https:\/\/images.pexels.com\/photos\/8026837\/pexels-photo-8026837.jpeg?auto=compress&cs=tinysrgb&h=350","small":"https:\/\/images.pexels.com\/photos\/8026837\/pexels-photo-8026837.jpeg?auto=compress&cs=tinysrgb&h=130","portrait":"https:\/\/images.pexels.com\/photos\/8026837\/pexels-photo-8026837.jpeg?auto=compress&cs=tinysrgb&fit=crop&h=1200&w=800","landscape":"https:\/\/images.pexels.com\/photos\/8026837\/pexels-photo-8026837.jpeg?auto=compress&cs=tinysrgb&fit=crop&h=627&w=1200","tiny":"https:\/\/images.pexels.com\/photos\/8026837\/pexels-photo-8026837.jpeg?auto=compress&cs=tinysrgb&dpr=1&fit=crop&h=200&w=280"},"liked":false,"alt":"A detailed view of a sea turtle swimming gracefully through underwater depths."},{"id":4728995,"width":11811,"height":8268,"url":"https:\/\/www.pexels.com\/photo\/brown-and-black-turtle-under-the-sea-4728995\/","photographer":"PEDRO  FERNANDES","photographer_url":"https:\/\/www.pexels.com\/@pedro-fernandes-3128127","photographer_id":3128127,"avg_color":"#16556F","src":{"original":"https:\/\/images.pexels.com\/photos\/4728995\/pexels-photo-4728995.jpeg","large2x":"https:\/\/images.pexels.com\/photos\/4728995\/pexels-photo-4728995.jpeg?auto=compress&cs=tinysrgb&dpr=2&h=650&w=940","large":"https:\/\/images.pexels.com\/photos\/4728995\/pexels-photo-4728995.jpeg?auto=compress&cs=tinysrgb&h=650&w=940","medium":"https:\/\/images.pexels.com\/photos\/4728995\/pexels-photo-4728995.jpeg?auto=compress&cs=tinysrgb&h=350","small":"https:\/\/images.pexels.com\/photos\/4728995\/pexels-photo-4728995.jpeg?auto=compress&cs=tinysrgb&h=130","portrait":"https:\/\/images.pexels.com\/photos\/4728995\/pexels-photo-4728995.jpeg?auto=compress&cs=tinysrgb&fit=crop&h=1200&w=800","landscape":"https:\/\/images.pexels.com\/photos\/4728995\/pexels-photo-4728995.jpeg?auto=compress&cs=tinysrgb&fit=crop&h=627&w=1200","tiny":"https:\/\/images.pexels.com\/photos\/4728995\/pexels-photo-4728995.jpeg?auto=compress&cs=tinysrgb&dpr=1&fit=crop&h=200&w=280"},"liked":false,"alt":"A majestic sea turtle glides gracefully underwater in Arraial do Cabo, Brazil."},{"id":5967747,"width":4742,"height":3162,"url":"https:\/\/www.pexels.com\/photo\/turtle-floating-in-blue-sea-5967747\/","photographer":"Lachlan  Ross","photographer_url":"https:\/\/www.pexels.com\/@lachlan-ross","photographer_id":3886204,"avg_color":"#688D9C","src":{"original":"https:\/\/images.pexels.com\/photos\/5967747\/pexels-photo-5967747.jpeg","large2x":"https:\/\/images.pexels.com\/photos\/5967747\/pexels-photo-5967747.jpeg?auto=compress&cs=tinysrgb&dpr=2&h=650&w=940","large":"https:\/\/images.pexels.com\/photos\/5967747\/pexels-photo-5967747.jpeg?auto=compress&cs=tinysrgb&h=650&w=940","medium":"https:\/\/images.pexels.com\/photos\/5967747\/pexels-photo-5967747.jpeg?auto=compress&cs=tinysrgb&h=350","small":"https:\/\/images.pexels.com\/photos\/5967747\/pexels-photo-5967747.jpeg?auto=compress&cs=tinysrgb&h=130","portrait":"https:\/\/images.pexels.com\/photos\/5967747\/pexels-photo-5967747.jpeg?auto=compress&cs=tinysrgb&fit=crop&h=1200&w=800","landscape":"https:\/\/images.pexels.com\/photos\/5967747\/pexels-photo-5967747.jpeg?auto=compress&cs=tinysrgb&fit=crop&h=627&w=1200","tiny":"https:\/\/images.pexels.com\/photos\/5967747\/pexels-photo-5967747.jpeg?auto=compress&cs=tinysrgb&dpr=1&fit=crop&h=200&w=280"},"liked":false,"alt":"Sea turtle swimming underwater in clean azure sea with sun glares on sandy bottom in tropical country on summer day"},{"id":10935131,"width":4000,"height":3000,"url":"https:\/\/www.pexels.com\/photo\/a-turtle-underwater-10935131\/","photographer":"Brandon James","photographer_url":"https:\/\/www.pexels.com\/@brandon-james-167689798","photographer_id":167689798,"avg_color":"#508D90","src":{"original":"https:\/\/images.pexels.com\/photos\/10935131\/pexels-photo-10935131.jpeg","large2x":"https:\/\/images.pexels.com\/photos\/10935131\/pexels-photo-10935131.jpeg?auto=compress&cs=tinysrgb&dpr=2&h=650&w=940","large":"https:\/\/images.pexels.com\/photos\/10935131\/pexels-photo-10935131.jpeg?auto=compress&cs=tinysrgb&h=650&w=940","medium":"https:\/\/images.pexels.com\/photos\/10935131\/pexels-photo-10935131.jpeg?auto=compress&cs=tinysrgb&h=350","small":"https:\/\/images.pexels.com\/photos\/10935131\/pexels-photo-10935131.jpeg?auto=compress&cs=tinysrgb&h=130","portrait":"https:\/\/images.pexels.com\/photos\/10935131\/pexels-photo-10935131.jpeg?auto=compress&cs=tinysrgb&fit=crop&h=1200&w=800","landscape":"https:\/\/images.pexels.com\/photos\/10935131\/pexels-photo-10935131.jpeg?auto=compress&cs=tinysrgb&fit=crop&h=627&w=1200","tiny":"https:\/\/images.pexels.com\/photos\/10935131\/pexels-photo-10935131.jpeg?auto=compress&cs=tinysrgb&dpr=1&fit=crop&h=200&w=280"},"liked":false,"alt":"Stunning underwater shot of a sea turtle swimming gracefully in clear Hawaiian waters."}],"total_results":8000,"next_page":"https:\/\/api.pexels.com\/v1\/v1\/search?page=2&per_page=15&query=sea+turtle+ocean"}