{"page":1,"per_page":15,"photos":[{"id":16075339,"width":4160,"height":6240,"url":"https:\/\/www.pexels.com\/photo\/goku-and-toys-dolls-16075339\/","photographer":"Pew Nguyen","photographer_url":"https:\/\/www.pexels.com\/@nguyendesigner","photographer_id":65907,"avg_color":"#685743","src":{"original":"https:\/\/images.pexels.com\/photos\/16075339\/pexels-photo-16075339.jpeg","large2x":"https:\/\/images.pexels.com\/photos\/16075339\/pexels-photo-16075339.jpeg?auto=compress&cs=tinysrgb&dpr=2&h=650&w=940","large":"https:\/\/images.pexels.com\/photos\/16075339\/pexels-photo-16075339.jpeg?auto=compress&cs=tinysrgb&h=650&w=940","medium":"https:\/\/images.pexels.com\/photos\/16075339\/pexels-photo-16075339.jpeg?auto=compress&cs=tinysrgb&h=350","small":"https:\/\/images.pexels.com\/photos\/16075339\/pexels-photo-16075339.jpeg?auto=compress&cs=tinysrgb&h=130","portrait":"https:\/\/images.pexels.com\/photos\/16075339\/pexels-photo-16075339.jpeg?auto=compress&cs=tinysrgb&fit=crop&h=1200&w=800","landscape":"https:\/\/images.pexels.com\/photos\/16075339\/pexels-photo-16075339.jpeg?auto=compress&cs=tinysrgb&fit=crop&h=627&w=1200","tiny":"https:\/\/images.pexels.com\/photos\/16075339\/pexels-photo-16075339.jpeg?auto=compress&cs=tinysrgb&dpr=1&fit=crop&h=200&w=280"},"liked":false,"alt":"A vibrant display of anime figurines including Goku amidst various collectibles against a gray background."},{"id":2068154,"width":5898,"height":3932,"url":"https:\/\/www.pexels.com\/photo\/two-man-standing-on-ground-during-dusk-2068154\/","photographer":"Luis Quintero","photographer_url":"https:\/\/www.pexels.com\/@jibarofoto","photographer_id":447123,"avg_color":"#2B435C","src":{"original":"https:\/\/images.pexels.com\/photos\/2068154\/pexels-photo-2068154.jpeg","large2x":"https:\/\/images.pexels.com\/photos\/2068154\/pexels-photo-2068154.jpeg?auto=compress&cs=tinysrgb&dpr=2&h=650&w=940","large":"https:\/\/images.pexels.com\/photos\/2068154\/pexels-photo-2068154.jpeg?auto=compress&cs=tinysrgb&h=650&w=940","medium":"https:\/\/images.pexels.com\/photos\/2068154\/pexels-photo-2068154.jpeg?auto=compress&cs=tinysrgb&h=350","small":"https:\/\/images.pexels.com\/photos\/2068154\/pexels-photo-2068154.jpeg?auto=compress&cs=tinysrgb&h=130","portrait":"https:\/\/images.pexels.com\/photos\/2068154\/pexels-photo-2068154.jpeg?auto=compress&cs=tinysrgb&fit=crop&h=1200&w=800","landscape":"https:\/\/images.pexels.com\/photos\/2068154\/pexels-photo-2068154.jpeg?auto=compress&cs=tinysrgb&fit=crop&h=627&w=1200","tiny":"https:\/\/images.pexels.com\/photos\/2068154\/pexels-photo-2068154.jpeg?auto=compress&cs=tinysrgb&dpr=1&fit=crop&h=200&w=280"},"liked":false,"alt":"Two young men engage in creative light painting under a starry night sky, showcasing dynamic motion and vibrant colors."},{"id":19875829,"width":3357,"height":2594,"url":"https:\/\/www.pexels.com\/photo\/sparkling-circles-behind-spiderman-19875829\/","photographer":"Jesus Toledo","photographer_url":"https:\/\/www.pexels.com\/@jesus-toledo-339539791","photographer_id":339539791,"avg_color":"#56323C","src":{"original":"https:\/\/images.pexels.com\/photos\/19875829\/pexels-photo-19875829.jpeg","large2x":"https:\/\/images.pexels.com\/photos\/19875829\/pexels-photo-19875829.jpeg?auto=compress&cs=tinysrgb&dpr=2&h=650&w=940","large":"https:\/\/images.pexels.com\/photos\/19875829\/pexels-photo-19875829.jpeg?auto=compress&cs=tinysrgb&h=650&w=940","medium":"https:\/\/images.pexels.com\/photos\/19875829\/pexels-photo-19875829.jpeg?auto=compress&cs=tinysrgb&h=350","small":"https:\/\/images.pexels.com\/photos\/19875829\/pexels-photo-19875829.jpeg?auto=compress&cs=tinysrgb&h=130","portrait":"https:\/\/images.pexels.com\/photos\/19875829\/pexels-photo-19875829.jpeg?auto=compress&cs=tinysrgb&fit=crop&h=1200&w=800","landscape":"https:\/\/images.pexels.com\/photos\/19875829\/pexels-photo-19875829.jpeg?auto=compress&cs=tinysrgb&fit=crop&h=627&w=1200","tiny":"https:\/\/images.pexels.com\/photos\/19875829\/pexels-photo-19875829.jpeg?auto=compress&cs=tinysrgb&dpr=1&fit=crop&h=200&w=280"},"liked":false,"alt":"Spiderman cosplayer strikes a pose with dramatic light trails at night in Mexico."},{"id":8108334,"width":6000,"height":4000,"url":"https:\/\/www.pexels.com\/photo\/man-in-black-leather-jacket-and-pants-8108334\/","photographer":"Mikhail Nilov","photographer_url":"https:\/\/www.pexels.com\/@mikhail-nilov","photographer_id":11437196,"avg_color":"#411E54","src":{"original":"https:\/\/images.pexels.com\/photos\/8108334\/pexels-photo-8108334.jpeg","large2x":"https:\/\/images.pexels.com\/photos\/8108334\/pexels-photo-8108334.jpeg?auto=compress&cs=tinysrgb&dpr=2&h=650&w=940","large":"https:\/\/images.pexels.com\/photos\/8108334\/pexels-photo-8108334.jpeg?auto=compress&cs=tinysrgb&h=650&w=940","medium":"https:\/\/images.pexels.com\/photos\/8108334\/pexels-photo-8108334.jpeg?auto=compress&cs=tinysrgb&h=350","small":"https:\/\/images.pexels.com\/photos\/8108334\/pexels-photo-8108334.jpeg?auto=compress&cs=tinysrgb&h=130","portrait":"https:\/\/images.pexels.com\/photos\/8108334\/pexels-photo-8108334.jpeg?auto=compress&cs=tinysrgb&fit=crop&h=1200&w=800","landscape":"https:\/\/images.pexels.com\/photos\/8108334\/pexels-photo-8108334.jpeg?auto=compress&cs=tinysrgb&fit=crop&h=627&w=1200","tiny":"https:\/\/images.pexels.com\/photos\/8108334\/pexels-photo-8108334.jpeg?auto=compress&cs=tinysrgb&dpr=1&fit=crop&h=200&w=280"},"liked":false,"alt":"A man in a cyberpunk setting striking a dynamic pose with vibrant neon lighting."},{"id":10434594,"width":4405,"height":6607,"url":"https:\/\/www.pexels.com\/photo\/man-in-a-defense-posture-10434594\/","photographer":"Moses Londo","photographer_url":"https:\/\/www.pexels.com\/@londo","photographer_id":128223245,"avg_color":"#C79D77","src":{"original":"https:\/\/images.pexels.com\/photos\/10434594\/pexels-photo-10434594.jpeg","large2x":"https:\/\/images.pexels.com\/photos\/10434594\/pexels-photo-10434594.jpeg?auto=compress&cs=tinysrgb&dpr=2&h=650&w=940","large":"https:\/\/images.pexels.com\/photos\/10434594\/pexels-photo-10434594.jpeg?auto=compress&cs=tinysrgb&h=650&w=940","medium":"https:\/\/images.pexels.com\/photos\/10434594\/pexels-photo-10434594.jpeg?auto=compress&cs=tinysrgb&h=350","small":"https:\/\/images.pexels.com\/photos\/10434594\/pexels-photo-10434594.jpeg?auto=compress&cs=tinysrgb&h=130","portrait":"https:\/\/images.pexels.com\/photos\/10434594\/pexels-photo-10434594.jpeg?auto=compress&cs=tinysrgb&fit=crop&h=1200&w=800","landscape":"https:\/\/images.pexels.com\/photos\/10434594\/pexels-photo-10434594.jpeg?auto=compress&cs=tinysrgb&fit=crop&h=627&w=1200","tiny":"https:\/\/images.pexels.com\/photos\/10434594\/pexels-photo-10434594.jpeg?auto=compress&cs=tinysrgb&dpr=1&fit=crop&h=200&w=280"},"liked":false,"alt":"A man performing martial arts in an outdoor setting with a dramatic sky."},{"id":8108571,"width":4000,"height":6000,"url":"https:\/\/www.pexels.com\/photo\/woman-among-smoke-and-neon-lights-8108571\/","photographer":"Mikhail Nilov","photographer_url":"https:\/\/www.pexels.com\/@mikhail-nilov","photographer_id":11437196,"avg_color":"#3E0F1F","src":{"original":"https:\/\/images.pexels.com\/photos\/8108571\/pexels-photo-8108571.jpeg","large2x":"https:\/\/images.pexels.com\/photos\/8108571\/pexels-photo-8108571.jpeg?auto=compress&cs=tinysrgb&dpr=2&h=650&w=940","large":"https:\/\/images.pexels.com\/photos\/8108571\/pexels-photo-8108571.jpeg?auto=compress&cs=tinysrgb&h=650&w=940","medium":"https:\/\/images.pexels.com\/photos\/8108571\/pexels-photo-8108571.jpeg?auto=compress&cs=tinysrgb&h=350","small":"https:\/\/images.pexels.com\/photos\/8108571\/pexels-photo-8108571.jpeg?auto=compress&cs=tinysrgb&h=130","portrait":"https:\/\/images.pexels.com\/photos\/8108571\/pexels-photo-8108571.jpeg?auto=compress&cs=tinysrgb&fit=crop&h=1200&w=800","landscape":"https:\/\/images.pexels.com\/photos\/8108571\/pexels-photo-8108571.jpeg?auto=compress&cs=tinysrgb&fit=crop&h=627&w=1200","tiny":"https:\/\/images.pexels.com\/photos\/8108571\/pexels-photo-8108571.jpeg?auto=compress&cs=tinysrgb&dpr=1&fit=crop&h=200&w=280"},"liked":false,"alt":"Dynamic figures in a neon-lit, futuristic corridor with vibrant red and blue lighting."},{"id":8108306,"width":4000,"height":6000,"url":"https:\/\/www.pexels.com\/photo\/man-in-black-leather-jacket-posing-8108306\/","photographer":"Mikhail Nilov","photographer_url":"https:\/\/www.pexels.com\/@mikhail-nilov","photographer_id":11437196,"avg_color":"#371A50","src":{"original":"https:\/\/images.pexels.com\/photos\/8108306\/pexels-photo-8108306.jpeg","large2x":"https:\/\/images.pexels.com\/photos\/8108306\/pexels-photo-8108306.jpeg?auto=compress&cs=tinysrgb&dpr=2&h=650&w=940","large":"https:\/\/images.pexels.com\/photos\/8108306\/pexels-photo-8108306.jpeg?auto=compress&cs=tinysrgb&h=650&w=940","medium":"https:\/\/images.pexels.com\/photos\/8108306\/pexels-photo-8108306.jpeg?auto=compress&cs=tinysrgb&h=350","small":"https:\/\/images.pexels.com\/photos\/8108306\/pexels-photo-8108306.jpeg?auto=compress&cs=tinysrgb&h=130","portrait":"https:\/\/images.pexels.com\/photos\/8108306\/pexels-photo-8108306.jpeg?auto=compress&cs=tinysrgb&fit=crop&h=1200&w=800","landscape":"https:\/\/images.pexels.com\/photos\/8108306\/pexels-photo-8108306.jpeg?auto=compress&cs=tinysrgb&fit=crop&h=627&w=1200","tiny":"https:\/\/images.pexels.com\/photos\/8108306\/pexels-photo-8108306.jpeg?auto=compress&cs=tinysrgb&dpr=1&fit=crop&h=200&w=280"},"liked":false,"alt":"A person poses in a cyberpunk-inspired setting with vibrant neon lights."},{"id":7777513,"width":3845,"height":5767,"url":"https:\/\/www.pexels.com\/photo\/a-person-midair-kicking-7777513\/","photographer":"cottonbro studio","photographer_url":"https:\/\/www.pexels.com\/@cottonbro","photographer_id":1437723,"avg_color":"#67778A","src":{"original":"https:\/\/images.pexels.com\/photos\/7777513\/pexels-photo-7777513.jpeg","large2x":"https:\/\/images.pexels.com\/photos\/7777513\/pexels-photo-7777513.jpeg?auto=compress&cs=tinysrgb&dpr=2&h=650&w=940","large":"https:\/\/images.pexels.com\/photos\/7777513\/pexels-photo-7777513.jpeg?auto=compress&cs=tinysrgb&h=650&w=940","medium":"https:\/\/images.pexels.com\/photos\/7777513\/pexels-photo-7777513.jpeg?auto=compress&cs=tinysrgb&h=350","small":"https:\/\/images.pexels.com\/photos\/7777513\/pexels-photo-7777513.jpeg?auto=compress&cs=tinysrgb&h=130","portrait":"https:\/\/images.pexels.com\/photos\/7777513\/pexels-photo-7777513.jpeg?auto=compress&cs=tinysrgb&fit=crop&h=1200&w=800","landscape":"https:\/\/images.pexels.com\/photos\/7777513\/pexels-photo-7777513.jpeg?auto=compress&cs=tinysrgb&fit=crop&h=627&w=1200","tiny":"https:\/\/images.pexels.com\/photos\/7777513\/pexels-photo-7777513.jpeg?auto=compress&cs=tinysrgb&dpr=1&fit=crop&h=200&w=280"},"liked":false,"alt":"Cosplayers in dynamic martial arts action amidst smoke, showcasing intense combat moves."},{"id":2068149,"width":6117,"height":4078,"url":"https:\/\/www.pexels.com\/photo\/man-taking-a-knee-in-front-of-wall-with-mural-2068149\/","photographer":"Luis Quintero","photographer_url":"https:\/\/www.pexels.com\/@jibarofoto","photographer_id":447123,"avg_color":"#6F4A2D","src":{"original":"https:\/\/images.pexels.com\/photos\/2068149\/pexels-photo-2068149.jpeg","large2x":"https:\/\/images.pexels.com\/photos\/2068149\/pexels-photo-2068149.jpeg?auto=compress&cs=tinysrgb&dpr=2&h=650&w=940","large":"https:\/\/images.pexels.com\/photos\/2068149\/pexels-photo-2068149.jpeg?auto=compress&cs=tinysrgb&h=650&w=940","medium":"https:\/\/images.pexels.com\/photos\/2068149\/pexels-photo-2068149.jpeg?auto=compress&cs=tinysrgb&h=350","small":"https:\/\/images.pexels.com\/photos\/2068149\/pexels-photo-2068149.jpeg?auto=compress&cs=tinysrgb&h=130","portrait":"https:\/\/images.pexels.com\/photos\/2068149\/pexels-photo-2068149.jpeg?auto=compress&cs=tinysrgb&fit=crop&h=1200&w=800","landscape":"https:\/\/images.pexels.com\/photos\/2068149\/pexels-photo-2068149.jpeg?auto=compress&cs=tinysrgb&fit=crop&h=627&w=1200","tiny":"https:\/\/images.pexels.com\/photos\/2068149\/pexels-photo-2068149.jpeg?auto=compress&cs=tinysrgb&dpr=1&fit=crop&h=200&w=280"},"liked":false,"alt":"A person kneeling in front of graffiti creates light painting with energy and flair at night."},{"id":6895525,"width":3600,"height":5400,"url":"https:\/\/www.pexels.com\/photo\/man-in-black-leather-jacket-kissing-woman-in-blue-dress-6895525\/","photographer":"JEFERSON GOMES","photographer_url":"https:\/\/www.pexels.com\/@jeferson-gomes-24831766","photographer_id":24831766,"avg_color":"#342122","src":{"original":"https:\/\/images.pexels.com\/photos\/6895525\/pexels-photo-6895525.jpeg","large2x":"https:\/\/images.pexels.com\/photos\/6895525\/pexels-photo-6895525.jpeg?auto=compress&cs=tinysrgb&dpr=2&h=650&w=940","large":"https:\/\/images.pexels.com\/photos\/6895525\/pexels-photo-6895525.jpeg?auto=compress&cs=tinysrgb&h=650&w=940","medium":"https:\/\/images.pexels.com\/photos\/6895525\/pexels-photo-6895525.jpeg?auto=compress&cs=tinysrgb&h=350","small":"https:\/\/images.pexels.com\/photos\/6895525\/pexels-photo-6895525.jpeg?auto=compress&cs=tinysrgb&h=130","portrait":"https:\/\/images.pexels.com\/photos\/6895525\/pexels-photo-6895525.jpeg?auto=compress&cs=tinysrgb&fit=crop&h=1200&w=800","landscape":"https:\/\/images.pexels.com\/photos\/6895525\/pexels-photo-6895525.jpeg?auto=compress&cs=tinysrgb&fit=crop&h=627&w=1200","tiny":"https:\/\/images.pexels.com\/photos\/6895525\/pexels-photo-6895525.jpeg?auto=compress&cs=tinysrgb&dpr=1&fit=crop&h=200&w=280"},"liked":false,"alt":"A creative portrait capturing motion and artistic expression with body paint."},{"id":8108537,"width":4000,"height":6000,"url":"https:\/\/www.pexels.com\/photo\/man-in-black-shirt-standing-on-one-foot-8108537\/","photographer":"Mikhail Nilov","photographer_url":"https:\/\/www.pexels.com\/@mikhail-nilov","photographer_id":11437196,"avg_color":"#65122E","src":{"original":"https:\/\/images.pexels.com\/photos\/8108537\/pexels-photo-8108537.jpeg","large2x":"https:\/\/images.pexels.com\/photos\/8108537\/pexels-photo-8108537.jpeg?auto=compress&cs=tinysrgb&dpr=2&h=650&w=940","large":"https:\/\/images.pexels.com\/photos\/8108537\/pexels-photo-8108537.jpeg?auto=compress&cs=tinysrgb&h=650&w=940","medium":"https:\/\/images.pexels.com\/photos\/8108537\/pexels-photo-8108537.jpeg?auto=compress&cs=tinysrgb&h=350","small":"https:\/\/images.pexels.com\/photos\/8108537\/pexels-photo-8108537.jpeg?auto=compress&cs=tinysrgb&h=130","portrait":"https:\/\/images.pexels.com\/photos\/8108537\/pexels-photo-8108537.jpeg?auto=compress&cs=tinysrgb&fit=crop&h=1200&w=800","landscape":"https:\/\/images.pexels.com\/photos\/8108537\/pexels-photo-8108537.jpeg?auto=compress&cs=tinysrgb&fit=crop&h=627&w=1200","tiny":"https:\/\/images.pexels.com\/photos\/8108537\/pexels-photo-8108537.jpeg?auto=compress&cs=tinysrgb&dpr=1&fit=crop&h=200&w=280"},"liked":false,"alt":"Dancer in cyberpunk style posing under neon lights, surrounded by smoke."},{"id":36876883,"width":3000,"height":2456,"url":"https:\/\/www.pexels.com\/photo\/dynamic-light-trail-and-figurine-art-composition-36876883\/","photographer":"Thierry Cuzin","photographer_url":"https:\/\/www.pexels.com\/@thierry-cuzin-2158246934","photographer_id":2158246934,"avg_color":"#2B1F1F","src":{"original":"https:\/\/images.pexels.com\/photos\/36876883\/pexels-photo-36876883.jpeg","large2x":"https:\/\/images.pexels.com\/photos\/36876883\/pexels-photo-36876883.jpeg?auto=compress&cs=tinysrgb&dpr=2&h=650&w=940","large":"https:\/\/images.pexels.com\/photos\/36876883\/pexels-photo-36876883.jpeg?auto=compress&cs=tinysrgb&h=650&w=940","medium":"https:\/\/images.pexels.com\/photos\/36876883\/pexels-photo-36876883.jpeg?auto=compress&cs=tinysrgb&h=350","small":"https:\/\/images.pexels.com\/photos\/36876883\/pexels-photo-36876883.jpeg?auto=compress&cs=tinysrgb&h=130","portrait":"https:\/\/images.pexels.com\/photos\/36876883\/pexels-photo-36876883.jpeg?auto=compress&cs=tinysrgb&fit=crop&h=1200&w=800","landscape":"https:\/\/images.pexels.com\/photos\/36876883\/pexels-photo-36876883.jpeg?auto=compress&cs=tinysrgb&fit=crop&h=627&w=1200","tiny":"https:\/\/images.pexels.com\/photos\/36876883\/pexels-photo-36876883.jpeg?auto=compress&cs=tinysrgb&dpr=1&fit=crop&h=200&w=280"},"liked":false,"alt":"Vibrant abstract art with light trails surrounding a dynamic figurine in motion."},{"id":9089261,"width":4480,"height":6720,"url":"https:\/\/www.pexels.com\/photo\/a-man-in-a-room-with-lights-9089261\/","photographer":"RDNE Stock project","photographer_url":"https:\/\/www.pexels.com\/@rdne","photographer_id":3149039,"avg_color":"#4A5A7C","src":{"original":"https:\/\/images.pexels.com\/photos\/9089261\/pexels-photo-9089261.jpeg","large2x":"https:\/\/images.pexels.com\/photos\/9089261\/pexels-photo-9089261.jpeg?auto=compress&cs=tinysrgb&dpr=2&h=650&w=940","large":"https:\/\/images.pexels.com\/photos\/9089261\/pexels-photo-9089261.jpeg?auto=compress&cs=tinysrgb&h=650&w=940","medium":"https:\/\/images.pexels.com\/photos\/9089261\/pexels-photo-9089261.jpeg?auto=compress&cs=tinysrgb&h=350","small":"https:\/\/images.pexels.com\/photos\/9089261\/pexels-photo-9089261.jpeg?auto=compress&cs=tinysrgb&h=130","portrait":"https:\/\/images.pexels.com\/photos\/9089261\/pexels-photo-9089261.jpeg?auto=compress&cs=tinysrgb&fit=crop&h=1200&w=800","landscape":"https:\/\/images.pexels.com\/photos\/9089261\/pexels-photo-9089261.jpeg?auto=compress&cs=tinysrgb&fit=crop&h=627&w=1200","tiny":"https:\/\/images.pexels.com\/photos\/9089261\/pexels-photo-9089261.jpeg?auto=compress&cs=tinysrgb&dpr=1&fit=crop&h=200&w=280"},"liked":false,"alt":"Man posing in vibrant shirt amidst colorful neon light trails, creating an artistic effect."},{"id":4591255,"width":3603,"height":4504,"url":"https:\/\/www.pexels.com\/photo\/unrecognizable-man-standing-in-vortex-of-shiny-freeze-light-4591255\/","photographer":"Movoyagee","photographer_url":"https:\/\/www.pexels.com\/@movoyagee-1264169","photographer_id":1264169,"avg_color":"#534336","src":{"original":"https:\/\/images.pexels.com\/photos\/4591255\/pexels-photo-4591255.jpeg","large2x":"https:\/\/images.pexels.com\/photos\/4591255\/pexels-photo-4591255.jpeg?auto=compress&cs=tinysrgb&dpr=2&h=650&w=940","large":"https:\/\/images.pexels.com\/photos\/4591255\/pexels-photo-4591255.jpeg?auto=compress&cs=tinysrgb&h=650&w=940","medium":"https:\/\/images.pexels.com\/photos\/4591255\/pexels-photo-4591255.jpeg?auto=compress&cs=tinysrgb&h=350","small":"https:\/\/images.pexels.com\/photos\/4591255\/pexels-photo-4591255.jpeg?auto=compress&cs=tinysrgb&h=130","portrait":"https:\/\/images.pexels.com\/photos\/4591255\/pexels-photo-4591255.jpeg?auto=compress&cs=tinysrgb&fit=crop&h=1200&w=800","landscape":"https:\/\/images.pexels.com\/photos\/4591255\/pexels-photo-4591255.jpeg?auto=compress&cs=tinysrgb&fit=crop&h=627&w=1200","tiny":"https:\/\/images.pexels.com\/photos\/4591255\/pexels-photo-4591255.jpeg?auto=compress&cs=tinysrgb&dpr=1&fit=crop&h=200&w=280"},"liked":false,"alt":"Anonymous male in face mask standing with reached arms and closed eyes in swirl of glowing freeze light with rays at night"},{"id":7777511,"width":5193,"height":3463,"url":"https:\/\/www.pexels.com\/photo\/a-woman-kicking-her-opponent-7777511\/","photographer":"cottonbro studio","photographer_url":"https:\/\/www.pexels.com\/@cottonbro","photographer_id":1437723,"avg_color":"#4C5666","src":{"original":"https:\/\/images.pexels.com\/photos\/7777511\/pexels-photo-7777511.jpeg","large2x":"https:\/\/images.pexels.com\/photos\/7777511\/pexels-photo-7777511.jpeg?auto=compress&cs=tinysrgb&dpr=2&h=650&w=940","large":"https:\/\/images.pexels.com\/photos\/7777511\/pexels-photo-7777511.jpeg?auto=compress&cs=tinysrgb&h=650&w=940","medium":"https:\/\/images.pexels.com\/photos\/7777511\/pexels-photo-7777511.jpeg?auto=compress&cs=tinysrgb&h=350","small":"https:\/\/images.pexels.com\/photos\/7777511\/pexels-photo-7777511.jpeg?auto=compress&cs=tinysrgb&h=130","portrait":"https:\/\/images.pexels.com\/photos\/7777511\/pexels-photo-7777511.jpeg?auto=compress&cs=tinysrgb&fit=crop&h=1200&w=800","landscape":"https:\/\/images.pexels.com\/photos\/7777511\/pexels-photo-7777511.jpeg?auto=compress&cs=tinysrgb&fit=crop&h=627&w=1200","tiny":"https:\/\/images.pexels.com\/photos\/7777511\/pexels-photo-7777511.jpeg?auto=compress&cs=tinysrgb&dpr=1&fit=crop&h=200&w=280"},"liked":false,"alt":"Two cosplayers in a dramatic martial arts duel, showcasing agility and strength."}],"total_results":4374,"next_page":"https:\/\/api.pexels.com\/v1\/v1\/search?page=2&per_page=15&query=goku"}